[
   {
      "author_association" : "CONTRIBUTOR",
      "body" : "<!--e57a25ab6845829454e8d69fc972939a-->\n\nThe following sections might be updated with supplementary metadata relevant to reviewers and maintainers.\n\n<!--174a7506f384e20aa4161008e828411d-->\n### Conflicts\nReviewers, this pull request conflicts with the following ones:\n\n* [#24792](https://github.com/bitcoin/bitcoin/pull/24792) (Update libsecp256k1 subtree to current master by fanquake)\n* [#24770](https://github.com/bitcoin/bitcoin/pull/24770) (Put lock logging behind DEBUG_LOCKCONTENTION preprocessor directive by jonatack)\n* [#24748](https://github.com/bitcoin/bitcoin/pull/24748) (test/BIP324: functional tests for v2 P2P encryption by stratospher)\n* [#24474](https://github.com/bitcoin/bitcoin/pull/24474) (Additional thread safety annotations for CNode/Peer by ajtowns)\n* [#24157](https://github.com/bitcoin/bitcoin/pull/24157) (p2p: Replace RecursiveMutex `cs_totalBytesSent`  with Mutex and rename it by w0xlt)\n* [#24141](https://github.com/bitcoin/bitcoin/pull/24141) (Rename message_command variables in src/net* and src/rpc/net.cpp by shaavan)\n* [#23443](https://github.com/bitcoin/bitcoin/pull/23443) (p2p: Erlay support signaling by naumenkogs)\n* [#23352](https://github.com/bitcoin/bitcoin/pull/23352) (test: Extend stale_tip_peer_management test by MarcoFalke)\n* [#22910](https://github.com/bitcoin/bitcoin/pull/22910) (net: Encapsulate asmap in NetGroupManager by jnewbery)\n* [#22778](https://github.com/bitcoin/bitcoin/pull/22778) (net processing: Reduce resource usage for inbound block-relay-only connections by jnewbery)\n* [#21527](https://github.com/bitcoin/bitcoin/pull/21527) (net_processing: lock clean up by ajtowns)\n* [#20726](https://github.com/bitcoin/bitcoin/pull/20726) (p2p: Add DISABLETX message for negotiating block-relay-only connections by sdaftuar)\n\nIf you consider this pull request important, please also help to review the conflicting pull requests. Ideally, start with the one that should be merged first.",
      "created_at" : "2022-03-12T21:00:25Z",
      "html_url" : "https://github.com/bitcoin/bitcoin/pull/24545#issuecomment-1065961815",
      "id" : 1065961815,
      "issue_url" : "https://api.github.com/repos/bitcoin/bitcoin/issues/24545",
      "node_id" : "IC_kwDOABII584_iUlX",
      "performed_via_github_app" : null,
      "reactions" : {
         "+1" : 0,
         "-1" : 0,
         "confused" : 0,
         "eyes" : 0,
         "heart" : 0,
         "hooray" : 0,
         "laugh" : 0,
         "rocket" : 0,
         "total_count" : 0,
         "url" : "https://api.github.com/repos/bitcoin/bitcoin/issues/comments/1065961815/reactions"
      },
      "updated_at" : "2022-04-08T14:08:04Z",
      "url" : "https://api.github.com/repos/bitcoin/bitcoin/issues/comments/1065961815",
      "user" : {
         "avatar_url" : "https://avatars.githubusercontent.com/u/39886733?v=4",
         "events_url" : "https://api.github.com/users/DrahtBot/events{/privacy}",
         "followers_url" : "https://api.github.com/users/DrahtBot/followers",
         "following_url" : "https://api.github.com/users/DrahtBot/following{/other_user}",
         "gists_url" : "https://api.github.com/users/DrahtBot/gists{/gist_id}",
         "gravatar_id" : "",
         "html_url" : "https://github.com/DrahtBot",
         "id" : 39886733,
         "login" : "DrahtBot",
         "node_id" : "MDQ6VXNlcjM5ODg2NzMz",
         "organizations_url" : "https://api.github.com/users/DrahtBot/orgs",
         "received_events_url" : "https://api.github.com/users/DrahtBot/received_events",
         "repos_url" : "https://api.github.com/users/DrahtBot/repos",
         "site_admin" : false,
         "starred_url" : "https://api.github.com/users/DrahtBot/starred{/owner}{/repo}",
         "subscriptions_url" : "https://api.github.com/users/DrahtBot/subscriptions",
         "type" : "User",
         "url" : "https://api.github.com/users/DrahtBot"
      }
   },
   {
      "author_association" : "CONTRIBUTOR",
      "body" : "Bringing in [upstream changes](https://github.com/bitcoin/bitcoin/pull/20962#issuecomment-1074367550) from #20962. Ready for further review.",
      "created_at" : "2022-03-21T20:14:19Z",
      "html_url" : "https://github.com/bitcoin/bitcoin/pull/24545#issuecomment-1074372377",
      "id" : 1074372377,
      "issue_url" : "https://api.github.com/repos/bitcoin/bitcoin/issues/24545",
      "node_id" : "IC_kwDOABII585ACZ8Z",
      "performed_via_github_app" : null,
      "reactions" : {
         "+1" : 0,
         "-1" : 0,
         "confused" : 0,
         "eyes" : 0,
         "heart" : 0,
         "hooray" : 0,
         "laugh" : 0,
         "rocket" : 0,
         "total_count" : 0,
         "url" : "https://api.github.com/repos/bitcoin/bitcoin/issues/comments/1074372377/reactions"
      },
      "updated_at" : "2022-03-21T20:14:19Z",
      "url" : "https://api.github.com/repos/bitcoin/bitcoin/issues/comments/1074372377",
      "user" : {
         "avatar_url" : "https://avatars.githubusercontent.com/u/856960?v=4",
         "events_url" : "https://api.github.com/users/dhruv/events{/privacy}",
         "followers_url" : "https://api.github.com/users/dhruv/followers",
         "following_url" : "https://api.github.com/users/dhruv/following{/other_user}",
         "gists_url" : "https://api.github.com/users/dhruv/gists{/gist_id}",
         "gravatar_id" : "",
         "html_url" : "https://github.com/dhruv",
         "id" : 856960,
         "login" : "dhruv",
         "node_id" : "MDQ6VXNlcjg1Njk2MA==",
         "organizations_url" : "https://api.github.com/users/dhruv/orgs",
         "received_events_url" : "https://api.github.com/users/dhruv/received_events",
         "repos_url" : "https://api.github.com/users/dhruv/repos",
         "site_admin" : false,
         "starred_url" : "https://api.github.com/users/dhruv/starred{/owner}{/repo}",
         "subscriptions_url" : "https://api.github.com/users/dhruv/subscriptions",
         "type" : "User",
         "url" : "https://api.github.com/users/dhruv"
      }
   },
   {
      "author_association" : "CONTRIBUTOR",
      "body" : "<!--cf906140f33d8803c4a75a2196329ecb-->\nð This pull request conflicts with the target branch and [needs rebase](https://github.com/bitcoin/bitcoin/blob/master/CONTRIBUTING.md#rebasing-changes).\n\n<sub>Want to unsubscribe from rebase notifications on this pull request? Just convert this pull request to a \"draft\".</sub>",
      "created_at" : "2022-03-25T17:16:05Z",
      "html_url" : "https://github.com/bitcoin/bitcoin/pull/24545#issuecomment-1079235363",
      "id" : 1079235363,
      "issue_url" : "https://api.github.com/repos/bitcoin/bitcoin/issues/24545",
      "node_id" : "IC_kwDOABII585AU9Mj",
      "performed_via_github_app" : null,
      "reactions" : {
         "+1" : 0,
         "-1" : 0,
         "confused" : 0,
         "eyes" : 0,
         "heart" : 0,
         "hooray" : 0,
         "laugh" : 0,
         "rocket" : 0,
         "total_count" : 0,
         "url" : "https://api.github.com/repos/bitcoin/bitcoin/issues/comments/1079235363/reactions"
      },
      "updated_at" : "2022-03-25T17:16:05Z",
      "url" : "https://api.github.com/repos/bitcoin/bitcoin/issues/comments/1079235363",
      "user" : {
         "avatar_url" : "https://avatars.githubusercontent.com/u/39886733?v=4",
         "events_url" : "https://api.github.com/users/DrahtBot/events{/privacy}",
         "followers_url" : "https://api.github.com/users/DrahtBot/followers",
         "following_url" : "https://api.github.com/users/DrahtBot/following{/other_user}",
         "gists_url" : "https://api.github.com/users/DrahtBot/gists{/gist_id}",
         "gravatar_id" : "",
         "html_url" : "https://github.com/DrahtBot",
         "id" : 39886733,
         "login" : "DrahtBot",
         "node_id" : "MDQ6VXNlcjM5ODg2NzMz",
         "organizations_url" : "https://api.github.com/users/DrahtBot/orgs",
         "received_events_url" : "https://api.github.com/users/DrahtBot/received_events",
         "repos_url" : "https://api.github.com/users/DrahtBot/repos",
         "site_admin" : false,
         "starred_url" : "https://api.github.com/users/DrahtBot/starred{/owner}{/repo}",
         "subscriptions_url" : "https://api.github.com/users/DrahtBot/subscriptions",
         "type" : "User",
         "url" : "https://api.github.com/users/DrahtBot"
      }
   },
   {
      "author_association" : "CONTRIBUTOR",
      "body" : "Rebased to resolve conflicts with #21160.\r\n\r\nAddressed comments from @mzumsande and @kallewoof in #23900.\r\n\r\nReady for further review.\r\n\r\n`git range-diff 171f6f269 4a38f3e be9a830`",
      "created_at" : "2022-03-30T04:13:24Z",
      "html_url" : "https://github.com/bitcoin/bitcoin/pull/24545#issuecomment-1082601989",
      "id" : 1082601989,
      "issue_url" : "https://api.github.com/repos/bitcoin/bitcoin/issues/24545",
      "node_id" : "IC_kwDOABII585AhzIF",
      "performed_via_github_app" : null,
      "reactions" : {
         "+1" : 0,
         "-1" : 0,
         "confused" : 0,
         "eyes" : 0,
         "heart" : 0,
         "hooray" : 0,
         "laugh" : 0,
         "rocket" : 0,
         "total_count" : 0,
         "url" : "https://api.github.com/repos/bitcoin/bitcoin/issues/comments/1082601989/reactions"
      },
      "updated_at" : "2022-03-30T16:46:19Z",
      "url" : "https://api.github.com/repos/bitcoin/bitcoin/issues/comments/1082601989",
      "user" : {
         "avatar_url" : "https://avatars.githubusercontent.com/u/856960?v=4",
         "events_url" : "https://api.github.com/users/dhruv/events{/privacy}",
         "followers_url" : "https://api.github.com/users/dhruv/followers",
         "following_url" : "https://api.github.com/users/dhruv/following{/other_user}",
         "gists_url" : "https://api.github.com/users/dhruv/gists{/gist_id}",
         "gravatar_id" : "",
         "html_url" : "https://github.com/dhruv",
         "id" : 856960,
         "login" : "dhruv",
         "node_id" : "MDQ6VXNlcjg1Njk2MA==",
         "organizations_url" : "https://api.github.com/users/dhruv/orgs",
         "received_events_url" : "https://api.github.com/users/dhruv/received_events",
         "repos_url" : "https://api.github.com/users/dhruv/repos",
         "site_admin" : false,
         "starred_url" : "https://api.github.com/users/dhruv/starred{/owner}{/repo}",
         "subscriptions_url" : "https://api.github.com/users/dhruv/subscriptions",
         "type" : "User",
         "url" : "https://api.github.com/users/dhruv"
      }
   },
   {
      "author_association" : "CONTRIBUTOR",
      "body" : "<!--cf906140f33d8803c4a75a2196329ecb-->\nð This pull request conflicts with the target branch and [needs rebase](https://github.com/bitcoin/bitcoin/blob/master/CONTRIBUTING.md#rebasing-changes).\n\n<sub>Want to unsubscribe from rebase notifications on this pull request? Just convert this pull request to a \"draft\".</sub>",
      "created_at" : "2022-03-30T08:06:26Z",
      "html_url" : "https://github.com/bitcoin/bitcoin/pull/24545#issuecomment-1082758482",
      "id" : 1082758482,
      "issue_url" : "https://api.github.com/repos/bitcoin/bitcoin/issues/24545",
      "node_id" : "IC_kwDOABII585AiZVS",
      "performed_via_github_app" : null,
      "reactions" : {
         "+1" : 0,
         "-1" : 0,
         "confused" : 0,
         "eyes" : 0,
         "heart" : 0,
         "hooray" : 0,
         "laugh" : 0,
         "rocket" : 0,
         "total_count" : 0,
         "url" : "https://api.github.com/repos/bitcoin/bitcoin/issues/comments/1082758482/reactions"
      },
      "updated_at" : "2022-03-30T08:06:26Z",
      "url" : "https://api.github.com/repos/bitcoin/bitcoin/issues/comments/1082758482",
      "user" : {
         "avatar_url" : "https://avatars.githubusercontent.com/u/39886733?v=4",
         "events_url" : "https://api.github.com/users/DrahtBot/events{/privacy}",
         "followers_url" : "https://api.github.com/users/DrahtBot/followers",
         "following_url" : "https://api.github.com/users/DrahtBot/following{/other_user}",
         "gists_url" : "https://api.github.com/users/DrahtBot/gists{/gist_id}",
         "gravatar_id" : "",
         "html_url" : "https://github.com/DrahtBot",
         "id" : 39886733,
         "login" : "DrahtBot",
         "node_id" : "MDQ6VXNlcjM5ODg2NzMz",
         "organizations_url" : "https://api.github.com/users/DrahtBot/orgs",
         "received_events_url" : "https://api.github.com/users/DrahtBot/received_events",
         "repos_url" : "https://api.github.com/users/DrahtBot/repos",
         "site_admin" : false,
         "starred_url" : "https://api.github.com/users/DrahtBot/starred{/owner}{/repo}",
         "subscriptions_url" : "https://api.github.com/users/DrahtBot/subscriptions",
         "type" : "User",
         "url" : "https://api.github.com/users/DrahtBot"
      }
   },
   {
      "author_association" : "CONTRIBUTOR",
      "body" : "Rebased. Ready for further review.\r\n\r\n`git range-diff 171f6f269 be9a830 f7cae59`",
      "created_at" : "2022-03-30T16:44:49Z",
      "html_url" : "https://github.com/bitcoin/bitcoin/pull/24545#issuecomment-1083376376",
      "id" : 1083376376,
      "issue_url" : "https://api.github.com/repos/bitcoin/bitcoin/issues/24545",
      "node_id" : "IC_kwDOABII585AkwL4",
      "performed_via_github_app" : null,
      "reactions" : {
         "+1" : 0,
         "-1" : 0,
         "confused" : 0,
         "eyes" : 0,
         "heart" : 0,
         "hooray" : 0,
         "laugh" : 0,
         "rocket" : 0,
         "total_count" : 0,
         "url" : "https://api.github.com/repos/bitcoin/bitcoin/issues/comments/1083376376/reactions"
      },
      "updated_at" : "2022-03-30T16:47:16Z",
      "url" : "https://api.github.com/repos/bitcoin/bitcoin/issues/comments/1083376376",
      "user" : {
         "avatar_url" : "https://avatars.githubusercontent.com/u/856960?v=4",
         "events_url" : "https://api.github.com/users/dhruv/events{/privacy}",
         "followers_url" : "https://api.github.com/users/dhruv/followers",
         "following_url" : "https://api.github.com/users/dhruv/following{/other_user}",
         "gists_url" : "https://api.github.com/users/dhruv/gists{/gist_id}",
         "gravatar_id" : "",
         "html_url" : "https://github.com/dhruv",
         "id" : 856960,
         "login" : "dhruv",
         "node_id" : "MDQ6VXNlcjg1Njk2MA==",
         "organizations_url" : "https://api.github.com/users/dhruv/orgs",
         "received_events_url" : "https://api.github.com/users/dhruv/received_events",
         "repos_url" : "https://api.github.com/users/dhruv/repos",
         "site_admin" : false,
         "starred_url" : "https://api.github.com/users/dhruv/starred{/owner}{/repo}",
         "subscriptions_url" : "https://api.github.com/users/dhruv/subscriptions",
         "type" : "User",
         "url" : "https://api.github.com/users/dhruv"
      }
   },
   {
      "author_association" : "MEMBER",
      "body" : "Concept ACK",
      "created_at" : "2022-04-04T12:08:48Z",
      "html_url" : "https://github.com/bitcoin/bitcoin/pull/24545#issuecomment-1087474597",
      "id" : 1087474597,
      "issue_url" : "https://api.github.com/repos/bitcoin/bitcoin/issues/24545",
      "node_id" : "IC_kwDOABII585A0Yul",
      "performed_via_github_app" : null,
      "reactions" : {
         "+1" : 0,
         "-1" : 0,
         "confused" : 0,
         "eyes" : 0,
         "heart" : 0,
         "hooray" : 0,
         "laugh" : 0,
         "rocket" : 0,
         "total_count" : 0,
         "url" : "https://api.github.com/repos/bitcoin/bitcoin/issues/comments/1087474597/reactions"
      },
      "updated_at" : "2022-04-04T12:08:48Z",
      "url" : "https://api.github.com/repos/bitcoin/bitcoin/issues/comments/1087474597",
      "user" : {
         "avatar_url" : "https://avatars.githubusercontent.com/u/2415484?v=4",
         "events_url" : "https://api.github.com/users/jonatack/events{/privacy}",
         "followers_url" : "https://api.github.com/users/jonatack/followers",
         "following_url" : "https://api.github.com/users/jonatack/following{/other_user}",
         "gists_url" : "https://api.github.com/users/jonatack/gists{/gist_id}",
         "gravatar_id" : "",
         "html_url" : "https://github.com/jonatack",
         "id" : 2415484,
         "login" : "jonatack",
         "node_id" : "MDQ6VXNlcjI0MTU0ODQ=",
         "organizations_url" : "https://api.github.com/users/jonatack/orgs",
         "received_events_url" : "https://api.github.com/users/jonatack/received_events",
         "repos_url" : "https://api.github.com/users/jonatack/repos",
         "site_admin" : false,
         "starred_url" : "https://api.github.com/users/jonatack/starred{/owner}{/repo}",
         "subscriptions_url" : "https://api.github.com/users/jonatack/subscriptions",
         "type" : "User",
         "url" : "https://api.github.com/users/jonatack"
      }
   },
   {
      "author_association" : "MEMBER",
      "body" : "I'm testing this on one of my nodes. Feel free to message me if you want to connect.\r\n\r\nIs there any way to see (in, say, `getpeerinfo`) whether a connection uses P2P v2?",
      "created_at" : "2022-04-07T17:50:56Z",
      "html_url" : "https://github.com/bitcoin/bitcoin/pull/24545#issuecomment-1092028227",
      "id" : 1092028227,
      "issue_url" : "https://api.github.com/repos/bitcoin/bitcoin/issues/24545",
      "node_id" : "IC_kwDOABII585BFwdD",
      "performed_via_github_app" : null,
      "reactions" : {
         "+1" : 0,
         "-1" : 0,
         "confused" : 0,
         "eyes" : 0,
         "heart" : 0,
         "hooray" : 0,
         "laugh" : 0,
         "rocket" : 0,
         "total_count" : 0,
         "url" : "https://api.github.com/repos/bitcoin/bitcoin/issues/comments/1092028227/reactions"
      },
      "updated_at" : "2022-04-07T17:50:56Z",
      "url" : "https://api.github.com/repos/bitcoin/bitcoin/issues/comments/1092028227",
      "user" : {
         "avatar_url" : "https://avatars.githubusercontent.com/u/126646?v=4",
         "events_url" : "https://api.github.com/users/laanwj/events{/privacy}",
         "followers_url" : "https://api.github.com/users/laanwj/followers",
         "following_url" : "https://api.github.com/users/laanwj/following{/other_user}",
         "gists_url" : "https://api.github.com/users/laanwj/gists{/gist_id}",
         "gravatar_id" : "",
         "html_url" : "https://github.com/laanwj",
         "id" : 126646,
         "login" : "laanwj",
         "node_id" : "MDQ6VXNlcjEyNjY0Ng==",
         "organizations_url" : "https://api.github.com/users/laanwj/orgs",
         "received_events_url" : "https://api.github.com/users/laanwj/received_events",
         "repos_url" : "https://api.github.com/users/laanwj/repos",
         "site_admin" : false,
         "starred_url" : "https://api.github.com/users/laanwj/starred{/owner}{/repo}",
         "subscriptions_url" : "https://api.github.com/users/laanwj/subscriptions",
         "type" : "User",
         "url" : "https://api.github.com/users/laanwj"
      }
   },
   {
      "author_association" : "CONTRIBUTOR",
      "body" : "Thanks, @laanwj !\r\n\r\n> Is there any way to see (in, say, getpeerinfo) whether a connection uses P2P v2?\r\n\r\nThat's a good idea, I've added it here: https://github.com/bitcoin/bitcoin/projects/17#card-80335229 I'll work on it once I'm done with the basics. For now, can you `tcpdump -Apn -i any -w - -U port <PORT> | wireshark -k -i -` to see the differences between v1 and v2?",
      "created_at" : "2022-04-07T18:24:15Z",
      "html_url" : "https://github.com/bitcoin/bitcoin/pull/24545#issuecomment-1092067356",
      "id" : 1092067356,
      "issue_url" : "https://api.github.com/repos/bitcoin/bitcoin/issues/24545",
      "node_id" : "IC_kwDOABII585BF6Ac",
      "performed_via_github_app" : null,
      "reactions" : {
         "+1" : 1,
         "-1" : 0,
         "confused" : 0,
         "eyes" : 0,
         "heart" : 0,
         "hooray" : 0,
         "laugh" : 0,
         "rocket" : 0,
         "total_count" : 1,
         "url" : "https://api.github.com/repos/bitcoin/bitcoin/issues/comments/1092067356/reactions"
      },
      "updated_at" : "2022-04-07T18:25:38Z",
      "url" : "https://api.github.com/repos/bitcoin/bitcoin/issues/comments/1092067356",
      "user" : {
         "avatar_url" : "https://avatars.githubusercontent.com/u/856960?v=4",
         "events_url" : "https://api.github.com/users/dhruv/events{/privacy}",
         "followers_url" : "https://api.github.com/users/dhruv/followers",
         "following_url" : "https://api.github.com/users/dhruv/following{/other_user}",
         "gists_url" : "https://api.github.com/users/dhruv/gists{/gist_id}",
         "gravatar_id" : "",
         "html_url" : "https://github.com/dhruv",
         "id" : 856960,
         "login" : "dhruv",
         "node_id" : "MDQ6VXNlcjg1Njk2MA==",
         "organizations_url" : "https://api.github.com/users/dhruv/orgs",
         "received_events_url" : "https://api.github.com/users/dhruv/received_events",
         "repos_url" : "https://api.github.com/users/dhruv/repos",
         "site_admin" : false,
         "starred_url" : "https://api.github.com/users/dhruv/starred{/owner}{/repo}",
         "subscriptions_url" : "https://api.github.com/users/dhruv/subscriptions",
         "type" : "User",
         "url" : "https://api.github.com/users/dhruv"
      }
   },
   {
      "author_association" : "CONTRIBUTOR",
      "body" : "<!--cf906140f33d8803c4a75a2196329ecb-->\nð This pull request conflicts with the target branch and [needs rebase](https://github.com/bitcoin/bitcoin/blob/master/CONTRIBUTING.md#rebasing-changes).\n\n<sub>Want to unsubscribe from rebase notifications on this pull request? Just convert this pull request to a \"draft\".</sub>",
      "created_at" : "2022-04-08T14:33:17Z",
      "html_url" : "https://github.com/bitcoin/bitcoin/pull/24545#issuecomment-1092927605",
      "id" : 1092927605,
      "issue_url" : "https://api.github.com/repos/bitcoin/bitcoin/issues/24545",
      "node_id" : "IC_kwDOABII585BJMB1",
      "performed_via_github_app" : null,
      "reactions" : {
         "+1" : 0,
         "-1" : 0,
         "confused" : 0,
         "eyes" : 0,
         "heart" : 0,
         "hooray" : 0,
         "laugh" : 0,
         "rocket" : 0,
         "total_count" : 0,
         "url" : "https://api.github.com/repos/bitcoin/bitcoin/issues/comments/1092927605/reactions"
      },
      "updated_at" : "2022-04-08T14:33:17Z",
      "url" : "https://api.github.com/repos/bitcoin/bitcoin/issues/comments/1092927605",
      "user" : {
         "avatar_url" : "https://avatars.githubusercontent.com/u/39886733?v=4",
         "events_url" : "https://api.github.com/users/DrahtBot/events{/privacy}",
         "followers_url" : "https://api.github.com/users/DrahtBot/followers",
         "following_url" : "https://api.github.com/users/DrahtBot/following{/other_user}",
         "gists_url" : "https://api.github.com/users/DrahtBot/gists{/gist_id}",
         "gravatar_id" : "",
         "html_url" : "https://github.com/DrahtBot",
         "id" : 39886733,
         "login" : "DrahtBot",
         "node_id" : "MDQ6VXNlcjM5ODg2NzMz",
         "organizations_url" : "https://api.github.com/users/DrahtBot/orgs",
         "received_events_url" : "https://api.github.com/users/DrahtBot/received_events",
         "repos_url" : "https://api.github.com/users/DrahtBot/repos",
         "site_admin" : false,
         "starred_url" : "https://api.github.com/users/DrahtBot/starred{/owner}{/repo}",
         "subscriptions_url" : "https://api.github.com/users/DrahtBot/subscriptions",
         "type" : "User",
         "url" : "https://api.github.com/users/DrahtBot"
      }
   },
   {
      "author_association" : "CONTRIBUTOR",
      "body" : "Rebased. `git range-diff e0680bbce f7cae59 d0aef7a1d`\r\n\r\nReady for further review.",
      "created_at" : "2022-04-09T15:50:08Z",
      "html_url" : "https://github.com/bitcoin/bitcoin/pull/24545#issuecomment-1094072522",
      "id" : 1094072522,
      "issue_url" : "https://api.github.com/repos/bitcoin/bitcoin/issues/24545",
      "node_id" : "IC_kwDOABII585BNjjK",
      "performed_via_github_app" : null,
      "reactions" : {
         "+1" : 0,
         "-1" : 0,
         "confused" : 0,
         "eyes" : 0,
         "heart" : 0,
         "hooray" : 0,
         "laugh" : 0,
         "rocket" : 0,
         "total_count" : 0,
         "url" : "https://api.github.com/repos/bitcoin/bitcoin/issues/comments/1094072522/reactions"
      },
      "updated_at" : "2022-04-09T15:50:08Z",
      "url" : "https://api.github.com/repos/bitcoin/bitcoin/issues/comments/1094072522",
      "user" : {
         "avatar_url" : "https://avatars.githubusercontent.com/u/856960?v=4",
         "events_url" : "https://api.github.com/users/dhruv/events{/privacy}",
         "followers_url" : "https://api.github.com/users/dhruv/followers",
         "following_url" : "https://api.github.com/users/dhruv/following{/other_user}",
         "gists_url" : "https://api.github.com/users/dhruv/gists{/gist_id}",
         "gravatar_id" : "",
         "html_url" : "https://github.com/dhruv",
         "id" : 856960,
         "login" : "dhruv",
         "node_id" : "MDQ6VXNlcjg1Njk2MA==",
         "organizations_url" : "https://api.github.com/users/dhruv/orgs",
         "received_events_url" : "https://api.github.com/users/dhruv/received_events",
         "repos_url" : "https://api.github.com/users/dhruv/repos",
         "site_admin" : false,
         "starred_url" : "https://api.github.com/users/dhruv/starred{/owner}{/repo}",
         "subscriptions_url" : "https://api.github.com/users/dhruv/subscriptions",
         "type" : "User",
         "url" : "https://api.github.com/users/dhruv"
      }
   },
   {
      "author_association" : "CONTRIBUTOR",
      "body" : "<!--cf906140f33d8803c4a75a2196329ecb-->\nð This pull request conflicts with the target branch and [needs rebase](https://github.com/bitcoin/bitcoin/blob/master/CONTRIBUTING.md#rebasing-changes).\n\n<sub>Want to unsubscribe from rebase notifications on this pull request? Just convert this pull request to a \"draft\".</sub>",
      "created_at" : "2022-04-09T19:46:55Z",
      "html_url" : "https://github.com/bitcoin/bitcoin/pull/24545#issuecomment-1094114277",
      "id" : 1094114277,
      "issue_url" : "https://api.github.com/repos/bitcoin/bitcoin/issues/24545",
      "node_id" : "IC_kwDOABII585BNtvl",
      "performed_via_github_app" : null,
      "reactions" : {
         "+1" : 0,
         "-1" : 0,
         "confused" : 0,
         "eyes" : 0,
         "heart" : 0,
         "hooray" : 0,
         "laugh" : 0,
         "rocket" : 0,
         "total_count" : 0,
         "url" : "https://api.github.com/repos/bitcoin/bitcoin/issues/comments/1094114277/reactions"
      },
      "updated_at" : "2022-04-09T19:46:55Z",
      "url" : "https://api.github.com/repos/bitcoin/bitcoin/issues/comments/1094114277",
      "user" : {
         "avatar_url" : "https://avatars.githubusercontent.com/u/39886733?v=4",
         "events_url" : "https://api.github.com/users/DrahtBot/events{/privacy}",
         "followers_url" : "https://api.github.com/users/DrahtBot/followers",
         "following_url" : "https://api.github.com/users/DrahtBot/following{/other_user}",
         "gists_url" : "https://api.github.com/users/DrahtBot/gists{/gist_id}",
         "gravatar_id" : "",
         "html_url" : "https://github.com/DrahtBot",
         "id" : 39886733,
         "login" : "DrahtBot",
         "node_id" : "MDQ6VXNlcjM5ODg2NzMz",
         "organizations_url" : "https://api.github.com/users/DrahtBot/orgs",
         "received_events_url" : "https://api.github.com/users/DrahtBot/received_events",
         "repos_url" : "https://api.github.com/users/DrahtBot/repos",
         "site_admin" : false,
         "starred_url" : "https://api.github.com/users/DrahtBot/starred{/owner}{/repo}",
         "subscriptions_url" : "https://api.github.com/users/DrahtBot/subscriptions",
         "type" : "User",
         "url" : "https://api.github.com/users/DrahtBot"
      }
   },
   {
      "author_association" : "NONE",
      "body" : "VÃ o CN, 10 thg 4, 2022 lÃºc 2:47 SA DrahtBot ***@***.***> ÄÃ£\nviáº¿t:\n\n> ð This pull request conflicts with the target branch and needs rebase\n> <https://github.com/bitcoin/bitcoin/blob/master/CONTRIBUTING.md#rebasing-changes>\n> .\n>\n> Want to unsubscribe from rebase notifications on this pull request? Just\n> convert this pull request to a \"draft\".\n>\n> â\n> Reply to this email directly, view it on GitHub\n> <https://github.com/bitcoin/bitcoin/pull/24545#issuecomment-1094114277>,\n> or unsubscribe\n> <https://github.com/notifications/unsubscribe-auth/AVQHDXC57RFNZXC7DCRHKVDVEHND7ANCNFSM5QSHGKNQ>\n> .\n> You are receiving this because you are subscribed to this thread.Message\n> ID: ***@***.***>\n>\n-- \n~~~~1GwvLW9qJ8uaYjew3cFvPiqxViWhuU1pKT~~BTC1505~~\n",
      "created_at" : "2022-04-10T03:49:08Z",
      "html_url" : "https://github.com/bitcoin/bitcoin/pull/24545#issuecomment-1094169439",
      "id" : 1094169439,
      "issue_url" : "https://api.github.com/repos/bitcoin/bitcoin/issues/24545",
      "node_id" : "IC_kwDOABII585BN7Nf",
      "performed_via_github_app" : null,
      "reactions" : {
         "+1" : 0,
         "-1" : 0,
         "confused" : 0,
         "eyes" : 0,
         "heart" : 0,
         "hooray" : 0,
         "laugh" : 0,
         "rocket" : 0,
         "total_count" : 0,
         "url" : "https://api.github.com/repos/bitcoin/bitcoin/issues/comments/1094169439/reactions"
      },
      "updated_at" : "2022-04-10T03:49:08Z",
      "url" : "https://api.github.com/repos/bitcoin/bitcoin/issues/comments/1094169439",
      "user" : {
         "avatar_url" : "https://avatars.githubusercontent.com/u/90206684?v=4",
         "events_url" : "https://api.github.com/users/uvhw/events{/privacy}",
         "followers_url" : "https://api.github.com/users/uvhw/followers",
         "following_url" : "https://api.github.com/users/uvhw/following{/other_user}",
         "gists_url" : "https://api.github.com/users/uvhw/gists{/gist_id}",
         "gravatar_id" : "",
         "html_url" : "https://github.com/uvhw",
         "id" : 90206684,
         "login" : "uvhw",
         "node_id" : "MDQ6VXNlcjkwMjA2Njg0",
         "organizations_url" : "https://api.github.com/users/uvhw/orgs",
         "received_events_url" : "https://api.github.com/users/uvhw/received_events",
         "repos_url" : "https://api.github.com/users/uvhw/repos",
         "site_admin" : false,
         "starred_url" : "https://api.github.com/users/uvhw/starred{/owner}{/repo}",
         "subscriptions_url" : "https://api.github.com/users/uvhw/subscriptions",
         "type" : "User",
         "url" : "https://api.github.com/users/uvhw"
      }
   },
   {
      "author_association" : "CONTRIBUTOR",
      "body" : "I'm running d0aef7a1d2f324aad923f734247d34baf9a50ae8 on the node behind https://bitcoind.observer. DM me for the IP.",
      "created_at" : "2022-04-28T09:07:17Z",
      "html_url" : "https://github.com/bitcoin/bitcoin/pull/24545#issuecomment-1111949870",
      "id" : 1111949870,
      "issue_url" : "https://api.github.com/repos/bitcoin/bitcoin/issues/24545",
      "node_id" : "IC_kwDOABII585CRwIu",
      "performed_via_github_app" : null,
      "reactions" : {
         "+1" : 0,
         "-1" : 0,
         "confused" : 0,
         "eyes" : 0,
         "heart" : 0,
         "hooray" : 0,
         "laugh" : 0,
         "rocket" : 0,
         "total_count" : 0,
         "url" : "https://api.github.com/repos/bitcoin/bitcoin/issues/comments/1111949870/reactions"
      },
      "updated_at" : "2022-04-28T09:07:17Z",
      "url" : "https://api.github.com/repos/bitcoin/bitcoin/issues/comments/1111949870",
      "user" : {
         "avatar_url" : "https://avatars.githubusercontent.com/u/19157360?v=4",
         "events_url" : "https://api.github.com/users/0xB10C/events{/privacy}",
         "followers_url" : "https://api.github.com/users/0xB10C/followers",
         "following_url" : "https://api.github.com/users/0xB10C/following{/other_user}",
         "gists_url" : "https://api.github.com/users/0xB10C/gists{/gist_id}",
         "gravatar_id" : "",
         "html_url" : "https://github.com/0xB10C",
         "id" : 19157360,
         "login" : "0xB10C",
         "node_id" : "MDQ6VXNlcjE5MTU3MzYw",
         "organizations_url" : "https://api.github.com/users/0xB10C/orgs",
         "received_events_url" : "https://api.github.com/users/0xB10C/received_events",
         "repos_url" : "https://api.github.com/users/0xB10C/repos",
         "site_admin" : false,
         "starred_url" : "https://api.github.com/users/0xB10C/starred{/owner}{/repo}",
         "subscriptions_url" : "https://api.github.com/users/0xB10C/subscriptions",
         "type" : "User",
         "url" : "https://api.github.com/users/0xB10C"
      }
   },
   {
      "author_association" : "CONTRIBUTOR",
      "body" : "From what I can tell, my node fails to connect to another p2p v2 peer (likely @laanwj's, we haven't fully confirmed that yet) and stops accepting inbound messages from any other peer cutting it off from the network entirely.  \r\n\r\nLogs:\r\n```\r\n(node operating as ususal)\r\n..\r\n2022-04-28T12:25:39Z got inv: wtx c0b2943d5e9bf180088a6683011c04bbee1e9485fdc35eae408cd30614e392a2  have peer=6\r\n2022-04-28T12:25:39Z got inv: wtx 842fb44f4669248d8299523f6f2660c4717a11293b986973cc227ace30af8406  have peer=6\r\n2022-04-28T12:25:39Z sending inv (289 bytes) peer=6\r\n2022-04-28T12:25:39Z Making feeler connection to XXX.XXX.XXX.XXX:8333\r\n2022-04-28T12:25:39Z trying connection XXX.XXX.XXX.XXX:8333 lastseen=188.3hrs\r\n2022-04-28T12:25:39Z Added connection to XXX.XXX.XXX.XXX:8333 peer=31\r\n2022-04-28T12:25:39Z socket closed for peer=31\r\n2022-04-28T12:25:39Z disconnecting peer=31                      <-------- breaks here\r\n2022-04-28T12:25:40Z sending inv (325 bytes) peer=4\r\n2022-04-28T12:25:41Z sending inv (361 bytes) peer=27\r\n2022-04-28T12:25:41Z sending inv (793 bytes) peer=24\r\n2022-04-28T12:25:41Z Requesting tx 1bd8401dac5fb4b922a95c6c939cbf901d946ab3a6d2c811fd498f8c743bdd23 peer=3\r\n2022-04-28T12:25:41Z Requesting tx ca432d826b5163bf78320eb9cecf2f47aab8cb8f176fa67e4991e659e69e7c6e peer=3\r\n2022-04-28T12:25:41Z sending getdata (73 bytes) peer=3\r\n2022-04-28T12:25:43Z sending inv (109 bytes) peer=3\r\n2022-04-28T12:25:44Z sending inv (397 bytes) peer=11\r\n2022-04-28T12:25:44Z sending inv (721 bytes) peer=18\r\n2022-04-28T12:25:46Z sending inv (397 bytes) peer=26\r\n2022-04-28T12:25:47Z sending inv (397 bytes) peer=13\r\n2022-04-28T12:25:47Z sending inv (541 bytes) peer=5\r\n..\r\n(no more inbound messages received)\r\n```\r\n",
      "created_at" : "2022-04-28T13:21:57Z",
      "html_url" : "https://github.com/bitcoin/bitcoin/pull/24545#issuecomment-1112197330",
      "id" : 1112197330,
      "issue_url" : "https://api.github.com/repos/bitcoin/bitcoin/issues/24545",
      "node_id" : "IC_kwDOABII585CSsjS",
      "performed_via_github_app" : null,
      "reactions" : {
         "+1" : 0,
         "-1" : 0,
         "confused" : 0,
         "eyes" : 0,
         "heart" : 0,
         "hooray" : 0,
         "laugh" : 0,
         "rocket" : 0,
         "total_count" : 0,
         "url" : "https://api.github.com/repos/bitcoin/bitcoin/issues/comments/1112197330/reactions"
      },
      "updated_at" : "2022-04-28T13:25:59Z",
      "url" : "https://api.github.com/repos/bitcoin/bitcoin/issues/comments/1112197330",
      "user" : {
         "avatar_url" : "https://avatars.githubusercontent.com/u/19157360?v=4",
         "events_url" : "https://api.github.com/users/0xB10C/events{/privacy}",
         "followers_url" : "https://api.github.com/users/0xB10C/followers",
         "following_url" : "https://api.github.com/users/0xB10C/following{/other_user}",
         "gists_url" : "https://api.github.com/users/0xB10C/gists{/gist_id}",
         "gravatar_id" : "",
         "html_url" : "https://github.com/0xB10C",
         "id" : 19157360,
         "login" : "0xB10C",
         "node_id" : "MDQ6VXNlcjE5MTU3MzYw",
         "organizations_url" : "https://api.github.com/users/0xB10C/orgs",
         "received_events_url" : "https://api.github.com/users/0xB10C/received_events",
         "repos_url" : "https://api.github.com/users/0xB10C/repos",
         "site_admin" : false,
         "starred_url" : "https://api.github.com/users/0xB10C/starred{/owner}{/repo}",
         "subscriptions_url" : "https://api.github.com/users/0xB10C/subscriptions",
         "type" : "User",
         "url" : "https://api.github.com/users/0xB10C"
      }
   },
   {
      "author_association" : "CONTRIBUTOR",
      "body" : "@0xB10C Thanks for the logs. I'll look into it. We are making some large changes to the spec at the moment, so I'm working on updating the BIP and some of the branches are actually out of sync now. I'll be back in touch soon with updated code.",
      "created_at" : "2022-04-28T21:18:38Z",
      "html_url" : "https://github.com/bitcoin/bitcoin/pull/24545#issuecomment-1112663324",
      "id" : 1112663324,
      "issue_url" : "https://api.github.com/repos/bitcoin/bitcoin/issues/24545",
      "node_id" : "IC_kwDOABII585CUeUc",
      "performed_via_github_app" : null,
      "reactions" : {
         "+1" : 1,
         "-1" : 0,
         "confused" : 0,
         "eyes" : 0,
         "heart" : 0,
         "hooray" : 0,
         "laugh" : 0,
         "rocket" : 0,
         "total_count" : 1,
         "url" : "https://api.github.com/repos/bitcoin/bitcoin/issues/comments/1112663324/reactions"
      },
      "updated_at" : "2022-04-28T21:18:38Z",
      "url" : "https://api.github.com/repos/bitcoin/bitcoin/issues/comments/1112663324",
      "user" : {
         "avatar_url" : "https://avatars.githubusercontent.com/u/856960?v=4",
         "events_url" : "https://api.github.com/users/dhruv/events{/privacy}",
         "followers_url" : "https://api.github.com/users/dhruv/followers",
         "following_url" : "https://api.github.com/users/dhruv/following{/other_user}",
         "gists_url" : "https://api.github.com/users/dhruv/gists{/gist_id}",
         "gravatar_id" : "",
         "html_url" : "https://github.com/dhruv",
         "id" : 856960,
         "login" : "dhruv",
         "node_id" : "MDQ6VXNlcjg1Njk2MA==",
         "organizations_url" : "https://api.github.com/users/dhruv/orgs",
         "received_events_url" : "https://api.github.com/users/dhruv/received_events",
         "repos_url" : "https://api.github.com/users/dhruv/repos",
         "site_admin" : false,
         "starred_url" : "https://api.github.com/users/dhruv/starred{/owner}{/repo}",
         "subscriptions_url" : "https://api.github.com/users/dhruv/subscriptions",
         "type" : "User",
         "url" : "https://api.github.com/users/dhruv"
      }
   },
   {
      "author_association" : "CONTRIBUTOR",
      "body" : "@dhruv: I'd have interest in testing and reviewing BIP324. Is there anything useful we can do for now or is it better to just wait for the final spec / updated BIP? (Maybe some PRs are not affected by the changes and can be already reviewed?)",
      "created_at" : "2022-05-30T13:16:42Z",
      "html_url" : "https://github.com/bitcoin/bitcoin/pull/24545#issuecomment-1141148561",
      "id" : 1141148561,
      "issue_url" : "https://api.github.com/repos/bitcoin/bitcoin/issues/24545",
      "node_id" : "IC_kwDOABII585EBIuR",
      "performed_via_github_app" : null,
      "reactions" : {
         "+1" : 0,
         "-1" : 0,
         "confused" : 0,
         "eyes" : 0,
         "heart" : 0,
         "hooray" : 0,
         "laugh" : 0,
         "rocket" : 0,
         "total_count" : 0,
         "url" : "https://api.github.com/repos/bitcoin/bitcoin/issues/comments/1141148561/reactions"
      },
      "updated_at" : "2022-05-30T13:16:42Z",
      "url" : "https://api.github.com/repos/bitcoin/bitcoin/issues/comments/1141148561",
      "user" : {
         "avatar_url" : "https://avatars.githubusercontent.com/u/91535?v=4",
         "events_url" : "https://api.github.com/users/theStack/events{/privacy}",
         "followers_url" : "https://api.github.com/users/theStack/followers",
         "following_url" : "https://api.github.com/users/theStack/following{/other_user}",
         "gists_url" : "https://api.github.com/users/theStack/gists{/gist_id}",
         "gravatar_id" : "",
         "html_url" : "https://github.com/theStack",
         "id" : 91535,
         "login" : "theStack",
         "node_id" : "MDQ6VXNlcjkxNTM1",
         "organizations_url" : "https://api.github.com/users/theStack/orgs",
         "received_events_url" : "https://api.github.com/users/theStack/received_events",
         "repos_url" : "https://api.github.com/users/theStack/repos",
         "site_admin" : false,
         "starred_url" : "https://api.github.com/users/theStack/starred{/owner}{/repo}",
         "subscriptions_url" : "https://api.github.com/users/theStack/subscriptions",
         "type" : "User",
         "url" : "https://api.github.com/users/theStack"
      }
   },
   {
      "author_association" : "CONTRIBUTOR",
      "body" : "@theStack awesome! I'm working on changes you mentioned. In the meantime #23432 and upstream elligator squared changes in secp are unaffected and you can start review there. #23561 will have very minimal changes so you can review now and the updates will be easy to review. #20962 and #23233 will be radically different. ",
      "created_at" : "2022-05-30T18:41:58Z",
      "html_url" : "https://github.com/bitcoin/bitcoin/pull/24545#issuecomment-1141408247",
      "id" : 1141408247,
      "issue_url" : "https://api.github.com/repos/bitcoin/bitcoin/issues/24545",
      "node_id" : "IC_kwDOABII585ECIH3",
      "performed_via_github_app" : null,
      "reactions" : {
         "+1" : 1,
         "-1" : 0,
         "confused" : 0,
         "eyes" : 0,
         "heart" : 0,
         "hooray" : 0,
         "laugh" : 0,
         "rocket" : 0,
         "total_count" : 1,
         "url" : "https://api.github.com/repos/bitcoin/bitcoin/issues/comments/1141408247/reactions"
      },
      "updated_at" : "2022-05-30T18:41:58Z",
      "url" : "https://api.github.com/repos/bitcoin/bitcoin/issues/comments/1141408247",
      "user" : {
         "avatar_url" : "https://avatars.githubusercontent.com/u/856960?v=4",
         "events_url" : "https://api.github.com/users/dhruv/events{/privacy}",
         "followers_url" : "https://api.github.com/users/dhruv/followers",
         "following_url" : "https://api.github.com/users/dhruv/following{/other_user}",
         "gists_url" : "https://api.github.com/users/dhruv/gists{/gist_id}",
         "gravatar_id" : "",
         "html_url" : "https://github.com/dhruv",
         "id" : 856960,
         "login" : "dhruv",
         "node_id" : "MDQ6VXNlcjg1Njk2MA==",
         "organizations_url" : "https://api.github.com/users/dhruv/orgs",
         "received_events_url" : "https://api.github.com/users/dhruv/received_events",
         "repos_url" : "https://api.github.com/users/dhruv/repos",
         "site_admin" : false,
         "starred_url" : "https://api.github.com/users/dhruv/starred{/owner}{/repo}",
         "subscriptions_url" : "https://api.github.com/users/dhruv/subscriptions",
         "type" : "User",
         "url" : "https://api.github.com/users/dhruv"
      }
   },
   {
      "author_association" : "MEMBER",
      "body" : "> or is it better to just wait for the final spec / updated BIP\r\n\r\nWaiting is not a good option :smile: I think it's unavoidable that the both the BIP and implementation will still evolve a bit during review and testing, as new issues are discovered. In FOSS there's pretty much never a straightforward spec â implementation flow.",
      "created_at" : "2022-06-01T06:53:47Z",
      "html_url" : "https://github.com/bitcoin/bitcoin/pull/24545#issuecomment-1143186469",
      "id" : 1143186469,
      "issue_url" : "https://api.github.com/repos/bitcoin/bitcoin/issues/24545",
      "node_id" : "IC_kwDOABII585EI6Ql",
      "performed_via_github_app" : null,
      "reactions" : {
         "+1" : 0,
         "-1" : 0,
         "confused" : 0,
         "eyes" : 0,
         "heart" : 0,
         "hooray" : 0,
         "laugh" : 0,
         "rocket" : 0,
         "total_count" : 0,
         "url" : "https://api.github.com/repos/bitcoin/bitcoin/issues/comments/1143186469/reactions"
      },
      "updated_at" : "2022-06-01T06:56:15Z",
      "url" : "https://api.github.com/repos/bitcoin/bitcoin/issues/comments/1143186469",
      "user" : {
         "avatar_url" : "https://avatars.githubusercontent.com/u/126646?v=4",
         "events_url" : "https://api.github.com/users/laanwj/events{/privacy}",
         "followers_url" : "https://api.github.com/users/laanwj/followers",
         "following_url" : "https://api.github.com/users/laanwj/following{/other_user}",
         "gists_url" : "https://api.github.com/users/laanwj/gists{/gist_id}",
         "gravatar_id" : "",
         "html_url" : "https://github.com/laanwj",
         "id" : 126646,
         "login" : "laanwj",
         "node_id" : "MDQ6VXNlcjEyNjY0Ng==",
         "organizations_url" : "https://api.github.com/users/laanwj/orgs",
         "received_events_url" : "https://api.github.com/users/laanwj/received_events",
         "repos_url" : "https://api.github.com/users/laanwj/repos",
         "site_admin" : false,
         "starred_url" : "https://api.github.com/users/laanwj/starred{/owner}{/repo}",
         "subscriptions_url" : "https://api.github.com/users/laanwj/subscriptions",
         "type" : "User",
         "url" : "https://api.github.com/users/laanwj"
      }
   },
   {
      "author_association" : "CONTRIBUTOR",
      "body" : "> > or is it better to just wait for the final spec / updated BIP\r\n> \r\n> Waiting is not a good option ð I think it's unavoidable that the both the BIP and implementation will still evolve a bit during review and testing, as new issues are discovered. In FOSS there's pretty much never a straightforward spec â implementation flow.\r\n\r\nAgree! My concern was that the undergoing spec changes are possibly so intense that the current publicly available BIP barely has any resemblance with the ~~final~~ updated version anymore and reviewing/testing current PRs would not be a well-invested time. But fortunately, that doesn't seem to be the case (https://github.com/bitcoin/bitcoin/pull/24545#issuecomment-1141408247, https://bip324.com/sections/code-review/), i.e. no excuses for waiting :)",
      "created_at" : "2022-06-01T13:19:09Z",
      "html_url" : "https://github.com/bitcoin/bitcoin/pull/24545#issuecomment-1143602853",
      "id" : 1143602853,
      "issue_url" : "https://api.github.com/repos/bitcoin/bitcoin/issues/24545",
      "node_id" : "IC_kwDOABII585EKf6l",
      "performed_via_github_app" : null,
      "reactions" : {
         "+1" : 0,
         "-1" : 0,
         "confused" : 0,
         "eyes" : 0,
         "heart" : 0,
         "hooray" : 0,
         "laugh" : 0,
         "rocket" : 0,
         "total_count" : 0,
         "url" : "https://api.github.com/repos/bitcoin/bitcoin/issues/comments/1143602853/reactions"
      },
      "updated_at" : "2022-06-01T13:19:09Z",
      "url" : "https://api.github.com/repos/bitcoin/bitcoin/issues/comments/1143602853",
      "user" : {
         "avatar_url" : "https://avatars.githubusercontent.com/u/91535?v=4",
         "events_url" : "https://api.github.com/users/theStack/events{/privacy}",
         "followers_url" : "https://api.github.com/users/theStack/followers",
         "following_url" : "https://api.github.com/users/theStack/following{/other_user}",
         "gists_url" : "https://api.github.com/users/theStack/gists{/gist_id}",
         "gravatar_id" : "",
         "html_url" : "https://github.com/theStack",
         "id" : 91535,
         "login" : "theStack",
         "node_id" : "MDQ6VXNlcjkxNTM1",
         "organizations_url" : "https://api.github.com/users/theStack/orgs",
         "received_events_url" : "https://api.github.com/users/theStack/received_events",
         "repos_url" : "https://api.github.com/users/theStack/repos",
         "site_admin" : false,
         "starred_url" : "https://api.github.com/users/theStack/starred{/owner}{/repo}",
         "subscriptions_url" : "https://api.github.com/users/theStack/subscriptions",
         "type" : "User",
         "url" : "https://api.github.com/users/theStack"
      }
   },
   {
      "author_association" : "NONE",
      "body" : "> From what I can tell, my node fails to connect to another p2p v2 peer (likely @laanwj's, we haven't fully confirmed that yet) and stops accepting inbound messages from any other peer cutting it off from the network entirely.\r\n\r\nI also seem to have this issue. Relevant logs:\r\n\r\n```\r\n2022-07-22T13:55:24Z received: inv (109 bytes) peer=19\r\n2022-07-22T13:55:24Z got inv: tx cae283722e02ae9aa0e0da00b8064b76bf05583d17d8b8b4bc8dc84578a77a3b  new peer=19\r\n2022-07-22T13:55:24Z got inv: tx ee58f2752d52e7fc79e9e19ddc9b592c4fb105cced7f5c245175eb0615bf2139  new peer=19\r\n2022-07-22T13:55:24Z got inv: tx 3f1a7195723b7a711aac44c43ff12a6a3e360bacf52f685d0c5f1e706c64de3f  new peer=19\r\n2022-07-22T13:55:24Z socket closed for peer=16\r\n2022-07-22T13:55:24Z disconnecting peer=16\r\n2022-07-22T13:55:24Z Cleared nodestate for peer=16\r\n2022-07-22T13:55:25Z received: version (102 bytes) peer=23\r\n2022-07-22T13:55:25Z sending wtxidrelay (0 bytes) peer=23\r\n2022-07-22T13:55:25Z sending sendaddrv2 (0 bytes) peer=23\r\n2022-07-22T13:55:25Z sending verack (0 bytes) peer=23\r\n(no more inbound)\r\n```\r\n[Full log](https://github.com/bitcoin/bitcoin/files/9169486/324-disconnect.txt)\r\n\r\n",
      "created_at" : "2022-07-22T17:07:02Z",
      "html_url" : "https://github.com/bitcoin/bitcoin/pull/24545#issuecomment-1192774440",
      "id" : 1192774440,
      "issue_url" : "https://api.github.com/repos/bitcoin/bitcoin/issues/24545",
      "node_id" : "IC_kwDOABII585HGEso",
      "performed_via_github_app" : null,
      "reactions" : {
         "+1" : 0,
         "-1" : 0,
         "confused" : 0,
         "eyes" : 0,
         "heart" : 0,
         "hooray" : 0,
         "laugh" : 0,
         "rocket" : 0,
         "total_count" : 0,
         "url" : "https://api.github.com/repos/bitcoin/bitcoin/issues/comments/1192774440/reactions"
      },
      "updated_at" : "2022-07-22T17:07:02Z",
      "url" : "https://api.github.com/repos/bitcoin/bitcoin/issues/comments/1192774440",
      "user" : {
         "avatar_url" : "https://avatars.githubusercontent.com/u/33764485?v=4",
         "events_url" : "https://api.github.com/users/ExperiBass/events{/privacy}",
         "followers_url" : "https://api.github.com/users/ExperiBass/followers",
         "following_url" : "https://api.github.com/users/ExperiBass/following{/other_user}",
         "gists_url" : "https://api.github.com/users/ExperiBass/gists{/gist_id}",
         "gravatar_id" : "",
         "html_url" : "https://github.com/ExperiBass",
         "id" : 33764485,
         "login" : "ExperiBass",
         "node_id" : "MDQ6VXNlcjMzNzY0NDg1",
         "organizations_url" : "https://api.github.com/users/ExperiBass/orgs",
         "received_events_url" : "https://api.github.com/users/ExperiBass/received_events",
         "repos_url" : "https://api.github.com/users/ExperiBass/repos",
         "site_admin" : false,
         "starred_url" : "https://api.github.com/users/ExperiBass/starred{/owner}{/repo}",
         "subscriptions_url" : "https://api.github.com/users/ExperiBass/subscriptions",
         "type" : "User",
         "url" : "https://api.github.com/users/ExperiBass"
      }
   },
   {
      "_links" : {
         "html" : {
            "href" : "https://github.com/bitcoin/bitcoin/pull/24545#discussion_r928716805"
         },
         "pull_request" : {
            "href" : "https://api.github.com/repos/bitcoin/bitcoin/pulls/24545"
         },
         "self" : {
            "href" : "https://api.github.com/repos/bitcoin/bitcoin/pulls/comments/928716805"
         }
      },
      "author_association" : "MEMBER",
      "body" : "```suggestion\r\n                            m_msgproc->InitializeNode(pnode);\r\n```",
      "commit_id" : "d0aef7a1d2f324aad923f734247d34baf9a50ae8",
      "created_at" : "2022-07-25T10:29:52Z",
      "diff_hunk" : "@@ -1612,21 +1886,58 @@ void CConnman::SocketHandlerConnected(const std::vector<CNode*>& nodes,\n         {\n             // typical socket buffer is 8K-64K\n             uint8_t pchBuf[0x10000];\n-            int nBytes = 0;\n+            ssize_t nBytes = 0;\n             {\n                 LOCK(pnode->m_sock_mutex);\n                 if (!pnode->m_sock) {\n                     continue;\n                 }\n                 nBytes = pnode->m_sock->Recv(pchBuf, sizeof(pchBuf), MSG_DONTWAIT);\n             }\n-            if (nBytes > 0)\n-            {\n+            if (nBytes > 0) {\n                 bool notify = false;\n-                if (!pnode->ReceiveMsgBytes({pchBuf, (size_t)nBytes}, notify)) {\n-                    pnode->CloseSocketDisconnect();\n+                size_t num_bytes = (size_t)nBytes;\n+                if (!pnode->ReceiveMsgBytes({pchBuf, num_bytes}, notify)) {\n+                    if (gArgs.GetBoolArg(\"-v2transport\", DEFAULT_V2_TRANSPORT) &&\n+                        !pnode->tried_v2_handshake && num_bytes >= ELLSQ_ENCODED_SIZE) {\n+                        pnode->EnsureInitV2Key(!pnode->IsInboundConn());\n+                        EllSqPubKey peer_ellsq;\n+                        std::copy(pchBuf, pchBuf + ELLSQ_ENCODED_SIZE, peer_ellsq.data());\n+                        CPubKey v2_peer_pubkey = CPubKey(peer_ellsq);\n+\n+                        Span<uint8_t> initiator_hdata, responder_hdata;\n+\n+                        if (pnode->IsInboundConn()) {\n+                            // We are the responder\n+                            initiator_hdata = Span(pchBuf, ELLSQ_ENCODED_SIZE);\n+                            responder_hdata = pnode->hdata_ellsq_pubkey;\n+                        } else {\n+                            initiator_hdata = pnode->hdata_ellsq_pubkey;\n+                            responder_hdata = Span(pchBuf, ELLSQ_ENCODED_SIZE);\n+                        }\n+\n+                        pnode->InitV2P2P(v2_peer_pubkey, initiator_hdata, responder_hdata, !pnode->IsInboundConn());\n+                        if (pnode->IsInboundConn()) {\n+                            PushV2EllSqPubkey(pnode);\n+                        }\n+\n+                        // Send empty message for transport version placeholder\n+                        CSerializedNetMsg msg;\n+                        PushMessage(pnode, std::move(msg));\n+\n+                        if (!pnode->IsInboundConn()) {\n+                            m_msgproc->InitP2P(*pnode, !pnode->IsBlockOnlyConn());",
      "html_url" : "https://github.com/bitcoin/bitcoin/pull/24545#discussion_r928716805",
      "id" : 928716805,
      "line" : 1929,
      "node_id" : "PRRC_kwDOABII5843WxgF",
      "original_commit_id" : "d0aef7a1d2f324aad923f734247d34baf9a50ae8",
      "original_line" : 1929,
      "original_position" : 458,
      "original_start_line" : null,
      "path" : "src/net.cpp",
      "position" : 458,
      "pull_request_review_id" : 1049216135,
      "pull_request_url" : "https://api.github.com/repos/bitcoin/bitcoin/pulls/24545",
      "reactions" : {
         "+1" : 0,
         "-1" : 0,
         "confused" : 0,
         "eyes" : 0,
         "heart" : 0,
         "hooray" : 0,
         "laugh" : 0,
         "rocket" : 0,
         "total_count" : 0,
         "url" : "https://api.github.com/repos/bitcoin/bitcoin/pulls/comments/928716805/reactions"
      },
      "side" : "RIGHT",
      "start_line" : null,
      "start_side" : null,
      "updated_at" : "2022-07-25T11:20:29Z",
      "url" : "https://api.github.com/repos/bitcoin/bitcoin/pulls/comments/928716805",
      "user" : {
         "avatar_url" : "https://avatars.githubusercontent.com/u/8077169?v=4",
         "events_url" : "https://api.github.com/users/dergoegge/events{/privacy}",
         "followers_url" : "https://api.github.com/users/dergoegge/followers",
         "following_url" : "https://api.github.com/users/dergoegge/following{/other_user}",
         "gists_url" : "https://api.github.com/users/dergoegge/gists{/gist_id}",
         "gravatar_id" : "",
         "html_url" : "https://github.com/dergoegge",
         "id" : 8077169,
         "login" : "dergoegge",
         "node_id" : "MDQ6VXNlcjgwNzcxNjk=",
         "organizations_url" : "https://api.github.com/users/dergoegge/orgs",
         "received_events_url" : "https://api.github.com/users/dergoegge/received_events",
         "repos_url" : "https://api.github.com/users/dergoegge/repos",
         "site_admin" : false,
         "starred_url" : "https://api.github.com/users/dergoegge/starred{/owner}{/repo}",
         "subscriptions_url" : "https://api.github.com/users/dergoegge/subscriptions",
         "type" : "User",
         "url" : "https://api.github.com/users/dergoegge"
      }
   },
   {
      "_links" : {
         "html" : {
            "href" : "https://github.com/bitcoin/bitcoin/pull/24545#discussion_r928717771"
         },
         "pull_request" : {
            "href" : "https://api.github.com/repos/bitcoin/bitcoin/pulls/24545"
         },
         "self" : {
            "href" : "https://api.github.com/repos/bitcoin/bitcoin/pulls/comments/928717771"
         }
      },
      "author_association" : "MEMBER",
      "body" : "```suggestion\r\n    } else {\r\n        m_msgproc->InitializeNode(pnode);\r\n    }\r\n```",
      "commit_id" : "d0aef7a1d2f324aad923f734247d34baf9a50ae8",
      "created_at" : "2022-07-25T10:31:03Z",
      "diff_hunk" : "@@ -2285,6 +2606,10 @@ void CConnman::OpenNetworkConnection(const CAddress& addrConnect, bool fCountFai\n     if (grantOutbound)\n         grantOutbound->MoveTo(pnode->grantOutbound);\n \n+    // Only the outbound peer knows that both sides support BIP324 transport\n+    if (pnode->PreferV2Conn()) {\n+        PushV2EllSqPubkey(pnode);\n+    }\n     m_msgproc->InitializeNode(pnode);",
      "html_url" : "https://github.com/bitcoin/bitcoin/pull/24545#discussion_r928717771",
      "id" : 928717771,
      "line" : 2613,
      "node_id" : "PRRC_kwDOABII5843WxvL",
      "original_commit_id" : "d0aef7a1d2f324aad923f734247d34baf9a50ae8",
      "original_line" : 2613,
      "original_position" : 567,
      "original_start_line" : 2612,
      "path" : "src/net.cpp",
      "position" : 567,
      "pull_request_review_id" : 1049216135,
      "pull_request_url" : "https://api.github.com/repos/bitcoin/bitcoin/pulls/24545",
      "reactions" : {
         "+1" : 0,
         "-1" : 0,
         "confused" : 0,
         "eyes" : 0,
         "heart" : 0,
         "hooray" : 0,
         "laugh" : 0,
         "rocket" : 0,
         "total_count" : 0,
         "url" : "https://api.github.com/repos/bitcoin/bitcoin/pulls/comments/928717771/reactions"
      },
      "side" : "RIGHT",
      "start_line" : 2612,
      "start_side" : "RIGHT",
      "updated_at" : "2022-07-25T11:20:29Z",
      "url" : "https://api.github.com/repos/bitcoin/bitcoin/pulls/comments/928717771",
      "user" : {
         "avatar_url" : "https://avatars.githubusercontent.com/u/8077169?v=4",
         "events_url" : "https://api.github.com/users/dergoegge/events{/privacy}",
         "followers_url" : "https://api.github.com/users/dergoegge/followers",
         "following_url" : "https://api.github.com/users/dergoegge/following{/other_user}",
         "gists_url" : "https://api.github.com/users/dergoegge/gists{/gist_id}",
         "gravatar_id" : "",
         "html_url" : "https://github.com/dergoegge",
         "id" : 8077169,
         "login" : "dergoegge",
         "node_id" : "MDQ6VXNlcjgwNzcxNjk=",
         "organizations_url" : "https://api.github.com/users/dergoegge/orgs",
         "received_events_url" : "https://api.github.com/users/dergoegge/received_events",
         "repos_url" : "https://api.github.com/users/dergoegge/repos",
         "site_admin" : false,
         "starred_url" : "https://api.github.com/users/dergoegge/starred{/owner}{/repo}",
         "subscriptions_url" : "https://api.github.com/users/dergoegge/subscriptions",
         "type" : "User",
         "url" : "https://api.github.com/users/dergoegge"
      }
   },
   {
      "_links" : {
         "html" : {
            "href" : "https://github.com/bitcoin/bitcoin/pull/24545#discussion_r928720594"
         },
         "pull_request" : {
            "href" : "https://api.github.com/repos/bitcoin/bitcoin/pulls/24545"
         },
         "self" : {
            "href" : "https://api.github.com/repos/bitcoin/bitcoin/pulls/comments/928720594"
         }
      },
      "author_association" : "MEMBER",
      "body" : "```suggestion\r\n    if (!pnode->IsInboundConn()) {\r\n```",
      "commit_id" : "d0aef7a1d2f324aad923f734247d34baf9a50ae8",
      "created_at" : "2022-07-25T10:33:29Z",
      "diff_hunk" : "@@ -1235,8 +1233,8 @@ void PeerManagerImpl::InitializeNode(CNode *pnode)\n         LOCK(m_peer_mutex);\n         m_peer_map.emplace_hint(m_peer_map.end(), nodeid, peer);\n     }\n-    if (!pnode->IsInboundConn()) {\n-        PushNodeVersion(*pnode, *peer);\n+    if (!pnode->IsInboundConn() && !pnode->PreferV2Conn()) {",
      "html_url" : "https://github.com/bitcoin/bitcoin/pull/24545#discussion_r928720594",
      "id" : 928720594,
      "line" : 1236,
      "node_id" : "PRRC_kwDOABII5843WybS",
      "original_commit_id" : "d0aef7a1d2f324aad923f734247d34baf9a50ae8",
      "original_line" : 1236,
      "original_position" : 42,
      "original_start_line" : null,
      "path" : "src/net_processing.cpp",
      "position" : 42,
      "pull_request_review_id" : 1049216135,
      "pull_request_url" : "https://api.github.com/repos/bitcoin/bitcoin/pulls/24545",
      "reactions" : {
         "+1" : 0,
         "-1" : 0,
         "confused" : 0,
         "eyes" : 0,
         "heart" : 0,
         "hooray" : 0,
         "laugh" : 0,
         "rocket" : 0,
         "total_count" : 0,
         "url" : "https://api.github.com/repos/bitcoin/bitcoin/pulls/comments/928720594/reactions"
      },
      "side" : "RIGHT",
      "start_line" : null,
      "start_side" : null,
      "updated_at" : "2022-07-25T11:20:29Z",
      "url" : "https://api.github.com/repos/bitcoin/bitcoin/pulls/comments/928720594",
      "user" : {
         "avatar_url" : "https://avatars.githubusercontent.com/u/8077169?v=4",
         "events_url" : "https://api.github.com/users/dergoegge/events{/privacy}",
         "followers_url" : "https://api.github.com/users/dergoegge/followers",
         "following_url" : "https://api.github.com/users/dergoegge/following{/other_user}",
         "gists_url" : "https://api.github.com/users/dergoegge/gists{/gist_id}",
         "gravatar_id" : "",
         "html_url" : "https://github.com/dergoegge",
         "id" : 8077169,
         "login" : "dergoegge",
         "node_id" : "MDQ6VXNlcjgwNzcxNjk=",
         "organizations_url" : "https://api.github.com/users/dergoegge/orgs",
         "received_events_url" : "https://api.github.com/users/dergoegge/received_events",
         "repos_url" : "https://api.github.com/users/dergoegge/repos",
         "site_admin" : false,
         "starred_url" : "https://api.github.com/users/dergoegge/starred{/owner}{/repo}",
         "subscriptions_url" : "https://api.github.com/users/dergoegge/subscriptions",
         "type" : "User",
         "url" : "https://api.github.com/users/dergoegge"
      }
   }
]
