[
   {
      "author_association" : "MEMBER",
      "body" : "(I noticed this when reviewing #24178)",
      "created_at" : "2022-02-01T13:48:39Z",
      "html_url" : "https://github.com/bitcoin/bitcoin/pull/24226#issuecomment-1026863003",
      "id" : 1026863003,
      "issue_url" : "https://api.github.com/repos/bitcoin/bitcoin/issues/24226",
      "node_id" : "IC_kwDOABII5849NK-b",
      "performed_via_github_app" : null,
      "reactions" : {
         "+1" : 0,
         "-1" : 0,
         "confused" : 0,
         "eyes" : 0,
         "heart" : 0,
         "hooray" : 0,
         "laugh" : 0,
         "rocket" : 0,
         "total_count" : 0,
         "url" : "https://api.github.com/repos/bitcoin/bitcoin/issues/comments/1026863003/reactions"
      },
      "updated_at" : "2022-02-01T13:48:39Z",
      "url" : "https://api.github.com/repos/bitcoin/bitcoin/issues/comments/1026863003",
      "user" : {
         "avatar_url" : "https://avatars.githubusercontent.com/u/10217?v=4",
         "events_url" : "https://api.github.com/users/Sjors/events{/privacy}",
         "followers_url" : "https://api.github.com/users/Sjors/followers",
         "following_url" : "https://api.github.com/users/Sjors/following{/other_user}",
         "gists_url" : "https://api.github.com/users/Sjors/gists{/gist_id}",
         "gravatar_id" : "",
         "html_url" : "https://github.com/Sjors",
         "id" : 10217,
         "login" : "Sjors",
         "node_id" : "MDQ6VXNlcjEwMjE3",
         "organizations_url" : "https://api.github.com/users/Sjors/orgs",
         "received_events_url" : "https://api.github.com/users/Sjors/received_events",
         "repos_url" : "https://api.github.com/users/Sjors/repos",
         "site_admin" : false,
         "starred_url" : "https://api.github.com/users/Sjors/starred{/owner}{/repo}",
         "subscriptions_url" : "https://api.github.com/users/Sjors/subscriptions",
         "type" : "User",
         "url" : "https://api.github.com/users/Sjors"
      }
   },
   {
      "_links" : {
         "html" : {
            "href" : "https://github.com/bitcoin/bitcoin/pull/24226#discussion_r796641109"
         },
         "pull_request" : {
            "href" : "https://api.github.com/repos/bitcoin/bitcoin/pulls/24226"
         },
         "self" : {
            "href" : "https://api.github.com/repos/bitcoin/bitcoin/pulls/comments/796641109"
         }
      },
      "author_association" : "MEMBER",
      "body" : "This will also disconnect the peer, no? https://github.com/bitcoin/bitcoin/pull/20295#discussion_r764737276\r\n\r\nIf so, I still think it should be mentioned.",
      "commit_id" : "4b3098817a671960c1d9c9a01912f717fee91b5c",
      "created_at" : "2022-02-01T14:19:04Z",
      "diff_hunk" : "@@ -792,7 +792,8 @@ static RPCHelpMan getblockfrompeer()\n         \"getblockfrompeer\",\n         \"Attempt to fetch block from a given peer.\\n\\n\"\n         \"We must have the header for this block, e.g. using submitheader.\\n\"\n-        \"Subsequent calls for the same block and a new peer will cause the response from the previous peer to be ignored.\\n\\n\"\n+        \"Subsequent calls for the same block and a new peer will cause the response from the previous peer to be ignored.\\n\"\n+        \"Nodes generally ignore requests for a stale block that they never fully verified, or one that is more than a month old.\\n\\n\"",
      "html_url" : "https://github.com/bitcoin/bitcoin/pull/24226#discussion_r796641109",
      "id" : 796641109,
      "line" : null,
      "node_id" : "PRRC_kwDOABII584ve8dV",
      "original_commit_id" : "a40e2c4cc6e539c28a3026df3ece5b4ab9bbde54",
      "original_line" : 796,
      "original_position" : 6,
      "original_start_line" : null,
      "path" : "src/rpc/blockchain.cpp",
      "position" : null,
      "pull_request_review_id" : 869193580,
      "pull_request_url" : "https://api.github.com/repos/bitcoin/bitcoin/pulls/24226",
      "reactions" : {
         "+1" : 0,
         "-1" : 0,
         "confused" : 0,
         "eyes" : 0,
         "heart" : 0,
         "hooray" : 0,
         "laugh" : 0,
         "rocket" : 0,
         "total_count" : 0,
         "url" : "https://api.github.com/repos/bitcoin/bitcoin/pulls/comments/796641109/reactions"
      },
      "side" : "RIGHT",
      "start_line" : null,
      "start_side" : null,
      "updated_at" : "2022-02-01T14:19:05Z",
      "url" : "https://api.github.com/repos/bitcoin/bitcoin/pulls/comments/796641109",
      "user" : {
         "avatar_url" : "https://avatars.githubusercontent.com/u/6399679?v=4",
         "events_url" : "https://api.github.com/users/MarcoFalke/events{/privacy}",
         "followers_url" : "https://api.github.com/users/MarcoFalke/followers",
         "following_url" : "https://api.github.com/users/MarcoFalke/following{/other_user}",
         "gists_url" : "https://api.github.com/users/MarcoFalke/gists{/gist_id}",
         "gravatar_id" : "",
         "html_url" : "https://github.com/MarcoFalke",
         "id" : 6399679,
         "login" : "MarcoFalke",
         "node_id" : "MDQ6VXNlcjYzOTk2Nzk=",
         "organizations_url" : "https://api.github.com/users/MarcoFalke/orgs",
         "received_events_url" : "https://api.github.com/users/MarcoFalke/received_events",
         "repos_url" : "https://api.github.com/users/MarcoFalke/repos",
         "site_admin" : false,
         "starred_url" : "https://api.github.com/users/MarcoFalke/starred{/owner}{/repo}",
         "subscriptions_url" : "https://api.github.com/users/MarcoFalke/subscriptions",
         "type" : "User",
         "url" : "https://api.github.com/users/MarcoFalke"
      }
   },
   {
      "_links" : {
         "html" : {
            "href" : "https://github.com/bitcoin/bitcoin/pull/24226#discussion_r796641480"
         },
         "pull_request" : {
            "href" : "https://api.github.com/repos/bitcoin/bitcoin/pulls/24226"
         },
         "self" : {
            "href" : "https://api.github.com/repos/bitcoin/bitcoin/pulls/comments/796641480"
         }
      },
      "author_association" : "MEMBER",
      "body" : "```suggestion\r\n        \"Peers generally ignore requests for a stale block that they never fully verified, or one that is more than a month old.\\n\\n\"\r\n```",
      "commit_id" : "4b3098817a671960c1d9c9a01912f717fee91b5c",
      "created_at" : "2022-02-01T14:19:25Z",
      "diff_hunk" : "@@ -792,7 +792,8 @@ static RPCHelpMan getblockfrompeer()\n         \"getblockfrompeer\",\n         \"Attempt to fetch block from a given peer.\\n\\n\"\n         \"We must have the header for this block, e.g. using submitheader.\\n\"\n-        \"Subsequent calls for the same block and a new peer will cause the response from the previous peer to be ignored.\\n\\n\"\n+        \"Subsequent calls for the same block and a new peer will cause the response from the previous peer to be ignored.\\n\"\n+        \"Nodes generally ignore requests for a stale block that they never fully verified, or one that is more than a month old.\\n\\n\"",
      "html_url" : "https://github.com/bitcoin/bitcoin/pull/24226#discussion_r796641480",
      "id" : 796641480,
      "line" : null,
      "node_id" : "PRRC_kwDOABII584ve8jI",
      "original_commit_id" : "a40e2c4cc6e539c28a3026df3ece5b4ab9bbde54",
      "original_line" : 796,
      "original_position" : 6,
      "original_start_line" : null,
      "path" : "src/rpc/blockchain.cpp",
      "position" : null,
      "pull_request_review_id" : 869194104,
      "pull_request_url" : "https://api.github.com/repos/bitcoin/bitcoin/pulls/24226",
      "reactions" : {
         "+1" : 0,
         "-1" : 0,
         "confused" : 0,
         "eyes" : 0,
         "heart" : 0,
         "hooray" : 0,
         "laugh" : 0,
         "rocket" : 0,
         "total_count" : 0,
         "url" : "https://api.github.com/repos/bitcoin/bitcoin/pulls/comments/796641480/reactions"
      },
      "side" : "RIGHT",
      "start_line" : null,
      "start_side" : null,
      "updated_at" : "2022-02-01T14:19:26Z",
      "url" : "https://api.github.com/repos/bitcoin/bitcoin/pulls/comments/796641480",
      "user" : {
         "avatar_url" : "https://avatars.githubusercontent.com/u/6399679?v=4",
         "events_url" : "https://api.github.com/users/MarcoFalke/events{/privacy}",
         "followers_url" : "https://api.github.com/users/MarcoFalke/followers",
         "following_url" : "https://api.github.com/users/MarcoFalke/following{/other_user}",
         "gists_url" : "https://api.github.com/users/MarcoFalke/gists{/gist_id}",
         "gravatar_id" : "",
         "html_url" : "https://github.com/MarcoFalke",
         "id" : 6399679,
         "login" : "MarcoFalke",
         "node_id" : "MDQ6VXNlcjYzOTk2Nzk=",
         "organizations_url" : "https://api.github.com/users/MarcoFalke/orgs",
         "received_events_url" : "https://api.github.com/users/MarcoFalke/received_events",
         "repos_url" : "https://api.github.com/users/MarcoFalke/repos",
         "site_admin" : false,
         "starred_url" : "https://api.github.com/users/MarcoFalke/starred{/owner}{/repo}",
         "subscriptions_url" : "https://api.github.com/users/MarcoFalke/subscriptions",
         "type" : "User",
         "url" : "https://api.github.com/users/MarcoFalke"
      }
   },
   {
      "_links" : {
         "html" : {
            "href" : "https://github.com/bitcoin/bitcoin/pull/24226#discussion_r796644841"
         },
         "pull_request" : {
            "href" : "https://api.github.com/repos/bitcoin/bitcoin/pulls/24226"
         },
         "self" : {
            "href" : "https://api.github.com/repos/bitcoin/bitcoin/pulls/comments/796644841"
         }
      },
      "author_association" : "MEMBER",
      "body" : "No, it's only ignored:\r\nhttps://github.com/bitcoin/bitcoin/blob/133f73e86bd7c3114263500be2fb5090dd76b4bc/src/net_processing.cpp#L1848-L1851",
      "commit_id" : "4b3098817a671960c1d9c9a01912f717fee91b5c",
      "created_at" : "2022-02-01T14:22:48Z",
      "diff_hunk" : "@@ -792,7 +792,8 @@ static RPCHelpMan getblockfrompeer()\n         \"getblockfrompeer\",\n         \"Attempt to fetch block from a given peer.\\n\\n\"\n         \"We must have the header for this block, e.g. using submitheader.\\n\"\n-        \"Subsequent calls for the same block and a new peer will cause the response from the previous peer to be ignored.\\n\\n\"\n+        \"Subsequent calls for the same block and a new peer will cause the response from the previous peer to be ignored.\\n\"\n+        \"Nodes generally ignore requests for a stale block that they never fully verified, or one that is more than a month old.\\n\\n\"",
      "html_url" : "https://github.com/bitcoin/bitcoin/pull/24226#discussion_r796644841",
      "id" : 796644841,
      "in_reply_to_id" : 796641109,
      "line" : null,
      "node_id" : "PRRC_kwDOABII584ve9Xp",
      "original_commit_id" : "a40e2c4cc6e539c28a3026df3ece5b4ab9bbde54",
      "original_line" : 796,
      "original_position" : 6,
      "original_start_line" : null,
      "path" : "src/rpc/blockchain.cpp",
      "position" : null,
      "pull_request_review_id" : 869198954,
      "pull_request_url" : "https://api.github.com/repos/bitcoin/bitcoin/pulls/24226",
      "reactions" : {
         "+1" : 0,
         "-1" : 0,
         "confused" : 0,
         "eyes" : 0,
         "heart" : 0,
         "hooray" : 0,
         "laugh" : 0,
         "rocket" : 0,
         "total_count" : 0,
         "url" : "https://api.github.com/repos/bitcoin/bitcoin/pulls/comments/796644841/reactions"
      },
      "side" : "RIGHT",
      "start_line" : null,
      "start_side" : null,
      "updated_at" : "2022-02-01T14:22:49Z",
      "url" : "https://api.github.com/repos/bitcoin/bitcoin/pulls/comments/796644841",
      "user" : {
         "avatar_url" : "https://avatars.githubusercontent.com/u/10217?v=4",
         "events_url" : "https://api.github.com/users/Sjors/events{/privacy}",
         "followers_url" : "https://api.github.com/users/Sjors/followers",
         "following_url" : "https://api.github.com/users/Sjors/following{/other_user}",
         "gists_url" : "https://api.github.com/users/Sjors/gists{/gist_id}",
         "gravatar_id" : "",
         "html_url" : "https://github.com/Sjors",
         "id" : 10217,
         "login" : "Sjors",
         "node_id" : "MDQ6VXNlcjEwMjE3",
         "organizations_url" : "https://api.github.com/users/Sjors/orgs",
         "received_events_url" : "https://api.github.com/users/Sjors/received_events",
         "repos_url" : "https://api.github.com/users/Sjors/repos",
         "site_admin" : false,
         "starred_url" : "https://api.github.com/users/Sjors/starred{/owner}{/repo}",
         "subscriptions_url" : "https://api.github.com/users/Sjors/subscriptions",
         "type" : "User",
         "url" : "https://api.github.com/users/Sjors"
      }
   },
   {
      "_links" : {
         "html" : {
            "href" : "https://github.com/bitcoin/bitcoin/pull/24226#discussion_r796647739"
         },
         "pull_request" : {
            "href" : "https://api.github.com/repos/bitcoin/bitcoin/pulls/24226"
         },
         "self" : {
            "href" : "https://api.github.com/repos/bitcoin/bitcoin/pulls/comments/796647739"
         }
      },
      "author_association" : "MEMBER",
      "body" : "Oh you mean we'll disconnect on our end. Let me see, that would be annoying...",
      "commit_id" : "4b3098817a671960c1d9c9a01912f717fee91b5c",
      "created_at" : "2022-02-01T14:25:44Z",
      "diff_hunk" : "@@ -792,7 +792,8 @@ static RPCHelpMan getblockfrompeer()\n         \"getblockfrompeer\",\n         \"Attempt to fetch block from a given peer.\\n\\n\"\n         \"We must have the header for this block, e.g. using submitheader.\\n\"\n-        \"Subsequent calls for the same block and a new peer will cause the response from the previous peer to be ignored.\\n\\n\"\n+        \"Subsequent calls for the same block and a new peer will cause the response from the previous peer to be ignored.\\n\"\n+        \"Nodes generally ignore requests for a stale block that they never fully verified, or one that is more than a month old.\\n\\n\"",
      "html_url" : "https://github.com/bitcoin/bitcoin/pull/24226#discussion_r796647739",
      "id" : 796647739,
      "in_reply_to_id" : 796641109,
      "line" : null,
      "node_id" : "PRRC_kwDOABII584ve-E7",
      "original_commit_id" : "a40e2c4cc6e539c28a3026df3ece5b4ab9bbde54",
      "original_line" : 796,
      "original_position" : 6,
      "original_start_line" : null,
      "path" : "src/rpc/blockchain.cpp",
      "position" : null,
      "pull_request_review_id" : 869203206,
      "pull_request_url" : "https://api.github.com/repos/bitcoin/bitcoin/pulls/24226",
      "reactions" : {
         "+1" : 1,
         "-1" : 0,
         "confused" : 0,
         "eyes" : 0,
         "heart" : 0,
         "hooray" : 0,
         "laugh" : 0,
         "rocket" : 0,
         "total_count" : 1,
         "url" : "https://api.github.com/repos/bitcoin/bitcoin/pulls/comments/796647739/reactions"
      },
      "side" : "RIGHT",
      "start_line" : null,
      "start_side" : null,
      "updated_at" : "2022-02-01T14:25:44Z",
      "url" : "https://api.github.com/repos/bitcoin/bitcoin/pulls/comments/796647739",
      "user" : {
         "avatar_url" : "https://avatars.githubusercontent.com/u/10217?v=4",
         "events_url" : "https://api.github.com/users/Sjors/events{/privacy}",
         "followers_url" : "https://api.github.com/users/Sjors/followers",
         "following_url" : "https://api.github.com/users/Sjors/following{/other_user}",
         "gists_url" : "https://api.github.com/users/Sjors/gists{/gist_id}",
         "gravatar_id" : "",
         "html_url" : "https://github.com/Sjors",
         "id" : 10217,
         "login" : "Sjors",
         "node_id" : "MDQ6VXNlcjEwMjE3",
         "organizations_url" : "https://api.github.com/users/Sjors/orgs",
         "received_events_url" : "https://api.github.com/users/Sjors/received_events",
         "repos_url" : "https://api.github.com/users/Sjors/repos",
         "site_admin" : false,
         "starred_url" : "https://api.github.com/users/Sjors/starred{/owner}{/repo}",
         "subscriptions_url" : "https://api.github.com/users/Sjors/subscriptions",
         "type" : "User",
         "url" : "https://api.github.com/users/Sjors"
      }
   },
   {
      "_links" : {
         "html" : {
            "href" : "https://github.com/bitcoin/bitcoin/pull/24226#discussion_r796651419"
         },
         "pull_request" : {
            "href" : "https://api.github.com/repos/bitcoin/bitcoin/pulls/24226"
         },
         "self" : {
            "href" : "https://api.github.com/repos/bitcoin/bitcoin/pulls/comments/796651419"
         }
      },
      "author_association" : "MEMBER",
      "body" : "Yes, when I checked at the time, we'd disconnect. But I haven't tested or re-checked since then.",
      "commit_id" : "4b3098817a671960c1d9c9a01912f717fee91b5c",
      "created_at" : "2022-02-01T14:29:13Z",
      "diff_hunk" : "@@ -792,7 +792,8 @@ static RPCHelpMan getblockfrompeer()\n         \"getblockfrompeer\",\n         \"Attempt to fetch block from a given peer.\\n\\n\"\n         \"We must have the header for this block, e.g. using submitheader.\\n\"\n-        \"Subsequent calls for the same block and a new peer will cause the response from the previous peer to be ignored.\\n\\n\"\n+        \"Subsequent calls for the same block and a new peer will cause the response from the previous peer to be ignored.\\n\"\n+        \"Nodes generally ignore requests for a stale block that they never fully verified, or one that is more than a month old.\\n\\n\"",
      "html_url" : "https://github.com/bitcoin/bitcoin/pull/24226#discussion_r796651419",
      "id" : 796651419,
      "in_reply_to_id" : 796641109,
      "line" : null,
      "node_id" : "PRRC_kwDOABII584ve--b",
      "original_commit_id" : "a40e2c4cc6e539c28a3026df3ece5b4ab9bbde54",
      "original_line" : 796,
      "original_position" : 6,
      "original_start_line" : null,
      "path" : "src/rpc/blockchain.cpp",
      "position" : null,
      "pull_request_review_id" : 869208478,
      "pull_request_url" : "https://api.github.com/repos/bitcoin/bitcoin/pulls/24226",
      "reactions" : {
         "+1" : 0,
         "-1" : 0,
         "confused" : 0,
         "eyes" : 0,
         "heart" : 0,
         "hooray" : 0,
         "laugh" : 0,
         "rocket" : 0,
         "total_count" : 0,
         "url" : "https://api.github.com/repos/bitcoin/bitcoin/pulls/comments/796651419/reactions"
      },
      "side" : "RIGHT",
      "start_line" : null,
      "start_side" : null,
      "updated_at" : "2022-02-01T14:29:13Z",
      "url" : "https://api.github.com/repos/bitcoin/bitcoin/pulls/comments/796651419",
      "user" : {
         "avatar_url" : "https://avatars.githubusercontent.com/u/6399679?v=4",
         "events_url" : "https://api.github.com/users/MarcoFalke/events{/privacy}",
         "followers_url" : "https://api.github.com/users/MarcoFalke/followers",
         "following_url" : "https://api.github.com/users/MarcoFalke/following{/other_user}",
         "gists_url" : "https://api.github.com/users/MarcoFalke/gists{/gist_id}",
         "gravatar_id" : "",
         "html_url" : "https://github.com/MarcoFalke",
         "id" : 6399679,
         "login" : "MarcoFalke",
         "node_id" : "MDQ6VXNlcjYzOTk2Nzk=",
         "organizations_url" : "https://api.github.com/users/MarcoFalke/orgs",
         "received_events_url" : "https://api.github.com/users/MarcoFalke/received_events",
         "repos_url" : "https://api.github.com/users/MarcoFalke/repos",
         "site_admin" : false,
         "starred_url" : "https://api.github.com/users/MarcoFalke/starred{/owner}{/repo}",
         "subscriptions_url" : "https://api.github.com/users/MarcoFalke/subscriptions",
         "type" : "User",
         "url" : "https://api.github.com/users/MarcoFalke"
      }
   },
   {
      "_links" : {
         "html" : {
            "href" : "https://github.com/bitcoin/bitcoin/pull/24226#discussion_r796915283"
         },
         "pull_request" : {
            "href" : "https://api.github.com/repos/bitcoin/bitcoin/pulls/24226"
         },
         "self" : {
            "href" : "https://api.github.com/repos/bitcoin/bitcoin/pulls/comments/796915283"
         }
      },
      "author_association" : "MEMBER",
      "body" : "Afaik there's only one place where we track which blocks we requested: `mapBlocksInFlight`. And afaik that map doesn't get vacuum cleaned. So how would a non-response from a peer lead us to disconnect?\r\n\r\nDisclaimer: net_processing is very hard to follow, so I probably missed something.",
      "commit_id" : "4b3098817a671960c1d9c9a01912f717fee91b5c",
      "created_at" : "2022-02-01T19:12:04Z",
      "diff_hunk" : "@@ -792,7 +792,8 @@ static RPCHelpMan getblockfrompeer()\n         \"getblockfrompeer\",\n         \"Attempt to fetch block from a given peer.\\n\\n\"\n         \"We must have the header for this block, e.g. using submitheader.\\n\"\n-        \"Subsequent calls for the same block and a new peer will cause the response from the previous peer to be ignored.\\n\\n\"\n+        \"Subsequent calls for the same block and a new peer will cause the response from the previous peer to be ignored.\\n\"\n+        \"Nodes generally ignore requests for a stale block that they never fully verified, or one that is more than a month old.\\n\\n\"",
      "html_url" : "https://github.com/bitcoin/bitcoin/pull/24226#discussion_r796915283",
      "id" : 796915283,
      "in_reply_to_id" : 796641109,
      "line" : null,
      "node_id" : "PRRC_kwDOABII584vf_ZT",
      "original_commit_id" : "a40e2c4cc6e539c28a3026df3ece5b4ab9bbde54",
      "original_line" : 796,
      "original_position" : 6,
      "original_start_line" : null,
      "path" : "src/rpc/blockchain.cpp",
      "position" : null,
      "pull_request_review_id" : 869692394,
      "pull_request_url" : "https://api.github.com/repos/bitcoin/bitcoin/pulls/24226",
      "reactions" : {
         "+1" : 0,
         "-1" : 0,
         "confused" : 0,
         "eyes" : 0,
         "heart" : 0,
         "hooray" : 0,
         "laugh" : 0,
         "rocket" : 0,
         "total_count" : 0,
         "url" : "https://api.github.com/repos/bitcoin/bitcoin/pulls/comments/796915283/reactions"
      },
      "side" : "RIGHT",
      "start_line" : null,
      "start_side" : null,
      "updated_at" : "2022-02-01T19:12:04Z",
      "url" : "https://api.github.com/repos/bitcoin/bitcoin/pulls/comments/796915283",
      "user" : {
         "avatar_url" : "https://avatars.githubusercontent.com/u/10217?v=4",
         "events_url" : "https://api.github.com/users/Sjors/events{/privacy}",
         "followers_url" : "https://api.github.com/users/Sjors/followers",
         "following_url" : "https://api.github.com/users/Sjors/following{/other_user}",
         "gists_url" : "https://api.github.com/users/Sjors/gists{/gist_id}",
         "gravatar_id" : "",
         "html_url" : "https://github.com/Sjors",
         "id" : 10217,
         "login" : "Sjors",
         "node_id" : "MDQ6VXNlcjEwMjE3",
         "organizations_url" : "https://api.github.com/users/Sjors/orgs",
         "received_events_url" : "https://api.github.com/users/Sjors/received_events",
         "repos_url" : "https://api.github.com/users/Sjors/repos",
         "site_admin" : false,
         "starred_url" : "https://api.github.com/users/Sjors/starred{/owner}{/repo}",
         "subscriptions_url" : "https://api.github.com/users/Sjors/subscriptions",
         "type" : "User",
         "url" : "https://api.github.com/users/Sjors"
      }
   },
   {
      "_links" : {
         "html" : {
            "href" : "https://github.com/bitcoin/bitcoin/pull/24226#discussion_r797365362"
         },
         "pull_request" : {
            "href" : "https://api.github.com/repos/bitcoin/bitcoin/pulls/24226"
         },
         "self" : {
            "href" : "https://api.github.com/repos/bitcoin/bitcoin/pulls/comments/797365362"
         }
      },
      "author_association" : "MEMBER",
      "body" : "```\r\n                LogPrintf(\"Timeout downloading block %s from peer=%d, disconnecting\\n\", queuedBlock.pindex->GetBlockHash().ToString(), pto->GetId());\r\n",
      "commit_id" : "4b3098817a671960c1d9c9a01912f717fee91b5c",
      "created_at" : "2022-02-02T08:26:14Z",
      "diff_hunk" : "@@ -792,7 +792,8 @@ static RPCHelpMan getblockfrompeer()\n         \"getblockfrompeer\",\n         \"Attempt to fetch block from a given peer.\\n\\n\"\n         \"We must have the header for this block, e.g. using submitheader.\\n\"\n-        \"Subsequent calls for the same block and a new peer will cause the response from the previous peer to be ignored.\\n\\n\"\n+        \"Subsequent calls for the same block and a new peer will cause the response from the previous peer to be ignored.\\n\"\n+        \"Nodes generally ignore requests for a stale block that they never fully verified, or one that is more than a month old.\\n\\n\"",
      "html_url" : "https://github.com/bitcoin/bitcoin/pull/24226#discussion_r797365362",
      "id" : 797365362,
      "in_reply_to_id" : 796641109,
      "line" : null,
      "node_id" : "PRRC_kwDOABII584vhtRy",
      "original_commit_id" : "a40e2c4cc6e539c28a3026df3ece5b4ab9bbde54",
      "original_line" : 796,
      "original_position" : 6,
      "original_start_line" : null,
      "path" : "src/rpc/blockchain.cpp",
      "position" : null,
      "pull_request_review_id" : 870209425,
      "pull_request_url" : "https://api.github.com/repos/bitcoin/bitcoin/pulls/24226",
      "reactions" : {
         "+1" : 0,
         "-1" : 0,
         "confused" : 0,
         "eyes" : 0,
         "heart" : 0,
         "hooray" : 0,
         "laugh" : 0,
         "rocket" : 0,
         "total_count" : 0,
         "url" : "https://api.github.com/repos/bitcoin/bitcoin/pulls/comments/797365362/reactions"
      },
      "side" : "RIGHT",
      "start_line" : null,
      "start_side" : null,
      "updated_at" : "2022-02-02T08:26:14Z",
      "url" : "https://api.github.com/repos/bitcoin/bitcoin/pulls/comments/797365362",
      "user" : {
         "avatar_url" : "https://avatars.githubusercontent.com/u/6399679?v=4",
         "events_url" : "https://api.github.com/users/MarcoFalke/events{/privacy}",
         "followers_url" : "https://api.github.com/users/MarcoFalke/followers",
         "following_url" : "https://api.github.com/users/MarcoFalke/following{/other_user}",
         "gists_url" : "https://api.github.com/users/MarcoFalke/gists{/gist_id}",
         "gravatar_id" : "",
         "html_url" : "https://github.com/MarcoFalke",
         "id" : 6399679,
         "login" : "MarcoFalke",
         "node_id" : "MDQ6VXNlcjYzOTk2Nzk=",
         "organizations_url" : "https://api.github.com/users/MarcoFalke/orgs",
         "received_events_url" : "https://api.github.com/users/MarcoFalke/received_events",
         "repos_url" : "https://api.github.com/users/MarcoFalke/repos",
         "site_admin" : false,
         "starred_url" : "https://api.github.com/users/MarcoFalke/starred{/owner}{/repo}",
         "subscriptions_url" : "https://api.github.com/users/MarcoFalke/subscriptions",
         "type" : "User",
         "url" : "https://api.github.com/users/MarcoFalke"
      }
   },
   {
      "_links" : {
         "html" : {
            "href" : "https://github.com/bitcoin/bitcoin/pull/24226#discussion_r797446777"
         },
         "pull_request" : {
            "href" : "https://api.github.com/repos/bitcoin/bitcoin/pulls/24226"
         },
         "self" : {
            "href" : "https://api.github.com/repos/bitcoin/bitcoin/pulls/comments/797446777"
         }
      },
      "author_association" : "MEMBER",
      "body" : "Ah yes, we're also updating `state->vBlocksInFlight`, and that does get checked. I'll take a closer look.",
      "commit_id" : "4b3098817a671960c1d9c9a01912f717fee91b5c",
      "created_at" : "2022-02-02T10:07:18Z",
      "diff_hunk" : "@@ -792,7 +792,8 @@ static RPCHelpMan getblockfrompeer()\n         \"getblockfrompeer\",\n         \"Attempt to fetch block from a given peer.\\n\\n\"\n         \"We must have the header for this block, e.g. using submitheader.\\n\"\n-        \"Subsequent calls for the same block and a new peer will cause the response from the previous peer to be ignored.\\n\\n\"\n+        \"Subsequent calls for the same block and a new peer will cause the response from the previous peer to be ignored.\\n\"\n+        \"Nodes generally ignore requests for a stale block that they never fully verified, or one that is more than a month old.\\n\\n\"",
      "html_url" : "https://github.com/bitcoin/bitcoin/pull/24226#discussion_r797446777",
      "id" : 797446777,
      "in_reply_to_id" : 796641109,
      "line" : null,
      "node_id" : "PRRC_kwDOABII584viBJ5",
      "original_commit_id" : "a40e2c4cc6e539c28a3026df3ece5b4ab9bbde54",
      "original_line" : 796,
      "original_position" : 6,
      "original_start_line" : null,
      "path" : "src/rpc/blockchain.cpp",
      "position" : null,
      "pull_request_review_id" : 870320723,
      "pull_request_url" : "https://api.github.com/repos/bitcoin/bitcoin/pulls/24226",
      "reactions" : {
         "+1" : 0,
         "-1" : 0,
         "confused" : 0,
         "eyes" : 0,
         "heart" : 0,
         "hooray" : 0,
         "laugh" : 0,
         "rocket" : 0,
         "total_count" : 0,
         "url" : "https://api.github.com/repos/bitcoin/bitcoin/pulls/comments/797446777/reactions"
      },
      "side" : "RIGHT",
      "start_line" : null,
      "start_side" : null,
      "updated_at" : "2022-02-02T10:07:19Z",
      "url" : "https://api.github.com/repos/bitcoin/bitcoin/pulls/comments/797446777",
      "user" : {
         "avatar_url" : "https://avatars.githubusercontent.com/u/10217?v=4",
         "events_url" : "https://api.github.com/users/Sjors/events{/privacy}",
         "followers_url" : "https://api.github.com/users/Sjors/followers",
         "following_url" : "https://api.github.com/users/Sjors/following{/other_user}",
         "gists_url" : "https://api.github.com/users/Sjors/gists{/gist_id}",
         "gravatar_id" : "",
         "html_url" : "https://github.com/Sjors",
         "id" : 10217,
         "login" : "Sjors",
         "node_id" : "MDQ6VXNlcjEwMjE3",
         "organizations_url" : "https://api.github.com/users/Sjors/orgs",
         "received_events_url" : "https://api.github.com/users/Sjors/received_events",
         "repos_url" : "https://api.github.com/users/Sjors/repos",
         "site_admin" : false,
         "starred_url" : "https://api.github.com/users/Sjors/starred{/owner}{/repo}",
         "subscriptions_url" : "https://api.github.com/users/Sjors/subscriptions",
         "type" : "User",
         "url" : "https://api.github.com/users/Sjors"
      }
   },
   {
      "author_association" : "CONTRIBUTOR",
      "body" : "<!--e57a25ab6845829454e8d69fc972939a-->\n\nThe following sections might be updated with supplementary metadata relevant to reviewers and maintainers.\n\n<!--174a7506f384e20aa4161008e828411d-->\n### Conflicts\nReviewers, this pull request conflicts with the following ones:\n\n* [#23813](https://github.com/bitcoin/bitcoin/pull/23813) (Add test and docs for getblockfrompeer with pruning by fjahr)\n\nIf you consider this pull request important, please also help to review the conflicting pull requests. Ideally, start with the one that should be merged first.",
      "created_at" : "2022-02-06T10:36:03Z",
      "html_url" : "https://github.com/bitcoin/bitcoin/pull/24226#issuecomment-1030804595",
      "id" : 1030804595,
      "issue_url" : "https://api.github.com/repos/bitcoin/bitcoin/issues/24226",
      "node_id" : "IC_kwDOABII5849cNRz",
      "performed_via_github_app" : null,
      "reactions" : {
         "+1" : 0,
         "-1" : 0,
         "confused" : 0,
         "eyes" : 0,
         "heart" : 0,
         "hooray" : 0,
         "laugh" : 0,
         "rocket" : 0,
         "total_count" : 0,
         "url" : "https://api.github.com/repos/bitcoin/bitcoin/issues/comments/1030804595/reactions"
      },
      "updated_at" : "2022-06-06T17:05:31Z",
      "url" : "https://api.github.com/repos/bitcoin/bitcoin/issues/comments/1030804595",
      "user" : {
         "avatar_url" : "https://avatars.githubusercontent.com/u/39886733?v=4",
         "events_url" : "https://api.github.com/users/DrahtBot/events{/privacy}",
         "followers_url" : "https://api.github.com/users/DrahtBot/followers",
         "following_url" : "https://api.github.com/users/DrahtBot/following{/other_user}",
         "gists_url" : "https://api.github.com/users/DrahtBot/gists{/gist_id}",
         "gravatar_id" : "",
         "html_url" : "https://github.com/DrahtBot",
         "id" : 39886733,
         "login" : "DrahtBot",
         "node_id" : "MDQ6VXNlcjM5ODg2NzMz",
         "organizations_url" : "https://api.github.com/users/DrahtBot/orgs",
         "received_events_url" : "https://api.github.com/users/DrahtBot/received_events",
         "repos_url" : "https://api.github.com/users/DrahtBot/repos",
         "site_admin" : false,
         "starred_url" : "https://api.github.com/users/DrahtBot/starred{/owner}{/repo}",
         "subscriptions_url" : "https://api.github.com/users/DrahtBot/subscriptions",
         "type" : "User",
         "url" : "https://api.github.com/users/DrahtBot"
      }
   },
   {
      "_links" : {
         "html" : {
            "href" : "https://github.com/bitcoin/bitcoin/pull/24226#discussion_r811800060"
         },
         "pull_request" : {
            "href" : "https://api.github.com/repos/bitcoin/bitcoin/pulls/24226"
         },
         "self" : {
            "href" : "https://api.github.com/repos/bitcoin/bitcoin/pulls/comments/811800060"
         }
      },
      "author_association" : "MEMBER",
      "body" : "Are you still working on this?",
      "commit_id" : "4b3098817a671960c1d9c9a01912f717fee91b5c",
      "created_at" : "2022-02-22T10:32:51Z",
      "diff_hunk" : "@@ -792,7 +792,8 @@ static RPCHelpMan getblockfrompeer()\n         \"getblockfrompeer\",\n         \"Attempt to fetch block from a given peer.\\n\\n\"\n         \"We must have the header for this block, e.g. using submitheader.\\n\"\n-        \"Subsequent calls for the same block and a new peer will cause the response from the previous peer to be ignored.\\n\\n\"\n+        \"Subsequent calls for the same block and a new peer will cause the response from the previous peer to be ignored.\\n\"\n+        \"Nodes generally ignore requests for a stale block that they never fully verified, or one that is more than a month old.\\n\\n\"",
      "html_url" : "https://github.com/bitcoin/bitcoin/pull/24226#discussion_r811800060",
      "id" : 811800060,
      "in_reply_to_id" : 796641109,
      "line" : null,
      "node_id" : "PRRC_kwDOABII584wYxX8",
      "original_commit_id" : "a40e2c4cc6e539c28a3026df3ece5b4ab9bbde54",
      "original_line" : 796,
      "original_position" : 6,
      "original_start_line" : null,
      "path" : "src/rpc/blockchain.cpp",
      "position" : null,
      "pull_request_review_id" : 889593734,
      "pull_request_url" : "https://api.github.com/repos/bitcoin/bitcoin/pulls/24226",
      "reactions" : {
         "+1" : 0,
         "-1" : 0,
         "confused" : 0,
         "eyes" : 0,
         "heart" : 0,
         "hooray" : 0,
         "laugh" : 0,
         "rocket" : 0,
         "total_count" : 0,
         "url" : "https://api.github.com/repos/bitcoin/bitcoin/pulls/comments/811800060/reactions"
      },
      "side" : "RIGHT",
      "start_line" : null,
      "start_side" : null,
      "updated_at" : "2022-02-22T10:32:51Z",
      "url" : "https://api.github.com/repos/bitcoin/bitcoin/pulls/comments/811800060",
      "user" : {
         "avatar_url" : "https://avatars.githubusercontent.com/u/6399679?v=4",
         "events_url" : "https://api.github.com/users/MarcoFalke/events{/privacy}",
         "followers_url" : "https://api.github.com/users/MarcoFalke/followers",
         "following_url" : "https://api.github.com/users/MarcoFalke/following{/other_user}",
         "gists_url" : "https://api.github.com/users/MarcoFalke/gists{/gist_id}",
         "gravatar_id" : "",
         "html_url" : "https://github.com/MarcoFalke",
         "id" : 6399679,
         "login" : "MarcoFalke",
         "node_id" : "MDQ6VXNlcjYzOTk2Nzk=",
         "organizations_url" : "https://api.github.com/users/MarcoFalke/orgs",
         "received_events_url" : "https://api.github.com/users/MarcoFalke/received_events",
         "repos_url" : "https://api.github.com/users/MarcoFalke/repos",
         "site_admin" : false,
         "starred_url" : "https://api.github.com/users/MarcoFalke/starred{/owner}{/repo}",
         "subscriptions_url" : "https://api.github.com/users/MarcoFalke/subscriptions",
         "type" : "User",
         "url" : "https://api.github.com/users/MarcoFalke"
      }
   },
   {
      "author_association" : "MEMBER",
      "body" : "I'm not sure about the state of this PR. What are the plans here? Is this a (sufficient) improvement to the documentation, should it be merged as-is, or do you want to do something else instead.",
      "created_at" : "2022-04-15T08:39:13Z",
      "html_url" : "https://github.com/bitcoin/bitcoin/pull/24226#issuecomment-1099967527",
      "id" : 1099967527,
      "issue_url" : "https://api.github.com/repos/bitcoin/bitcoin/issues/24226",
      "node_id" : "IC_kwDOABII585BkCwn",
      "performed_via_github_app" : null,
      "reactions" : {
         "+1" : 0,
         "-1" : 0,
         "confused" : 0,
         "eyes" : 0,
         "heart" : 0,
         "hooray" : 0,
         "laugh" : 0,
         "rocket" : 0,
         "total_count" : 0,
         "url" : "https://api.github.com/repos/bitcoin/bitcoin/issues/comments/1099967527/reactions"
      },
      "updated_at" : "2022-04-15T08:41:45Z",
      "url" : "https://api.github.com/repos/bitcoin/bitcoin/issues/comments/1099967527",
      "user" : {
         "avatar_url" : "https://avatars.githubusercontent.com/u/126646?v=4",
         "events_url" : "https://api.github.com/users/laanwj/events{/privacy}",
         "followers_url" : "https://api.github.com/users/laanwj/followers",
         "following_url" : "https://api.github.com/users/laanwj/following{/other_user}",
         "gists_url" : "https://api.github.com/users/laanwj/gists{/gist_id}",
         "gravatar_id" : "",
         "html_url" : "https://github.com/laanwj",
         "id" : 126646,
         "login" : "laanwj",
         "node_id" : "MDQ6VXNlcjEyNjY0Ng==",
         "organizations_url" : "https://api.github.com/users/laanwj/orgs",
         "received_events_url" : "https://api.github.com/users/laanwj/received_events",
         "repos_url" : "https://api.github.com/users/laanwj/repos",
         "site_admin" : false,
         "starred_url" : "https://api.github.com/users/laanwj/starred{/owner}{/repo}",
         "subscriptions_url" : "https://api.github.com/users/laanwj/subscriptions",
         "type" : "User",
         "url" : "https://api.github.com/users/laanwj"
      }
   },
   {
      "author_association" : "MEMBER",
      "body" : "This fell of my radar. I still need to investigate this: https://github.com/bitcoin/bitcoin/pull/24226#discussion_r797446777\r\n\r\nCould use some hints from p2p gurus like @jnewbery. The \"Waiting for author\" tag is fine for now.",
      "created_at" : "2022-04-19T09:25:38Z",
      "html_url" : "https://github.com/bitcoin/bitcoin/pull/24226#issuecomment-1102377343",
      "id" : 1102377343,
      "issue_url" : "https://api.github.com/repos/bitcoin/bitcoin/issues/24226",
      "node_id" : "IC_kwDOABII585BtPF_",
      "performed_via_github_app" : null,
      "reactions" : {
         "+1" : 0,
         "-1" : 0,
         "confused" : 0,
         "eyes" : 0,
         "heart" : 0,
         "hooray" : 0,
         "laugh" : 0,
         "rocket" : 0,
         "total_count" : 0,
         "url" : "https://api.github.com/repos/bitcoin/bitcoin/issues/comments/1102377343/reactions"
      },
      "updated_at" : "2022-04-19T09:25:38Z",
      "url" : "https://api.github.com/repos/bitcoin/bitcoin/issues/comments/1102377343",
      "user" : {
         "avatar_url" : "https://avatars.githubusercontent.com/u/10217?v=4",
         "events_url" : "https://api.github.com/users/Sjors/events{/privacy}",
         "followers_url" : "https://api.github.com/users/Sjors/followers",
         "following_url" : "https://api.github.com/users/Sjors/following{/other_user}",
         "gists_url" : "https://api.github.com/users/Sjors/gists{/gist_id}",
         "gravatar_id" : "",
         "html_url" : "https://github.com/Sjors",
         "id" : 10217,
         "login" : "Sjors",
         "node_id" : "MDQ6VXNlcjEwMjE3",
         "organizations_url" : "https://api.github.com/users/Sjors/orgs",
         "received_events_url" : "https://api.github.com/users/Sjors/received_events",
         "repos_url" : "https://api.github.com/users/Sjors/repos",
         "site_admin" : false,
         "starred_url" : "https://api.github.com/users/Sjors/starred{/owner}{/repo}",
         "subscriptions_url" : "https://api.github.com/users/Sjors/subscriptions",
         "type" : "User",
         "url" : "https://api.github.com/users/Sjors"
      }
   },
   {
      "author_association" : "CONTRIBUTOR",
      "body" : "Maybe get the doc improved, and open an issue for the disconnection and fix that later?",
      "created_at" : "2022-06-01T20:38:19Z",
      "html_url" : "https://github.com/bitcoin/bitcoin/pull/24226#issuecomment-1144111348",
      "id" : 1144111348,
      "issue_url" : "https://api.github.com/repos/bitcoin/bitcoin/issues/24226",
      "node_id" : "IC_kwDOABII585EMcD0",
      "performed_via_github_app" : null,
      "reactions" : {
         "+1" : 0,
         "-1" : 0,
         "confused" : 0,
         "eyes" : 0,
         "heart" : 0,
         "hooray" : 0,
         "laugh" : 0,
         "rocket" : 0,
         "total_count" : 0,
         "url" : "https://api.github.com/repos/bitcoin/bitcoin/issues/comments/1144111348/reactions"
      },
      "updated_at" : "2022-06-01T20:38:19Z",
      "url" : "https://api.github.com/repos/bitcoin/bitcoin/issues/comments/1144111348",
      "user" : {
         "avatar_url" : "https://avatars.githubusercontent.com/u/127186?v=4",
         "events_url" : "https://api.github.com/users/ajtowns/events{/privacy}",
         "followers_url" : "https://api.github.com/users/ajtowns/followers",
         "following_url" : "https://api.github.com/users/ajtowns/following{/other_user}",
         "gists_url" : "https://api.github.com/users/ajtowns/gists{/gist_id}",
         "gravatar_id" : "",
         "html_url" : "https://github.com/ajtowns",
         "id" : 127186,
         "login" : "ajtowns",
         "node_id" : "MDQ6VXNlcjEyNzE4Ng==",
         "organizations_url" : "https://api.github.com/users/ajtowns/orgs",
         "received_events_url" : "https://api.github.com/users/ajtowns/received_events",
         "repos_url" : "https://api.github.com/users/ajtowns/repos",
         "site_admin" : false,
         "starred_url" : "https://api.github.com/users/ajtowns/starred{/owner}{/repo}",
         "subscriptions_url" : "https://api.github.com/users/ajtowns/subscriptions",
         "type" : "User",
         "url" : "https://api.github.com/users/ajtowns"
      }
   },
   {
      "author_association" : "MEMBER",
      "body" : "I added the disconnect behavior to the RPC doc. Also added a more detailed explanation in `net_processing.cpp`.",
      "created_at" : "2022-07-18T10:16:40Z",
      "html_url" : "https://github.com/bitcoin/bitcoin/pull/24226#issuecomment-1187019261",
      "id" : 1187019261,
      "issue_url" : "https://api.github.com/repos/bitcoin/bitcoin/issues/24226",
      "node_id" : "IC_kwDOABII585GwHn9",
      "performed_via_github_app" : null,
      "reactions" : {
         "+1" : 0,
         "-1" : 0,
         "confused" : 0,
         "eyes" : 0,
         "heart" : 0,
         "hooray" : 0,
         "laugh" : 0,
         "rocket" : 0,
         "total_count" : 0,
         "url" : "https://api.github.com/repos/bitcoin/bitcoin/issues/comments/1187019261/reactions"
      },
      "updated_at" : "2022-07-18T10:16:40Z",
      "url" : "https://api.github.com/repos/bitcoin/bitcoin/issues/comments/1187019261",
      "user" : {
         "avatar_url" : "https://avatars.githubusercontent.com/u/10217?v=4",
         "events_url" : "https://api.github.com/users/Sjors/events{/privacy}",
         "followers_url" : "https://api.github.com/users/Sjors/followers",
         "following_url" : "https://api.github.com/users/Sjors/following{/other_user}",
         "gists_url" : "https://api.github.com/users/Sjors/gists{/gist_id}",
         "gravatar_id" : "",
         "html_url" : "https://github.com/Sjors",
         "id" : 10217,
         "login" : "Sjors",
         "node_id" : "MDQ6VXNlcjEwMjE3",
         "organizations_url" : "https://api.github.com/users/Sjors/orgs",
         "received_events_url" : "https://api.github.com/users/Sjors/received_events",
         "repos_url" : "https://api.github.com/users/Sjors/repos",
         "site_admin" : false,
         "starred_url" : "https://api.github.com/users/Sjors/starred{/owner}{/repo}",
         "subscriptions_url" : "https://api.github.com/users/Sjors/subscriptions",
         "type" : "User",
         "url" : "https://api.github.com/users/Sjors"
      }
   },
   {
      "_links" : {
         "html" : {
            "href" : "https://github.com/bitcoin/bitcoin/pull/24226#discussion_r923191470"
         },
         "pull_request" : {
            "href" : "https://api.github.com/repos/bitcoin/bitcoin/pulls/24226"
         },
         "self" : {
            "href" : "https://api.github.com/repos/bitcoin/bitcoin/pulls/comments/923191470"
         }
      },
      "author_association" : "MEMBER",
      "body" : "Took a closer look. It indeed appears this would disconnect. Updated the doc, but haven't tested it..",
      "commit_id" : "22df64564bfe89cac8a28de7148c700490e31140",
      "created_at" : "2022-07-18T10:23:08Z",
      "diff_hunk" : "@@ -792,7 +792,8 @@ static RPCHelpMan getblockfrompeer()\n         \"getblockfrompeer\",\n         \"Attempt to fetch block from a given peer.\\n\\n\"\n         \"We must have the header for this block, e.g. using submitheader.\\n\"\n-        \"Subsequent calls for the same block and a new peer will cause the response from the previous peer to be ignored.\\n\\n\"\n+        \"Subsequent calls for the same block and a new peer will cause the response from the previous peer to be ignored.\\n\"\n+        \"Nodes generally ignore requests for a stale block that they never fully verified, or one that is more than a month old.\\n\\n\"",
      "html_url" : "https://github.com/bitcoin/bitcoin/pull/24226#discussion_r923191470",
      "id" : 923191470,
      "in_reply_to_id" : 796641109,
      "line" : null,
      "node_id" : "PRRC_kwDOABII5843Bsiu",
      "original_commit_id" : "a40e2c4cc6e539c28a3026df3ece5b4ab9bbde54",
      "original_line" : 796,
      "original_position" : 6,
      "original_start_line" : null,
      "path" : "src/rpc/blockchain.cpp",
      "position" : null,
      "pull_request_review_id" : 1041610826,
      "pull_request_url" : "https://api.github.com/repos/bitcoin/bitcoin/pulls/24226",
      "reactions" : {
         "+1" : 0,
         "-1" : 0,
         "confused" : 0,
         "eyes" : 0,
         "heart" : 0,
         "hooray" : 0,
         "laugh" : 0,
         "rocket" : 0,
         "total_count" : 0,
         "url" : "https://api.github.com/repos/bitcoin/bitcoin/pulls/comments/923191470/reactions"
      },
      "side" : "RIGHT",
      "start_line" : null,
      "start_side" : null,
      "updated_at" : "2022-07-18T10:23:08Z",
      "url" : "https://api.github.com/repos/bitcoin/bitcoin/pulls/comments/923191470",
      "user" : {
         "avatar_url" : "https://avatars.githubusercontent.com/u/10217?v=4",
         "events_url" : "https://api.github.com/users/Sjors/events{/privacy}",
         "followers_url" : "https://api.github.com/users/Sjors/followers",
         "following_url" : "https://api.github.com/users/Sjors/following{/other_user}",
         "gists_url" : "https://api.github.com/users/Sjors/gists{/gist_id}",
         "gravatar_id" : "",
         "html_url" : "https://github.com/Sjors",
         "id" : 10217,
         "login" : "Sjors",
         "node_id" : "MDQ6VXNlcjEwMjE3",
         "organizations_url" : "https://api.github.com/users/Sjors/orgs",
         "received_events_url" : "https://api.github.com/users/Sjors/received_events",
         "repos_url" : "https://api.github.com/users/Sjors/repos",
         "site_admin" : false,
         "starred_url" : "https://api.github.com/users/Sjors/starred{/owner}{/repo}",
         "subscriptions_url" : "https://api.github.com/users/Sjors/subscriptions",
         "type" : "User",
         "url" : "https://api.github.com/users/Sjors"
      }
   }
]
