[
   {
      "_links" : {
         "html" : {
            "href" : "https://github.com/bitcoin/bitcoin/pull/24737#discussion_r840539068"
         },
         "pull_request" : {
            "href" : "https://api.github.com/repos/bitcoin/bitcoin/pulls/24737"
         },
         "self" : {
            "href" : "https://api.github.com/repos/bitcoin/bitcoin/pulls/comments/840539068"
         }
      },
      "author_association" : "MEMBER",
      "body" : "?",
      "commit_id" : "fa8abbe59bf1463e1f751bfcfb2a84bc93944cc2",
      "created_at" : "2022-04-01T12:30:33Z",
      "diff_hunk" : "@@ -1241,31 +1226,19 @@ class TaprootTest(BitcoinTestFramework):\n     def add_options(self, parser):\n         parser.add_argument(\"--dumptests\", dest=\"dump_tests\", default=False, action=\"store_true\",\n                             help=\"Dump generated test cases to directory set by TEST_DUMP_DIR environment variable\")\n-        parser.add_argument(\"--previous_release\", dest=\"previous_release\", default=False, action=\"store_true\",\n-                            help=\"Use a previous release as taproot-inactive node\")\n \n     def skip_test_if_missing_module(self):\n         self.skip_if_no_wallet()\n-        if self.options.previous_release:\n-            self.skip_if_no_previous_releases()\n \n     def set_test_params(self):\n-        self.num_nodes = 2\n+        self.num_nodes = 1\n         self.setup_clean_chain = True\n-        # Node 0 has Taproot inactive, Node 1 active.\n-        self.extra_args = [[\"-par=1\"], [\"-par=1\"]]\n-        if self.options.previous_release:\n-            self.wallet_names = [None, self.default_wallet_name]\n-        else:\n-            self.extra_args[0].append(\"-vbparams=taproot:1:1\")\n+        self.extra_args = [[\"-par=1\"]]\n \n-    def setup_nodes(self):\n-        self.add_nodes(self.num_nodes, self.extra_args, versions=[\n-            200100 if self.options.previous_release else None,\n-            None,\n-        ])\n-        self.start_nodes()\n-        self.import_deterministic_coinbase_privkeys()\n+#    def setup_nodes(self):\n+#        self.add_nodes(self.num_nodes, self.extra_args         )\n+#        self.start_nodes()\n+#        self.import_deterministic_coinbase_privkeys()",
      "html_url" : "https://github.com/bitcoin/bitcoin/pull/24737#discussion_r840539068",
      "id" : 840539068,
      "line" : null,
      "node_id" : "PRRC_kwDOABII584yGZu8",
      "original_commit_id" : "fa456ee3453513068f806e1aec87013f45b8340d",
      "original_line" : 1241,
      "original_position" : 115,
      "original_start_line" : null,
      "path" : "test/functional/feature_taproot.py",
      "position" : null,
      "pull_request_review_id" : 928858285,
      "pull_request_url" : "https://api.github.com/repos/bitcoin/bitcoin/pulls/24737",
      "reactions" : {
         "+1" : 1,
         "-1" : 0,
         "confused" : 0,
         "eyes" : 0,
         "heart" : 0,
         "hooray" : 0,
         "laugh" : 0,
         "rocket" : 0,
         "total_count" : 1,
         "url" : "https://api.github.com/repos/bitcoin/bitcoin/pulls/comments/840539068/reactions"
      },
      "side" : "RIGHT",
      "start_line" : null,
      "start_side" : null,
      "updated_at" : "2022-04-01T12:30:34Z",
      "url" : "https://api.github.com/repos/bitcoin/bitcoin/pulls/comments/840539068",
      "user" : {
         "avatar_url" : "https://avatars.githubusercontent.com/u/2415484?v=4",
         "events_url" : "https://api.github.com/users/jonatack/events{/privacy}",
         "followers_url" : "https://api.github.com/users/jonatack/followers",
         "following_url" : "https://api.github.com/users/jonatack/following{/other_user}",
         "gists_url" : "https://api.github.com/users/jonatack/gists{/gist_id}",
         "gravatar_id" : "",
         "html_url" : "https://github.com/jonatack",
         "id" : 2415484,
         "login" : "jonatack",
         "node_id" : "MDQ6VXNlcjI0MTU0ODQ=",
         "organizations_url" : "https://api.github.com/users/jonatack/orgs",
         "received_events_url" : "https://api.github.com/users/jonatack/received_events",
         "repos_url" : "https://api.github.com/users/jonatack/repos",
         "site_admin" : false,
         "starred_url" : "https://api.github.com/users/jonatack/starred{/owner}{/repo}",
         "subscriptions_url" : "https://api.github.com/users/jonatack/subscriptions",
         "type" : "User",
         "url" : "https://api.github.com/users/jonatack"
      }
   },
   {
      "_links" : {
         "html" : {
            "href" : "https://github.com/bitcoin/bitcoin/pull/24737#discussion_r840540511"
         },
         "pull_request" : {
            "href" : "https://api.github.com/repos/bitcoin/bitcoin/pulls/24737"
         },
         "self" : {
            "href" : "https://api.github.com/repos/bitcoin/bitcoin/pulls/comments/840540511"
         }
      },
      "author_association" : "MEMBER",
      "body" : ":sweat_smile: Thx, removed the code.",
      "commit_id" : "fa8abbe59bf1463e1f751bfcfb2a84bc93944cc2",
      "created_at" : "2022-04-01T12:32:33Z",
      "diff_hunk" : "@@ -1241,31 +1226,19 @@ class TaprootTest(BitcoinTestFramework):\n     def add_options(self, parser):\n         parser.add_argument(\"--dumptests\", dest=\"dump_tests\", default=False, action=\"store_true\",\n                             help=\"Dump generated test cases to directory set by TEST_DUMP_DIR environment variable\")\n-        parser.add_argument(\"--previous_release\", dest=\"previous_release\", default=False, action=\"store_true\",\n-                            help=\"Use a previous release as taproot-inactive node\")\n \n     def skip_test_if_missing_module(self):\n         self.skip_if_no_wallet()\n-        if self.options.previous_release:\n-            self.skip_if_no_previous_releases()\n \n     def set_test_params(self):\n-        self.num_nodes = 2\n+        self.num_nodes = 1\n         self.setup_clean_chain = True\n-        # Node 0 has Taproot inactive, Node 1 active.\n-        self.extra_args = [[\"-par=1\"], [\"-par=1\"]]\n-        if self.options.previous_release:\n-            self.wallet_names = [None, self.default_wallet_name]\n-        else:\n-            self.extra_args[0].append(\"-vbparams=taproot:1:1\")\n+        self.extra_args = [[\"-par=1\"]]\n \n-    def setup_nodes(self):\n-        self.add_nodes(self.num_nodes, self.extra_args, versions=[\n-            200100 if self.options.previous_release else None,\n-            None,\n-        ])\n-        self.start_nodes()\n-        self.import_deterministic_coinbase_privkeys()\n+#    def setup_nodes(self):\n+#        self.add_nodes(self.num_nodes, self.extra_args         )\n+#        self.start_nodes()\n+#        self.import_deterministic_coinbase_privkeys()",
      "html_url" : "https://github.com/bitcoin/bitcoin/pull/24737#discussion_r840540511",
      "id" : 840540511,
      "in_reply_to_id" : 840539068,
      "line" : null,
      "node_id" : "PRRC_kwDOABII584yGaFf",
      "original_commit_id" : "fa456ee3453513068f806e1aec87013f45b8340d",
      "original_line" : 1241,
      "original_position" : 115,
      "original_start_line" : null,
      "path" : "test/functional/feature_taproot.py",
      "position" : null,
      "pull_request_review_id" : 928860338,
      "pull_request_url" : "https://api.github.com/repos/bitcoin/bitcoin/pulls/24737",
      "reactions" : {
         "+1" : 1,
         "-1" : 0,
         "confused" : 0,
         "eyes" : 0,
         "heart" : 0,
         "hooray" : 0,
         "laugh" : 0,
         "rocket" : 0,
         "total_count" : 1,
         "url" : "https://api.github.com/repos/bitcoin/bitcoin/pulls/comments/840540511/reactions"
      },
      "side" : "RIGHT",
      "start_line" : null,
      "start_side" : null,
      "updated_at" : "2022-04-01T12:32:34Z",
      "url" : "https://api.github.com/repos/bitcoin/bitcoin/pulls/comments/840540511",
      "user" : {
         "avatar_url" : "https://avatars.githubusercontent.com/u/6399679?v=4",
         "events_url" : "https://api.github.com/users/MarcoFalke/events{/privacy}",
         "followers_url" : "https://api.github.com/users/MarcoFalke/followers",
         "following_url" : "https://api.github.com/users/MarcoFalke/following{/other_user}",
         "gists_url" : "https://api.github.com/users/MarcoFalke/gists{/gist_id}",
         "gravatar_id" : "",
         "html_url" : "https://github.com/MarcoFalke",
         "id" : 6399679,
         "login" : "MarcoFalke",
         "node_id" : "MDQ6VXNlcjYzOTk2Nzk=",
         "organizations_url" : "https://api.github.com/users/MarcoFalke/orgs",
         "received_events_url" : "https://api.github.com/users/MarcoFalke/received_events",
         "repos_url" : "https://api.github.com/users/MarcoFalke/repos",
         "site_admin" : false,
         "starred_url" : "https://api.github.com/users/MarcoFalke/starred{/owner}{/repo}",
         "subscriptions_url" : "https://api.github.com/users/MarcoFalke/subscriptions",
         "type" : "User",
         "url" : "https://api.github.com/users/MarcoFalke"
      }
   },
   {
      "author_association" : "CONTRIBUTOR",
      "body" : "<!--e57a25ab6845829454e8d69fc972939a-->\n\nThe following sections might be updated with supplementary metadata relevant to reviewers and maintainers.\n\n<!--174a7506f384e20aa4161008e828411d-->\n### Conflicts\nNo conflicts as of last run.",
      "created_at" : "2022-04-01T12:58:32Z",
      "html_url" : "https://github.com/bitcoin/bitcoin/pull/24737#issuecomment-1085867618",
      "id" : 1085867618,
      "issue_url" : "https://api.github.com/repos/bitcoin/bitcoin/issues/24737",
      "node_id" : "IC_kwDOABII585AuQZi",
      "performed_via_github_app" : null,
      "reactions" : {
         "+1" : 0,
         "-1" : 0,
         "confused" : 0,
         "eyes" : 0,
         "heart" : 0,
         "hooray" : 0,
         "laugh" : 0,
         "rocket" : 0,
         "total_count" : 0,
         "url" : "https://api.github.com/repos/bitcoin/bitcoin/issues/comments/1085867618/reactions"
      },
      "updated_at" : "2022-05-14T03:08:44Z",
      "url" : "https://api.github.com/repos/bitcoin/bitcoin/issues/comments/1085867618",
      "user" : {
         "avatar_url" : "https://avatars.githubusercontent.com/u/39886733?v=4",
         "events_url" : "https://api.github.com/users/DrahtBot/events{/privacy}",
         "followers_url" : "https://api.github.com/users/DrahtBot/followers",
         "following_url" : "https://api.github.com/users/DrahtBot/following{/other_user}",
         "gists_url" : "https://api.github.com/users/DrahtBot/gists{/gist_id}",
         "gravatar_id" : "",
         "html_url" : "https://github.com/DrahtBot",
         "id" : 39886733,
         "login" : "DrahtBot",
         "node_id" : "MDQ6VXNlcjM5ODg2NzMz",
         "organizations_url" : "https://api.github.com/users/DrahtBot/orgs",
         "received_events_url" : "https://api.github.com/users/DrahtBot/received_events",
         "repos_url" : "https://api.github.com/users/DrahtBot/repos",
         "site_admin" : false,
         "starred_url" : "https://api.github.com/users/DrahtBot/starred{/owner}{/repo}",
         "subscriptions_url" : "https://api.github.com/users/DrahtBot/subscriptions",
         "type" : "User",
         "url" : "https://api.github.com/users/DrahtBot"
      }
   },
   {
      "_links" : {
         "html" : {
            "href" : "https://github.com/bitcoin/bitcoin/pull/24737#discussion_r843261872"
         },
         "pull_request" : {
            "href" : "https://api.github.com/repos/bitcoin/bitcoin/pulls/24737"
         },
         "self" : {
            "href" : "https://api.github.com/repos/bitcoin/bitcoin/pulls/comments/843261872"
         }
      },
      "author_association" : "MEMBER",
      "body" : "The other soft forks are marked as burried, rather than completely omitted.",
      "commit_id" : "fa8abbe59bf1463e1f751bfcfb2a84bc93944cc2",
      "created_at" : "2022-04-05T21:06:27Z",
      "diff_hunk" : "@@ -213,19 +213,6 @@ def check_signalling_deploymentinfo_result(self, gdi_result, height, blockhash,\n                 },\n                 'active': False\n             },\n-            'taproot': {",
      "html_url" : "https://github.com/bitcoin/bitcoin/pull/24737#discussion_r843261872",
      "id" : 843261872,
      "line" : 216,
      "node_id" : "PRRC_kwDOABII584yQyew",
      "original_commit_id" : "fa01259e25ebd945b8dd208de816a7c4cc4a0bfc",
      "original_line" : 216,
      "original_position" : 4,
      "original_start_line" : null,
      "path" : "test/functional/rpc_blockchain.py",
      "position" : 4,
      "pull_request_review_id" : 932515539,
      "pull_request_url" : "https://api.github.com/repos/bitcoin/bitcoin/pulls/24737",
      "reactions" : {
         "+1" : 0,
         "-1" : 0,
         "confused" : 0,
         "eyes" : 0,
         "heart" : 0,
         "hooray" : 0,
         "laugh" : 0,
         "rocket" : 0,
         "total_count" : 0,
         "url" : "https://api.github.com/repos/bitcoin/bitcoin/pulls/comments/843261872/reactions"
      },
      "side" : "LEFT",
      "start_line" : null,
      "start_side" : null,
      "updated_at" : "2022-04-05T21:06:27Z",
      "url" : "https://api.github.com/repos/bitcoin/bitcoin/pulls/comments/843261872",
      "user" : {
         "avatar_url" : "https://avatars.githubusercontent.com/u/10217?v=4",
         "events_url" : "https://api.github.com/users/Sjors/events{/privacy}",
         "followers_url" : "https://api.github.com/users/Sjors/followers",
         "following_url" : "https://api.github.com/users/Sjors/following{/other_user}",
         "gists_url" : "https://api.github.com/users/Sjors/gists{/gist_id}",
         "gravatar_id" : "",
         "html_url" : "https://github.com/Sjors",
         "id" : 10217,
         "login" : "Sjors",
         "node_id" : "MDQ6VXNlcjEwMjE3",
         "organizations_url" : "https://api.github.com/users/Sjors/orgs",
         "received_events_url" : "https://api.github.com/users/Sjors/received_events",
         "repos_url" : "https://api.github.com/users/Sjors/repos",
         "site_admin" : false,
         "starred_url" : "https://api.github.com/users/Sjors/starred{/owner}{/repo}",
         "subscriptions_url" : "https://api.github.com/users/Sjors/subscriptions",
         "type" : "User",
         "url" : "https://api.github.com/users/Sjors"
      }
   },
   {
      "_links" : {
         "html" : {
            "href" : "https://github.com/bitcoin/bitcoin/pull/24737#discussion_r843514223"
         },
         "pull_request" : {
            "href" : "https://api.github.com/repos/bitcoin/bitcoin/pulls/24737"
         },
         "self" : {
            "href" : "https://api.github.com/repos/bitcoin/bitcoin/pulls/comments/843514223"
         }
      },
      "author_association" : "MEMBER",
      "body" : "Yes, I think this is a reason to remove them as well. Once they are buried, their activation height is a constant. So there is no need to report it dynamically over RPC. Apart from being overkill, I don't see a use case either.\r\n\r\nIf someone wants to know if the wallet supports $feature, they can use a wallet RPC or the GUI. (This RPC won't help them)\r\nIf someone wants to know if the mempool supports $feature, this RPC won't help them either. I think the best they can do is read the release notes to figure out if the mempool supports $feature regardless of blockchain height. Alternatively they can just test if their use case is supported.\r\nIf someone read the release notes, but wants to know *over RPC* which version of Bitcoin Core they are running, they can use the appropriate call. \r\n\r\nAs mentioned in OP, returning a result for `taproot` here (buried or vb) is neither right or wrong. While the result may reflect the height at which the BIP activated on the network (as mentioned in the BIP as well), it does not reflect the height at which this software enforces the rules. The rules are theoretically enforced since genesis, practically only after witness is allowed in blocks. This is not something that can/should be explained by returning a JSON.\r\n\r\nIf you insist on returning a JSON, my preference would be to return `'taproot': True`. Until then, my preference is to remove it, since it is unknown if there is a use case for this (and if there is one) what the use case is.",
      "commit_id" : "fa8abbe59bf1463e1f751bfcfb2a84bc93944cc2",
      "created_at" : "2022-04-06T06:32:52Z",
      "diff_hunk" : "@@ -213,19 +213,6 @@ def check_signalling_deploymentinfo_result(self, gdi_result, height, blockhash,\n                 },\n                 'active': False\n             },\n-            'taproot': {",
      "html_url" : "https://github.com/bitcoin/bitcoin/pull/24737#discussion_r843514223",
      "id" : 843514223,
      "in_reply_to_id" : 843261872,
      "line" : 216,
      "node_id" : "PRRC_kwDOABII584yRwFv",
      "original_commit_id" : "fa01259e25ebd945b8dd208de816a7c4cc4a0bfc",
      "original_line" : 216,
      "original_position" : 4,
      "original_start_line" : null,
      "path" : "test/functional/rpc_blockchain.py",
      "position" : 4,
      "pull_request_review_id" : 932893653,
      "pull_request_url" : "https://api.github.com/repos/bitcoin/bitcoin/pulls/24737",
      "reactions" : {
         "+1" : 0,
         "-1" : 0,
         "confused" : 0,
         "eyes" : 0,
         "heart" : 0,
         "hooray" : 0,
         "laugh" : 0,
         "rocket" : 0,
         "total_count" : 0,
         "url" : "https://api.github.com/repos/bitcoin/bitcoin/pulls/comments/843514223/reactions"
      },
      "side" : "LEFT",
      "start_line" : null,
      "start_side" : null,
      "updated_at" : "2022-04-06T06:34:35Z",
      "url" : "https://api.github.com/repos/bitcoin/bitcoin/pulls/comments/843514223",
      "user" : {
         "avatar_url" : "https://avatars.githubusercontent.com/u/6399679?v=4",
         "events_url" : "https://api.github.com/users/MarcoFalke/events{/privacy}",
         "followers_url" : "https://api.github.com/users/MarcoFalke/followers",
         "following_url" : "https://api.github.com/users/MarcoFalke/following{/other_user}",
         "gists_url" : "https://api.github.com/users/MarcoFalke/gists{/gist_id}",
         "gravatar_id" : "",
         "html_url" : "https://github.com/MarcoFalke",
         "id" : 6399679,
         "login" : "MarcoFalke",
         "node_id" : "MDQ6VXNlcjYzOTk2Nzk=",
         "organizations_url" : "https://api.github.com/users/MarcoFalke/orgs",
         "received_events_url" : "https://api.github.com/users/MarcoFalke/received_events",
         "repos_url" : "https://api.github.com/users/MarcoFalke/repos",
         "site_admin" : false,
         "starred_url" : "https://api.github.com/users/MarcoFalke/starred{/owner}{/repo}",
         "subscriptions_url" : "https://api.github.com/users/MarcoFalke/subscriptions",
         "type" : "User",
         "url" : "https://api.github.com/users/MarcoFalke"
      }
   },
   {
      "_links" : {
         "html" : {
            "href" : "https://github.com/bitcoin/bitcoin/pull/24737#discussion_r852814152"
         },
         "pull_request" : {
            "href" : "https://api.github.com/repos/bitcoin/bitcoin/pulls/24737"
         },
         "self" : {
            "href" : "https://api.github.com/repos/bitcoin/bitcoin/pulls/comments/852814152"
         }
      },
      "author_association" : "MEMBER",
      "body" : "> Yes, I think this is a reason to remove them as well.\r\n\r\nI'm not opposed to that, but the inconsistency doesn't help review. Why not set it to `burried` now and make another PR to drop all buried soft forks from the RPC, using the above reasoning. Such a followup would be an RPC-only change.",
      "commit_id" : "fa8abbe59bf1463e1f751bfcfb2a84bc93944cc2",
      "created_at" : "2022-04-19T09:30:43Z",
      "diff_hunk" : "@@ -213,19 +213,6 @@ def check_signalling_deploymentinfo_result(self, gdi_result, height, blockhash,\n                 },\n                 'active': False\n             },\n-            'taproot': {",
      "html_url" : "https://github.com/bitcoin/bitcoin/pull/24737#discussion_r852814152",
      "id" : 852814152,
      "in_reply_to_id" : 843261872,
      "line" : 216,
      "node_id" : "PRRC_kwDOABII584y1OlI",
      "original_commit_id" : "fa01259e25ebd945b8dd208de816a7c4cc4a0bfc",
      "original_line" : 216,
      "original_position" : 4,
      "original_start_line" : null,
      "path" : "test/functional/rpc_blockchain.py",
      "position" : 4,
      "pull_request_review_id" : 945370141,
      "pull_request_url" : "https://api.github.com/repos/bitcoin/bitcoin/pulls/24737",
      "reactions" : {
         "+1" : 0,
         "-1" : 0,
         "confused" : 0,
         "eyes" : 0,
         "heart" : 0,
         "hooray" : 0,
         "laugh" : 0,
         "rocket" : 0,
         "total_count" : 0,
         "url" : "https://api.github.com/repos/bitcoin/bitcoin/pulls/comments/852814152/reactions"
      },
      "side" : "LEFT",
      "start_line" : null,
      "start_side" : null,
      "updated_at" : "2022-04-19T09:30:43Z",
      "url" : "https://api.github.com/repos/bitcoin/bitcoin/pulls/comments/852814152",
      "user" : {
         "avatar_url" : "https://avatars.githubusercontent.com/u/10217?v=4",
         "events_url" : "https://api.github.com/users/Sjors/events{/privacy}",
         "followers_url" : "https://api.github.com/users/Sjors/followers",
         "following_url" : "https://api.github.com/users/Sjors/following{/other_user}",
         "gists_url" : "https://api.github.com/users/Sjors/gists{/gist_id}",
         "gravatar_id" : "",
         "html_url" : "https://github.com/Sjors",
         "id" : 10217,
         "login" : "Sjors",
         "node_id" : "MDQ6VXNlcjEwMjE3",
         "organizations_url" : "https://api.github.com/users/Sjors/orgs",
         "received_events_url" : "https://api.github.com/users/Sjors/received_events",
         "repos_url" : "https://api.github.com/users/Sjors/repos",
         "site_admin" : false,
         "starred_url" : "https://api.github.com/users/Sjors/starred{/owner}{/repo}",
         "subscriptions_url" : "https://api.github.com/users/Sjors/subscriptions",
         "type" : "User",
         "url" : "https://api.github.com/users/Sjors"
      }
   },
   {
      "_links" : {
         "html" : {
            "href" : "https://github.com/bitcoin/bitcoin/pull/24737#discussion_r852839748"
         },
         "pull_request" : {
            "href" : "https://api.github.com/repos/bitcoin/bitcoin/pulls/24737"
         },
         "self" : {
            "href" : "https://api.github.com/repos/bitcoin/bitcoin/pulls/comments/852839748"
         }
      },
      "author_association" : "MEMBER",
      "body" : "Ok, my suggestion to remove the others as well was a bit over eager. They are still used and the activation height actually affects code paths. In fact the tests use `-testactivationheight` to mock the activation height. Though, this isn't true for `taproot`.",
      "commit_id" : "fa8abbe59bf1463e1f751bfcfb2a84bc93944cc2",
      "created_at" : "2022-04-19T09:55:13Z",
      "diff_hunk" : "@@ -213,19 +213,6 @@ def check_signalling_deploymentinfo_result(self, gdi_result, height, blockhash,\n                 },\n                 'active': False\n             },\n-            'taproot': {",
      "html_url" : "https://github.com/bitcoin/bitcoin/pull/24737#discussion_r852839748",
      "id" : 852839748,
      "in_reply_to_id" : 843261872,
      "line" : 216,
      "node_id" : "PRRC_kwDOABII584y1U1E",
      "original_commit_id" : "fa01259e25ebd945b8dd208de816a7c4cc4a0bfc",
      "original_line" : 216,
      "original_position" : 4,
      "original_start_line" : null,
      "path" : "test/functional/rpc_blockchain.py",
      "position" : 4,
      "pull_request_review_id" : 945417468,
      "pull_request_url" : "https://api.github.com/repos/bitcoin/bitcoin/pulls/24737",
      "reactions" : {
         "+1" : 0,
         "-1" : 0,
         "confused" : 0,
         "eyes" : 0,
         "heart" : 0,
         "hooray" : 0,
         "laugh" : 0,
         "rocket" : 0,
         "total_count" : 0,
         "url" : "https://api.github.com/repos/bitcoin/bitcoin/pulls/comments/852839748/reactions"
      },
      "side" : "LEFT",
      "start_line" : null,
      "start_side" : null,
      "updated_at" : "2022-04-19T09:55:13Z",
      "url" : "https://api.github.com/repos/bitcoin/bitcoin/pulls/comments/852839748",
      "user" : {
         "avatar_url" : "https://avatars.githubusercontent.com/u/6399679?v=4",
         "events_url" : "https://api.github.com/users/MarcoFalke/events{/privacy}",
         "followers_url" : "https://api.github.com/users/MarcoFalke/followers",
         "following_url" : "https://api.github.com/users/MarcoFalke/following{/other_user}",
         "gists_url" : "https://api.github.com/users/MarcoFalke/gists{/gist_id}",
         "gravatar_id" : "",
         "html_url" : "https://github.com/MarcoFalke",
         "id" : 6399679,
         "login" : "MarcoFalke",
         "node_id" : "MDQ6VXNlcjYzOTk2Nzk=",
         "organizations_url" : "https://api.github.com/users/MarcoFalke/orgs",
         "received_events_url" : "https://api.github.com/users/MarcoFalke/received_events",
         "repos_url" : "https://api.github.com/users/MarcoFalke/repos",
         "site_admin" : false,
         "starred_url" : "https://api.github.com/users/MarcoFalke/starred{/owner}{/repo}",
         "subscriptions_url" : "https://api.github.com/users/MarcoFalke/subscriptions",
         "type" : "User",
         "url" : "https://api.github.com/users/MarcoFalke"
      }
   },
   {
      "author_association" : "MEMBER",
      "body" : "started peeling off changes, starting with:\r\n\r\n* https://github.com/bitcoin/bitcoin/pull/24918",
      "created_at" : "2022-04-19T10:01:14Z",
      "html_url" : "https://github.com/bitcoin/bitcoin/pull/24737#issuecomment-1102435015",
      "id" : 1102435015,
      "issue_url" : "https://api.github.com/repos/bitcoin/bitcoin/issues/24737",
      "node_id" : "IC_kwDOABII585BtdLH",
      "performed_via_github_app" : null,
      "reactions" : {
         "+1" : 0,
         "-1" : 0,
         "confused" : 0,
         "eyes" : 0,
         "heart" : 0,
         "hooray" : 0,
         "laugh" : 0,
         "rocket" : 0,
         "total_count" : 0,
         "url" : "https://api.github.com/repos/bitcoin/bitcoin/issues/comments/1102435015/reactions"
      },
      "updated_at" : "2022-04-19T10:01:14Z",
      "url" : "https://api.github.com/repos/bitcoin/bitcoin/issues/comments/1102435015",
      "user" : {
         "avatar_url" : "https://avatars.githubusercontent.com/u/6399679?v=4",
         "events_url" : "https://api.github.com/users/MarcoFalke/events{/privacy}",
         "followers_url" : "https://api.github.com/users/MarcoFalke/followers",
         "following_url" : "https://api.github.com/users/MarcoFalke/following{/other_user}",
         "gists_url" : "https://api.github.com/users/MarcoFalke/gists{/gist_id}",
         "gravatar_id" : "",
         "html_url" : "https://github.com/MarcoFalke",
         "id" : 6399679,
         "login" : "MarcoFalke",
         "node_id" : "MDQ6VXNlcjYzOTk2Nzk=",
         "organizations_url" : "https://api.github.com/users/MarcoFalke/orgs",
         "received_events_url" : "https://api.github.com/users/MarcoFalke/received_events",
         "repos_url" : "https://api.github.com/users/MarcoFalke/repos",
         "site_admin" : false,
         "starred_url" : "https://api.github.com/users/MarcoFalke/starred{/owner}{/repo}",
         "subscriptions_url" : "https://api.github.com/users/MarcoFalke/subscriptions",
         "type" : "User",
         "url" : "https://api.github.com/users/MarcoFalke"
      }
   },
   {
      "_links" : {
         "html" : {
            "href" : "https://github.com/bitcoin/bitcoin/pull/24737#discussion_r855153548"
         },
         "pull_request" : {
            "href" : "https://api.github.com/repos/bitcoin/bitcoin/pulls/24737"
         },
         "self" : {
            "href" : "https://api.github.com/repos/bitcoin/bitcoin/pulls/comments/855153548"
         }
      },
      "author_association" : "MEMBER",
      "body" : "Also, I already tried to bury taproot in #23505. Though there wasn't much/enough appetite to get it in before the 23.0 feature freeze. As burying is a breaking RPC change and we already had one (getdeploymentinfo) in 23.0, it could have been bundled with that. However, now that 23.0 is out, it would be a breaking change in 24.0 to bury it. Then, if it is decided to remove, it will be another breaking change.  ",
      "commit_id" : "88e1aa6c65a44fbfbb69a22d87457f18c854dd80",
      "created_at" : "2022-04-21T12:54:23Z",
      "diff_hunk" : "@@ -213,19 +213,6 @@ def check_signalling_deploymentinfo_result(self, gdi_result, height, blockhash,\n                 },\n                 'active': False\n             },\n-            'taproot': {",
      "html_url" : "https://github.com/bitcoin/bitcoin/pull/24737#discussion_r855153548",
      "id" : 855153548,
      "in_reply_to_id" : 843261872,
      "line" : 216,
      "node_id" : "PRRC_kwDOABII584y-JuM",
      "original_commit_id" : "fa01259e25ebd945b8dd208de816a7c4cc4a0bfc",
      "original_line" : 216,
      "original_position" : 4,
      "original_start_line" : null,
      "path" : "test/functional/rpc_blockchain.py",
      "position" : 4,
      "pull_request_review_id" : 948578574,
      "pull_request_url" : "https://api.github.com/repos/bitcoin/bitcoin/pulls/24737",
      "reactions" : {
         "+1" : 0,
         "-1" : 0,
         "confused" : 0,
         "eyes" : 0,
         "heart" : 0,
         "hooray" : 0,
         "laugh" : 0,
         "rocket" : 0,
         "total_count" : 0,
         "url" : "https://api.github.com/repos/bitcoin/bitcoin/pulls/comments/855153548/reactions"
      },
      "side" : "LEFT",
      "start_line" : null,
      "start_side" : null,
      "updated_at" : "2022-04-21T12:54:24Z",
      "url" : "https://api.github.com/repos/bitcoin/bitcoin/pulls/comments/855153548",
      "user" : {
         "avatar_url" : "https://avatars.githubusercontent.com/u/6399679?v=4",
         "events_url" : "https://api.github.com/users/MarcoFalke/events{/privacy}",
         "followers_url" : "https://api.github.com/users/MarcoFalke/followers",
         "following_url" : "https://api.github.com/users/MarcoFalke/following{/other_user}",
         "gists_url" : "https://api.github.com/users/MarcoFalke/gists{/gist_id}",
         "gravatar_id" : "",
         "html_url" : "https://github.com/MarcoFalke",
         "id" : 6399679,
         "login" : "MarcoFalke",
         "node_id" : "MDQ6VXNlcjYzOTk2Nzk=",
         "organizations_url" : "https://api.github.com/users/MarcoFalke/orgs",
         "received_events_url" : "https://api.github.com/users/MarcoFalke/received_events",
         "repos_url" : "https://api.github.com/users/MarcoFalke/repos",
         "site_admin" : false,
         "starred_url" : "https://api.github.com/users/MarcoFalke/starred{/owner}{/repo}",
         "subscriptions_url" : "https://api.github.com/users/MarcoFalke/subscriptions",
         "type" : "User",
         "url" : "https://api.github.com/users/MarcoFalke"
      }
   },
   {
      "author_association" : "MEMBER",
      "body" : "Rebased",
      "created_at" : "2022-04-29T05:54:22Z",
      "html_url" : "https://github.com/bitcoin/bitcoin/pull/24737#issuecomment-1112900912",
      "id" : 1112900912,
      "issue_url" : "https://api.github.com/repos/bitcoin/bitcoin/issues/24737",
      "node_id" : "IC_kwDOABII585CVYUw",
      "performed_via_github_app" : null,
      "reactions" : {
         "+1" : 0,
         "-1" : 0,
         "confused" : 0,
         "eyes" : 0,
         "heart" : 0,
         "hooray" : 0,
         "laugh" : 0,
         "rocket" : 0,
         "total_count" : 0,
         "url" : "https://api.github.com/repos/bitcoin/bitcoin/issues/comments/1112900912/reactions"
      },
      "updated_at" : "2022-04-29T05:54:22Z",
      "url" : "https://api.github.com/repos/bitcoin/bitcoin/issues/comments/1112900912",
      "user" : {
         "avatar_url" : "https://avatars.githubusercontent.com/u/6399679?v=4",
         "events_url" : "https://api.github.com/users/MarcoFalke/events{/privacy}",
         "followers_url" : "https://api.github.com/users/MarcoFalke/followers",
         "following_url" : "https://api.github.com/users/MarcoFalke/following{/other_user}",
         "gists_url" : "https://api.github.com/users/MarcoFalke/gists{/gist_id}",
         "gravatar_id" : "",
         "html_url" : "https://github.com/MarcoFalke",
         "id" : 6399679,
         "login" : "MarcoFalke",
         "node_id" : "MDQ6VXNlcjYzOTk2Nzk=",
         "organizations_url" : "https://api.github.com/users/MarcoFalke/orgs",
         "received_events_url" : "https://api.github.com/users/MarcoFalke/received_events",
         "repos_url" : "https://api.github.com/users/MarcoFalke/repos",
         "site_admin" : false,
         "starred_url" : "https://api.github.com/users/MarcoFalke/starred{/owner}{/repo}",
         "subscriptions_url" : "https://api.github.com/users/MarcoFalke/subscriptions",
         "type" : "User",
         "url" : "https://api.github.com/users/MarcoFalke"
      }
   },
   {
      "author_association" : "CONTRIBUTOR",
      "body" : "<!--cf906140f33d8803c4a75a2196329ecb-->\nð This pull request conflicts with the target branch and [needs rebase](https://github.com/bitcoin/bitcoin/blob/master/CONTRIBUTING.md#rebasing-changes).\n\n<sub>Want to unsubscribe from rebase notifications on this pull request? Just convert this pull request to a \"draft\".</sub>",
      "created_at" : "2022-05-13T07:39:01Z",
      "html_url" : "https://github.com/bitcoin/bitcoin/pull/24737#issuecomment-1125749835",
      "id" : 1125749835,
      "issue_url" : "https://api.github.com/repos/bitcoin/bitcoin/issues/24737",
      "node_id" : "IC_kwDOABII585DGZRL",
      "performed_via_github_app" : null,
      "reactions" : {
         "+1" : 0,
         "-1" : 0,
         "confused" : 0,
         "eyes" : 0,
         "heart" : 0,
         "hooray" : 0,
         "laugh" : 0,
         "rocket" : 0,
         "total_count" : 0,
         "url" : "https://api.github.com/repos/bitcoin/bitcoin/issues/comments/1125749835/reactions"
      },
      "updated_at" : "2022-05-13T07:39:01Z",
      "url" : "https://api.github.com/repos/bitcoin/bitcoin/issues/comments/1125749835",
      "user" : {
         "avatar_url" : "https://avatars.githubusercontent.com/u/39886733?v=4",
         "events_url" : "https://api.github.com/users/DrahtBot/events{/privacy}",
         "followers_url" : "https://api.github.com/users/DrahtBot/followers",
         "following_url" : "https://api.github.com/users/DrahtBot/following{/other_user}",
         "gists_url" : "https://api.github.com/users/DrahtBot/gists{/gist_id}",
         "gravatar_id" : "",
         "html_url" : "https://github.com/DrahtBot",
         "id" : 39886733,
         "login" : "DrahtBot",
         "node_id" : "MDQ6VXNlcjM5ODg2NzMz",
         "organizations_url" : "https://api.github.com/users/DrahtBot/orgs",
         "received_events_url" : "https://api.github.com/users/DrahtBot/received_events",
         "repos_url" : "https://api.github.com/users/DrahtBot/repos",
         "site_admin" : false,
         "starred_url" : "https://api.github.com/users/DrahtBot/starred{/owner}{/repo}",
         "subscriptions_url" : "https://api.github.com/users/DrahtBot/subscriptions",
         "type" : "User",
         "url" : "https://api.github.com/users/DrahtBot"
      }
   },
   {
      "author_association" : "MEMBER",
      "body" : "Rebased",
      "created_at" : "2022-06-10T06:29:15Z",
      "html_url" : "https://github.com/bitcoin/bitcoin/pull/24737#issuecomment-1152007200",
      "id" : 1152007200,
      "issue_url" : "https://api.github.com/repos/bitcoin/bitcoin/issues/24737",
      "node_id" : "IC_kwDOABII585Eqjwg",
      "performed_via_github_app" : null,
      "reactions" : {
         "+1" : 0,
         "-1" : 0,
         "confused" : 0,
         "eyes" : 0,
         "heart" : 0,
         "hooray" : 0,
         "laugh" : 0,
         "rocket" : 0,
         "total_count" : 0,
         "url" : "https://api.github.com/repos/bitcoin/bitcoin/issues/comments/1152007200/reactions"
      },
      "updated_at" : "2022-06-10T06:29:15Z",
      "url" : "https://api.github.com/repos/bitcoin/bitcoin/issues/comments/1152007200",
      "user" : {
         "avatar_url" : "https://avatars.githubusercontent.com/u/6399679?v=4",
         "events_url" : "https://api.github.com/users/MarcoFalke/events{/privacy}",
         "followers_url" : "https://api.github.com/users/MarcoFalke/followers",
         "following_url" : "https://api.github.com/users/MarcoFalke/following{/other_user}",
         "gists_url" : "https://api.github.com/users/MarcoFalke/gists{/gist_id}",
         "gravatar_id" : "",
         "html_url" : "https://github.com/MarcoFalke",
         "id" : 6399679,
         "login" : "MarcoFalke",
         "node_id" : "MDQ6VXNlcjYzOTk2Nzk=",
         "organizations_url" : "https://api.github.com/users/MarcoFalke/orgs",
         "received_events_url" : "https://api.github.com/users/MarcoFalke/received_events",
         "repos_url" : "https://api.github.com/users/MarcoFalke/repos",
         "site_admin" : false,
         "starred_url" : "https://api.github.com/users/MarcoFalke/starred{/owner}{/repo}",
         "subscriptions_url" : "https://api.github.com/users/MarcoFalke/subscriptions",
         "type" : "User",
         "url" : "https://api.github.com/users/MarcoFalke"
      }
   }
]
