[
   {
      "author_association" : "CONTRIBUTOR",
      "body" : "<!--e57a25ab6845829454e8d69fc972939a-->\n\nThe following sections might be updated with supplementary metadata relevant to reviewers and maintainers.\n\n<!--174a7506f384e20aa4161008e828411d-->\n### Conflicts\nReviewers, this pull request conflicts with the following ones:\n\n* [#25591](https://github.com/bitcoin/bitcoin/pull/25591) (move-only: Version handshake to libtest_util by MarcoFalke)\n* [#25572](https://github.com/bitcoin/bitcoin/pull/25572) (refactor: Introduce EvictionManager and use it for the inbound eviction logic by dergoegge)\n* [#25555](https://github.com/bitcoin/bitcoin/pull/25555) (refactor: Move num_unconnecting_headers_msgs out of cs_main guard by MarcoFalke)\n* [#25514](https://github.com/bitcoin/bitcoin/pull/25514) (net processing: Move CNode::nServices and CNode::nLocalServices to Peer by dergoegge)\n* [#25472](https://github.com/bitcoin/bitcoin/pull/25472) (build: Increase MS Visual Studio minimum version by hebasto)\n* [#25355](https://github.com/bitcoin/bitcoin/pull/25355) (I2P: add support for transient addresses for outbound connections by vasild)\n* [#25268](https://github.com/bitcoin/bitcoin/pull/25268) (refactor: Introduce EvictionManager by dergoegge)\n* [#25203](https://github.com/bitcoin/bitcoin/pull/25203) (logging: update to severity-based logging by jonatack)\n* [#25174](https://github.com/bitcoin/bitcoin/pull/25174) (net/net_processing: Add thread safety related annotations for CNode and Peer by ajtowns)\n* [#24697](https://github.com/bitcoin/bitcoin/pull/24697) (refactor address relay time by MarcoFalke)\n* [#24571](https://github.com/bitcoin/bitcoin/pull/24571) (p2p: Prevent block index fingerprinting by sending additional getheaders messages by dergoegge)\n* [#24170](https://github.com/bitcoin/bitcoin/pull/24170) (p2p, rpc: Manual block-relay-only connections with addnode by mzumsande)\n* [#23443](https://github.com/bitcoin/bitcoin/pull/23443) (p2p: Erlay support signaling by naumenkogs)\n\nIf you consider this pull request important, please also help to review the conflicting pull requests. Ideally, start with the one that should be merged first.",
      "created_at" : "2022-06-30T19:50:44Z",
      "html_url" : "https://github.com/bitcoin/bitcoin/pull/25515#issuecomment-1171614818",
      "id" : 1171614818,
      "issue_url" : "https://api.github.com/repos/bitcoin/bitcoin/issues/25515",
      "node_id" : "IC_kwDOABII585F1Wxi",
      "performed_via_github_app" : null,
      "reactions" : {
         "+1" : 0,
         "-1" : 0,
         "confused" : 0,
         "eyes" : 0,
         "heart" : 0,
         "hooray" : 0,
         "laugh" : 0,
         "rocket" : 0,
         "total_count" : 0,
         "url" : "https://api.github.com/repos/bitcoin/bitcoin/issues/comments/1171614818/reactions"
      },
      "updated_at" : "2022-07-12T08:36:18Z",
      "url" : "https://api.github.com/repos/bitcoin/bitcoin/issues/comments/1171614818",
      "user" : {
         "avatar_url" : "https://avatars.githubusercontent.com/u/39886733?v=4",
         "events_url" : "https://api.github.com/users/DrahtBot/events{/privacy}",
         "followers_url" : "https://api.github.com/users/DrahtBot/followers",
         "following_url" : "https://api.github.com/users/DrahtBot/following{/other_user}",
         "gists_url" : "https://api.github.com/users/DrahtBot/gists{/gist_id}",
         "gravatar_id" : "",
         "html_url" : "https://github.com/DrahtBot",
         "id" : 39886733,
         "login" : "DrahtBot",
         "node_id" : "MDQ6VXNlcjM5ODg2NzMz",
         "organizations_url" : "https://api.github.com/users/DrahtBot/orgs",
         "received_events_url" : "https://api.github.com/users/DrahtBot/received_events",
         "repos_url" : "https://api.github.com/users/DrahtBot/repos",
         "site_admin" : false,
         "starred_url" : "https://api.github.com/users/DrahtBot/starred{/owner}{/repo}",
         "subscriptions_url" : "https://api.github.com/users/DrahtBot/subscriptions",
         "type" : "User",
         "url" : "https://api.github.com/users/DrahtBot"
      }
   },
   {
      "author_association" : "MEMBER",
      "body" : "Obvious concept ACK from me. This was one of the big motivators for #19398.",
      "created_at" : "2022-07-04T07:51:28Z",
      "html_url" : "https://github.com/bitcoin/bitcoin/pull/25515#issuecomment-1173474399",
      "id" : 1173474399,
      "issue_url" : "https://api.github.com/repos/bitcoin/bitcoin/issues/25515",
      "node_id" : "IC_kwDOABII585F8cxf",
      "performed_via_github_app" : null,
      "reactions" : {
         "+1" : 0,
         "-1" : 0,
         "confused" : 0,
         "eyes" : 0,
         "heart" : 0,
         "hooray" : 0,
         "laugh" : 0,
         "rocket" : 0,
         "total_count" : 0,
         "url" : "https://api.github.com/repos/bitcoin/bitcoin/issues/comments/1173474399/reactions"
      },
      "updated_at" : "2022-07-04T07:51:28Z",
      "url" : "https://api.github.com/repos/bitcoin/bitcoin/issues/comments/1173474399",
      "user" : {
         "avatar_url" : "https://avatars.githubusercontent.com/u/1063656?v=4",
         "events_url" : "https://api.github.com/users/jnewbery/events{/privacy}",
         "followers_url" : "https://api.github.com/users/jnewbery/followers",
         "following_url" : "https://api.github.com/users/jnewbery/following{/other_user}",
         "gists_url" : "https://api.github.com/users/jnewbery/gists{/gist_id}",
         "gravatar_id" : "",
         "html_url" : "https://github.com/jnewbery",
         "id" : 1063656,
         "login" : "jnewbery",
         "node_id" : "MDQ6VXNlcjEwNjM2NTY=",
         "organizations_url" : "https://api.github.com/users/jnewbery/orgs",
         "received_events_url" : "https://api.github.com/users/jnewbery/received_events",
         "repos_url" : "https://api.github.com/users/jnewbery/repos",
         "site_admin" : false,
         "starred_url" : "https://api.github.com/users/jnewbery/starred{/owner}{/repo}",
         "subscriptions_url" : "https://api.github.com/users/jnewbery/subscriptions",
         "type" : "User",
         "url" : "https://api.github.com/users/jnewbery"
      }
   },
   {
      "author_association" : "CONTRIBUTOR",
      "body" : "<!--cf906140f33d8803c4a75a2196329ecb-->\nð This pull request conflicts with the target branch and [needs rebase](https://github.com/bitcoin/bitcoin/blob/master/CONTRIBUTING.md#rebasing-changes).\n\n<sub>Want to unsubscribe from rebase notifications on this pull request? Just convert this pull request to a \"draft\".</sub>",
      "created_at" : "2022-07-04T21:06:22Z",
      "html_url" : "https://github.com/bitcoin/bitcoin/pull/25515#issuecomment-1174361336",
      "id" : 1174361336,
      "issue_url" : "https://api.github.com/repos/bitcoin/bitcoin/issues/25515",
      "node_id" : "IC_kwDOABII585F_1T4",
      "performed_via_github_app" : null,
      "reactions" : {
         "+1" : 0,
         "-1" : 0,
         "confused" : 0,
         "eyes" : 0,
         "heart" : 0,
         "hooray" : 0,
         "laugh" : 0,
         "rocket" : 0,
         "total_count" : 0,
         "url" : "https://api.github.com/repos/bitcoin/bitcoin/issues/comments/1174361336/reactions"
      },
      "updated_at" : "2022-07-04T21:06:22Z",
      "url" : "https://api.github.com/repos/bitcoin/bitcoin/issues/comments/1174361336",
      "user" : {
         "avatar_url" : "https://avatars.githubusercontent.com/u/39886733?v=4",
         "events_url" : "https://api.github.com/users/DrahtBot/events{/privacy}",
         "followers_url" : "https://api.github.com/users/DrahtBot/followers",
         "following_url" : "https://api.github.com/users/DrahtBot/following{/other_user}",
         "gists_url" : "https://api.github.com/users/DrahtBot/gists{/gist_id}",
         "gravatar_id" : "",
         "html_url" : "https://github.com/DrahtBot",
         "id" : 39886733,
         "login" : "DrahtBot",
         "node_id" : "MDQ6VXNlcjM5ODg2NzMz",
         "organizations_url" : "https://api.github.com/users/DrahtBot/orgs",
         "received_events_url" : "https://api.github.com/users/DrahtBot/received_events",
         "repos_url" : "https://api.github.com/users/DrahtBot/repos",
         "site_admin" : false,
         "starred_url" : "https://api.github.com/users/DrahtBot/starred{/owner}{/repo}",
         "subscriptions_url" : "https://api.github.com/users/DrahtBot/subscriptions",
         "type" : "User",
         "url" : "https://api.github.com/users/DrahtBot"
      }
   },
   {
      "author_association" : "MEMBER",
      "body" : "Nice, concept ACK",
      "created_at" : "2022-07-05T16:03:58Z",
      "html_url" : "https://github.com/bitcoin/bitcoin/pull/25515#issuecomment-1175229773",
      "id" : 1175229773,
      "issue_url" : "https://api.github.com/repos/bitcoin/bitcoin/issues/25515",
      "node_id" : "IC_kwDOABII585GDJVN",
      "performed_via_github_app" : null,
      "reactions" : {
         "+1" : 0,
         "-1" : 0,
         "confused" : 0,
         "eyes" : 0,
         "heart" : 0,
         "hooray" : 0,
         "laugh" : 0,
         "rocket" : 0,
         "total_count" : 0,
         "url" : "https://api.github.com/repos/bitcoin/bitcoin/issues/comments/1175229773/reactions"
      },
      "updated_at" : "2022-07-05T16:03:58Z",
      "url" : "https://api.github.com/repos/bitcoin/bitcoin/issues/comments/1175229773",
      "user" : {
         "avatar_url" : "https://avatars.githubusercontent.com/u/73197?v=4",
         "events_url" : "https://api.github.com/users/jamesob/events{/privacy}",
         "followers_url" : "https://api.github.com/users/jamesob/followers",
         "following_url" : "https://api.github.com/users/jamesob/following{/other_user}",
         "gists_url" : "https://api.github.com/users/jamesob/gists{/gist_id}",
         "gravatar_id" : "",
         "html_url" : "https://github.com/jamesob",
         "id" : 73197,
         "login" : "jamesob",
         "node_id" : "MDQ6VXNlcjczMTk3",
         "organizations_url" : "https://api.github.com/users/jamesob/orgs",
         "received_events_url" : "https://api.github.com/users/jamesob/received_events",
         "repos_url" : "https://api.github.com/users/jamesob/repos",
         "site_admin" : false,
         "starred_url" : "https://api.github.com/users/jamesob/starred{/owner}{/repo}",
         "subscriptions_url" : "https://api.github.com/users/jamesob/subscriptions",
         "type" : "User",
         "url" : "https://api.github.com/users/jamesob"
      }
   },
   {
      "author_association" : "CONTRIBUTOR",
      "body" : "<!--cf906140f33d8803c4a75a2196329ecb-->\nð This pull request conflicts with the target branch and [needs rebase](https://github.com/bitcoin/bitcoin/blob/master/CONTRIBUTING.md#rebasing-changes).\n\n<sub>Want to unsubscribe from rebase notifications on this pull request? Just convert this pull request to a \"draft\".</sub>",
      "created_at" : "2022-07-12T15:14:35Z",
      "html_url" : "https://github.com/bitcoin/bitcoin/pull/25515#issuecomment-1181888851",
      "id" : 1181888851,
      "issue_url" : "https://api.github.com/repos/bitcoin/bitcoin/issues/25515",
      "node_id" : "IC_kwDOABII585GcjFT",
      "performed_via_github_app" : null,
      "reactions" : {
         "+1" : 0,
         "-1" : 0,
         "confused" : 0,
         "eyes" : 0,
         "heart" : 0,
         "hooray" : 0,
         "laugh" : 0,
         "rocket" : 0,
         "total_count" : 0,
         "url" : "https://api.github.com/repos/bitcoin/bitcoin/issues/comments/1181888851/reactions"
      },
      "updated_at" : "2022-07-12T15:14:35Z",
      "url" : "https://api.github.com/repos/bitcoin/bitcoin/issues/comments/1181888851",
      "user" : {
         "avatar_url" : "https://avatars.githubusercontent.com/u/39886733?v=4",
         "events_url" : "https://api.github.com/users/DrahtBot/events{/privacy}",
         "followers_url" : "https://api.github.com/users/DrahtBot/followers",
         "following_url" : "https://api.github.com/users/DrahtBot/following{/other_user}",
         "gists_url" : "https://api.github.com/users/DrahtBot/gists{/gist_id}",
         "gravatar_id" : "",
         "html_url" : "https://github.com/DrahtBot",
         "id" : 39886733,
         "login" : "DrahtBot",
         "node_id" : "MDQ6VXNlcjM5ODg2NzMz",
         "organizations_url" : "https://api.github.com/users/DrahtBot/orgs",
         "received_events_url" : "https://api.github.com/users/DrahtBot/received_events",
         "repos_url" : "https://api.github.com/users/DrahtBot/repos",
         "site_admin" : false,
         "starred_url" : "https://api.github.com/users/DrahtBot/starred{/owner}{/repo}",
         "subscriptions_url" : "https://api.github.com/users/DrahtBot/subscriptions",
         "type" : "User",
         "url" : "https://api.github.com/users/DrahtBot"
      }
   },
   {
      "author_association" : "MEMBER",
      "body" : "This PR is ready for review!",
      "created_at" : "2022-07-19T12:26:57Z",
      "html_url" : "https://github.com/bitcoin/bitcoin/pull/25515#issuecomment-1188989697",
      "id" : 1188989697,
      "issue_url" : "https://api.github.com/repos/bitcoin/bitcoin/issues/25515",
      "node_id" : "IC_kwDOABII585G3osB",
      "performed_via_github_app" : null,
      "reactions" : {
         "+1" : 0,
         "-1" : 0,
         "confused" : 0,
         "eyes" : 0,
         "heart" : 0,
         "hooray" : 0,
         "laugh" : 0,
         "rocket" : 0,
         "total_count" : 0,
         "url" : "https://api.github.com/repos/bitcoin/bitcoin/issues/comments/1188989697/reactions"
      },
      "updated_at" : "2022-07-19T12:26:57Z",
      "url" : "https://api.github.com/repos/bitcoin/bitcoin/issues/comments/1188989697",
      "user" : {
         "avatar_url" : "https://avatars.githubusercontent.com/u/8077169?v=4",
         "events_url" : "https://api.github.com/users/dergoegge/events{/privacy}",
         "followers_url" : "https://api.github.com/users/dergoegge/followers",
         "following_url" : "https://api.github.com/users/dergoegge/following{/other_user}",
         "gists_url" : "https://api.github.com/users/dergoegge/gists{/gist_id}",
         "gravatar_id" : "",
         "html_url" : "https://github.com/dergoegge",
         "id" : 8077169,
         "login" : "dergoegge",
         "node_id" : "MDQ6VXNlcjgwNzcxNjk=",
         "organizations_url" : "https://api.github.com/users/dergoegge/orgs",
         "received_events_url" : "https://api.github.com/users/dergoegge/received_events",
         "repos_url" : "https://api.github.com/users/dergoegge/repos",
         "site_admin" : false,
         "starred_url" : "https://api.github.com/users/dergoegge/starred{/owner}{/repo}",
         "subscriptions_url" : "https://api.github.com/users/dergoegge/subscriptions",
         "type" : "User",
         "url" : "https://api.github.com/users/dergoegge"
      }
   }
]
