[
   {
      "_links" : {
         "html" : {
            "href" : "https://github.com/bitcoin/bitcoin/pull/25523#discussion_r911922438"
         },
         "pull_request" : {
            "href" : "https://api.github.com/repos/bitcoin/bitcoin/pulls/25523"
         },
         "self" : {
            "href" : "https://api.github.com/repos/bitcoin/bitcoin/pulls/comments/911922438"
         }
      },
      "author_association" : "MEMBER",
      "body" : "`libtool` package has `libtoolize` binary:\r\n```suggestion\r\nassert_deps aclocal autoreconf libtoolize pkg-config\r\n```\r\n\r\nBut message _\"configuration failed, please install libtoolize first\"_ still useless.",
      "commit_id" : "0da7f23da7229ddefc23719f89194e877fd9df55",
      "created_at" : "2022-07-01T12:34:15Z",
      "diff_hunk" : "@@ -3,14 +3,24 @@\n # Distributed under the MIT software license, see the accompanying\n # file COPYING or http://www.opensource.org/licenses/mit-license.php.\n \n-export LC_ALL=C\n set -e\n+\n+assert_deps() {\n+  for dep; do\n+    if ! command -v $dep > /dev/null; then\n+      echo \"configuration failed, please install $dep first\"\n+      return 1\n+    fi\n+  done\n+}\n+\n+assert_deps aclocal autoreconf libtool pkg-config",
      "html_url" : "https://github.com/bitcoin/bitcoin/pull/25523#discussion_r911922438",
      "id" : 911922438,
      "line" : null,
      "node_id" : "PRRC_kwDOABII5842WtUG",
      "original_commit_id" : "6f611ebfe81a6f1d80ecb1858e7c0571fa69e678",
      "original_line" : 17,
      "original_position" : 16,
      "original_start_line" : null,
      "path" : "autogen.sh",
      "position" : null,
      "pull_request_review_id" : 1026159238,
      "pull_request_url" : "https://api.github.com/repos/bitcoin/bitcoin/pulls/25523",
      "reactions" : {
         "+1" : 0,
         "-1" : 0,
         "confused" : 0,
         "eyes" : 0,
         "heart" : 0,
         "hooray" : 0,
         "laugh" : 0,
         "rocket" : 0,
         "total_count" : 0,
         "url" : "https://api.github.com/repos/bitcoin/bitcoin/pulls/comments/911922438/reactions"
      },
      "side" : "RIGHT",
      "start_line" : null,
      "start_side" : null,
      "updated_at" : "2022-07-01T12:35:56Z",
      "url" : "https://api.github.com/repos/bitcoin/bitcoin/pulls/comments/911922438",
      "user" : {
         "avatar_url" : "https://avatars.githubusercontent.com/u/32963518?v=4",
         "events_url" : "https://api.github.com/users/hebasto/events{/privacy}",
         "followers_url" : "https://api.github.com/users/hebasto/followers",
         "following_url" : "https://api.github.com/users/hebasto/following{/other_user}",
         "gists_url" : "https://api.github.com/users/hebasto/gists{/gist_id}",
         "gravatar_id" : "",
         "html_url" : "https://github.com/hebasto",
         "id" : 32963518,
         "login" : "hebasto",
         "node_id" : "MDQ6VXNlcjMyOTYzNTE4",
         "organizations_url" : "https://api.github.com/users/hebasto/orgs",
         "received_events_url" : "https://api.github.com/users/hebasto/received_events",
         "repos_url" : "https://api.github.com/users/hebasto/repos",
         "site_admin" : false,
         "starred_url" : "https://api.github.com/users/hebasto/starred{/owner}{/repo}",
         "subscriptions_url" : "https://api.github.com/users/hebasto/subscriptions",
         "type" : "User",
         "url" : "https://api.github.com/users/hebasto"
      }
   },
   {
      "_links" : {
         "html" : {
            "href" : "https://github.com/bitcoin/bitcoin/pull/25523#discussion_r911933054"
         },
         "pull_request" : {
            "href" : "https://api.github.com/repos/bitcoin/bitcoin/pulls/25523"
         },
         "self" : {
            "href" : "https://api.github.com/repos/bitcoin/bitcoin/pulls/comments/911933054"
         }
      },
      "author_association" : "CONTRIBUTOR",
      "body" : "@hebasto yep, it seems like `libtool` binary is not always present so it can't be used. It's present in Arch `libtool` but it's not provided by Debian\r\n\r\nWithout this check, it looks like this:\r\n\r\n```\r\nCan't exec \"libtoolize\": No such file or directory at /usr/share/autoconf/Autom4te/FileUtils.pm line 293.\r\nautoreconf: error: libtoolize failed with exit status: 2\r\n```\r\n\r\nSo maybe it would still look a bit cleaner",
      "commit_id" : "0da7f23da7229ddefc23719f89194e877fd9df55",
      "created_at" : "2022-07-01T12:49:05Z",
      "diff_hunk" : "@@ -3,14 +3,24 @@\n # Distributed under the MIT software license, see the accompanying\n # file COPYING or http://www.opensource.org/licenses/mit-license.php.\n \n-export LC_ALL=C\n set -e\n+\n+assert_deps() {\n+  for dep; do\n+    if ! command -v $dep > /dev/null; then\n+      echo \"configuration failed, please install $dep first\"\n+      return 1\n+    fi\n+  done\n+}\n+\n+assert_deps aclocal autoreconf libtool pkg-config",
      "html_url" : "https://github.com/bitcoin/bitcoin/pull/25523#discussion_r911933054",
      "id" : 911933054,
      "in_reply_to_id" : 911922438,
      "line" : null,
      "node_id" : "PRRC_kwDOABII5842Wv5-",
      "original_commit_id" : "6f611ebfe81a6f1d80ecb1858e7c0571fa69e678",
      "original_line" : 17,
      "original_position" : 16,
      "original_start_line" : null,
      "path" : "autogen.sh",
      "position" : null,
      "pull_request_review_id" : 1026175275,
      "pull_request_url" : "https://api.github.com/repos/bitcoin/bitcoin/pulls/25523",
      "reactions" : {
         "+1" : 0,
         "-1" : 0,
         "confused" : 0,
         "eyes" : 0,
         "heart" : 0,
         "hooray" : 0,
         "laugh" : 0,
         "rocket" : 0,
         "total_count" : 0,
         "url" : "https://api.github.com/repos/bitcoin/bitcoin/pulls/comments/911933054/reactions"
      },
      "side" : "RIGHT",
      "start_line" : null,
      "start_side" : null,
      "updated_at" : "2022-07-01T12:49:06Z",
      "url" : "https://api.github.com/repos/bitcoin/bitcoin/pulls/comments/911933054",
      "user" : {
         "avatar_url" : "https://avatars.githubusercontent.com/u/1189245?v=4",
         "events_url" : "https://api.github.com/users/bubelov/events{/privacy}",
         "followers_url" : "https://api.github.com/users/bubelov/followers",
         "following_url" : "https://api.github.com/users/bubelov/following{/other_user}",
         "gists_url" : "https://api.github.com/users/bubelov/gists{/gist_id}",
         "gravatar_id" : "",
         "html_url" : "https://github.com/bubelov",
         "id" : 1189245,
         "login" : "bubelov",
         "node_id" : "MDQ6VXNlcjExODkyNDU=",
         "organizations_url" : "https://api.github.com/users/bubelov/orgs",
         "received_events_url" : "https://api.github.com/users/bubelov/received_events",
         "repos_url" : "https://api.github.com/users/bubelov/repos",
         "site_admin" : false,
         "starred_url" : "https://api.github.com/users/bubelov/starred{/owner}{/repo}",
         "subscriptions_url" : "https://api.github.com/users/bubelov/subscriptions",
         "type" : "User",
         "url" : "https://api.github.com/users/bubelov"
      }
   },
   {
      "author_association" : "CONTRIBUTOR",
      "body" : "@jarolrod done",
      "created_at" : "2022-07-27T03:58:47Z",
      "html_url" : "https://github.com/bitcoin/bitcoin/pull/25523#issuecomment-1196238212",
      "id" : 1196238212,
      "issue_url" : "https://api.github.com/repos/bitcoin/bitcoin/issues/25523",
      "node_id" : "IC_kwDOABII585HTSWE",
      "performed_via_github_app" : null,
      "reactions" : {
         "+1" : 0,
         "-1" : 0,
         "confused" : 0,
         "eyes" : 0,
         "heart" : 0,
         "hooray" : 0,
         "laugh" : 0,
         "rocket" : 0,
         "total_count" : 0,
         "url" : "https://api.github.com/repos/bitcoin/bitcoin/issues/comments/1196238212/reactions"
      },
      "updated_at" : "2022-07-27T03:58:47Z",
      "url" : "https://api.github.com/repos/bitcoin/bitcoin/issues/comments/1196238212",
      "user" : {
         "avatar_url" : "https://avatars.githubusercontent.com/u/1189245?v=4",
         "events_url" : "https://api.github.com/users/bubelov/events{/privacy}",
         "followers_url" : "https://api.github.com/users/bubelov/followers",
         "following_url" : "https://api.github.com/users/bubelov/following{/other_user}",
         "gists_url" : "https://api.github.com/users/bubelov/gists{/gist_id}",
         "gravatar_id" : "",
         "html_url" : "https://github.com/bubelov",
         "id" : 1189245,
         "login" : "bubelov",
         "node_id" : "MDQ6VXNlcjExODkyNDU=",
         "organizations_url" : "https://api.github.com/users/bubelov/orgs",
         "received_events_url" : "https://api.github.com/users/bubelov/received_events",
         "repos_url" : "https://api.github.com/users/bubelov/repos",
         "site_admin" : false,
         "starred_url" : "https://api.github.com/users/bubelov/starred{/owner}{/repo}",
         "subscriptions_url" : "https://api.github.com/users/bubelov/subscriptions",
         "type" : "User",
         "url" : "https://api.github.com/users/bubelov"
      }
   },
   {
      "author_association" : "MEMBER",
      "body" : "This PR doesn't currently work, because libtoolize is glibtoolize on macOS. Overall I think this change is ~0.",
      "created_at" : "2022-08-01T10:29:26Z",
      "html_url" : "https://github.com/bitcoin/bitcoin/pull/25523#issuecomment-1201016901",
      "id" : 1201016901,
      "issue_url" : "https://api.github.com/repos/bitcoin/bitcoin/issues/25523",
      "node_id" : "IC_kwDOABII585HlhBF",
      "performed_via_github_app" : null,
      "reactions" : {
         "+1" : 0,
         "-1" : 0,
         "confused" : 0,
         "eyes" : 0,
         "heart" : 0,
         "hooray" : 0,
         "laugh" : 0,
         "rocket" : 0,
         "total_count" : 0,
         "url" : "https://api.github.com/repos/bitcoin/bitcoin/issues/comments/1201016901/reactions"
      },
      "updated_at" : "2022-08-01T10:29:26Z",
      "url" : "https://api.github.com/repos/bitcoin/bitcoin/issues/comments/1201016901",
      "user" : {
         "avatar_url" : "https://avatars.githubusercontent.com/u/863730?v=4",
         "events_url" : "https://api.github.com/users/fanquake/events{/privacy}",
         "followers_url" : "https://api.github.com/users/fanquake/followers",
         "following_url" : "https://api.github.com/users/fanquake/following{/other_user}",
         "gists_url" : "https://api.github.com/users/fanquake/gists{/gist_id}",
         "gravatar_id" : "",
         "html_url" : "https://github.com/fanquake",
         "id" : 863730,
         "login" : "fanquake",
         "node_id" : "MDQ6VXNlcjg2MzczMA==",
         "organizations_url" : "https://api.github.com/users/fanquake/orgs",
         "received_events_url" : "https://api.github.com/users/fanquake/received_events",
         "repos_url" : "https://api.github.com/users/fanquake/repos",
         "site_admin" : false,
         "starred_url" : "https://api.github.com/users/fanquake/starred{/owner}{/repo}",
         "subscriptions_url" : "https://api.github.com/users/fanquake/subscriptions",
         "type" : "User",
         "url" : "https://api.github.com/users/fanquake"
      }
   },
   {
      "author_association" : "CONTRIBUTOR",
      "body" : "@fanquake thanks for the tip, I fixed that. Although I agree that this change is minor, I believe it's a net positive for the following reasons:\r\n\r\n- The current version of this script already checks for certain deps, namely `autoreconf`, and it fails early in case it's missing. Adding other deps or removing this check would make this script more consistent\r\n- Failing early is usually a good practice, it saves time and de-clutters output\r\n- Every missing dep currently causes inconsistent and cryptic output. Showing the same error template with clear and actionable message is especially helpful for people who aren't familiar with building C/C++ software and for people who used other build systems\r\n- It's tempting to assume that those packages are always present or that everyone knows about them, but it's not always the case. For instance, many cloud and container images are intentionally minimized, so the situation when some crucial deps are missing isn't that uncommon\r\n- Listing all the deps explicitly improves visibility, it makes it easier to understand what Bitcoin Core relies on at every point in the build pipeline ",
      "created_at" : "2022-08-02T06:11:31Z",
      "html_url" : "https://github.com/bitcoin/bitcoin/pull/25523#issuecomment-1202059999",
      "id" : 1202059999,
      "issue_url" : "https://api.github.com/repos/bitcoin/bitcoin/issues/25523",
      "node_id" : "IC_kwDOABII585Hpfrf",
      "performed_via_github_app" : null,
      "reactions" : {
         "+1" : 0,
         "-1" : 0,
         "confused" : 0,
         "eyes" : 0,
         "heart" : 0,
         "hooray" : 0,
         "laugh" : 0,
         "rocket" : 0,
         "total_count" : 0,
         "url" : "https://api.github.com/repos/bitcoin/bitcoin/issues/comments/1202059999/reactions"
      },
      "updated_at" : "2022-08-02T06:11:31Z",
      "url" : "https://api.github.com/repos/bitcoin/bitcoin/issues/comments/1202059999",
      "user" : {
         "avatar_url" : "https://avatars.githubusercontent.com/u/1189245?v=4",
         "events_url" : "https://api.github.com/users/bubelov/events{/privacy}",
         "followers_url" : "https://api.github.com/users/bubelov/followers",
         "following_url" : "https://api.github.com/users/bubelov/following{/other_user}",
         "gists_url" : "https://api.github.com/users/bubelov/gists{/gist_id}",
         "gravatar_id" : "",
         "html_url" : "https://github.com/bubelov",
         "id" : 1189245,
         "login" : "bubelov",
         "node_id" : "MDQ6VXNlcjExODkyNDU=",
         "organizations_url" : "https://api.github.com/users/bubelov/orgs",
         "received_events_url" : "https://api.github.com/users/bubelov/received_events",
         "repos_url" : "https://api.github.com/users/bubelov/repos",
         "site_admin" : false,
         "starred_url" : "https://api.github.com/users/bubelov/starred{/owner}{/repo}",
         "subscriptions_url" : "https://api.github.com/users/bubelov/subscriptions",
         "type" : "User",
         "url" : "https://api.github.com/users/bubelov"
      }
   }
]
