[
   {
      "author_association" : "MEMBER",
      "body" : "Concept ACK\r\n\r\n`ReplaceAll()` is currently used for handling `-blocknotify`, `-walletnotify`,`-alertnotify` and escaping slashes in `-torpassword`.\r\n",
      "created_at" : "2022-08-08T16:42:43Z",
      "html_url" : "https://github.com/bitcoin/bitcoin/pull/25803#issuecomment-1208358701",
      "id" : 1208358701,
      "issue_url" : "https://api.github.com/repos/bitcoin/bitcoin/issues/25803",
      "node_id" : "IC_kwDOABII585IBhct",
      "performed_via_github_app" : null,
      "reactions" : {
         "+1" : 0,
         "-1" : 0,
         "confused" : 0,
         "eyes" : 0,
         "heart" : 0,
         "hooray" : 0,
         "laugh" : 0,
         "rocket" : 0,
         "total_count" : 0,
         "url" : "https://api.github.com/repos/bitcoin/bitcoin/issues/comments/1208358701/reactions"
      },
      "updated_at" : "2022-08-08T16:42:58Z",
      "url" : "https://api.github.com/repos/bitcoin/bitcoin/issues/comments/1208358701",
      "user" : {
         "avatar_url" : "https://avatars.githubusercontent.com/u/10217?v=4",
         "events_url" : "https://api.github.com/users/Sjors/events{/privacy}",
         "followers_url" : "https://api.github.com/users/Sjors/followers",
         "following_url" : "https://api.github.com/users/Sjors/following{/other_user}",
         "gists_url" : "https://api.github.com/users/Sjors/gists{/gist_id}",
         "gravatar_id" : "",
         "html_url" : "https://github.com/Sjors",
         "id" : 10217,
         "login" : "Sjors",
         "node_id" : "MDQ6VXNlcjEwMjE3",
         "organizations_url" : "https://api.github.com/users/Sjors/orgs",
         "received_events_url" : "https://api.github.com/users/Sjors/received_events",
         "repos_url" : "https://api.github.com/users/Sjors/repos",
         "site_admin" : false,
         "starred_url" : "https://api.github.com/users/Sjors/starred{/owner}{/repo}",
         "subscriptions_url" : "https://api.github.com/users/Sjors/subscriptions",
         "type" : "User",
         "url" : "https://api.github.com/users/Sjors"
      }
   },
   {
      "author_association" : "MEMBER",
      "body" : "What do we gain from this?",
      "created_at" : "2022-08-10T01:59:19Z",
      "html_url" : "https://github.com/bitcoin/bitcoin/pull/25803#issuecomment-1210063826",
      "id" : 1210063826,
      "issue_url" : "https://api.github.com/repos/bitcoin/bitcoin/issues/25803",
      "node_id" : "IC_kwDOABII585IIBvS",
      "performed_via_github_app" : null,
      "reactions" : {
         "+1" : 0,
         "-1" : 0,
         "confused" : 0,
         "eyes" : 0,
         "heart" : 0,
         "hooray" : 0,
         "laugh" : 0,
         "rocket" : 0,
         "total_count" : 0,
         "url" : "https://api.github.com/repos/bitcoin/bitcoin/issues/comments/1210063826/reactions"
      },
      "updated_at" : "2022-08-10T01:59:19Z",
      "url" : "https://api.github.com/repos/bitcoin/bitcoin/issues/comments/1210063826",
      "user" : {
         "avatar_url" : "https://avatars.githubusercontent.com/u/1095675?v=4",
         "events_url" : "https://api.github.com/users/luke-jr/events{/privacy}",
         "followers_url" : "https://api.github.com/users/luke-jr/followers",
         "following_url" : "https://api.github.com/users/luke-jr/following{/other_user}",
         "gists_url" : "https://api.github.com/users/luke-jr/gists{/gist_id}",
         "gravatar_id" : "",
         "html_url" : "https://github.com/luke-jr",
         "id" : 1095675,
         "login" : "luke-jr",
         "node_id" : "MDQ6VXNlcjEwOTU2NzU=",
         "organizations_url" : "https://api.github.com/users/luke-jr/orgs",
         "received_events_url" : "https://api.github.com/users/luke-jr/received_events",
         "repos_url" : "https://api.github.com/users/luke-jr/repos",
         "site_admin" : false,
         "starred_url" : "https://api.github.com/users/luke-jr/starred{/owner}{/repo}",
         "subscriptions_url" : "https://api.github.com/users/luke-jr/subscriptions",
         "type" : "User",
         "url" : "https://api.github.com/users/luke-jr"
      }
   },
   {
      "author_association" : "MEMBER",
      "body" : "@luke-jr \r\n> What do we gain from this?\r\n\r\nAs the title said:\r\n> Drop boost/algorithm/string/replace.hpp dependency",
      "created_at" : "2022-08-10T08:06:48Z",
      "html_url" : "https://github.com/bitcoin/bitcoin/pull/25803#issuecomment-1210312581",
      "id" : 1210312581,
      "issue_url" : "https://api.github.com/repos/bitcoin/bitcoin/issues/25803",
      "node_id" : "IC_kwDOABII585II-eF",
      "performed_via_github_app" : null,
      "reactions" : {
         "+1" : 0,
         "-1" : 0,
         "confused" : 0,
         "eyes" : 0,
         "heart" : 0,
         "hooray" : 0,
         "laugh" : 0,
         "rocket" : 0,
         "total_count" : 0,
         "url" : "https://api.github.com/repos/bitcoin/bitcoin/issues/comments/1210312581/reactions"
      },
      "updated_at" : "2022-08-10T08:06:48Z",
      "url" : "https://api.github.com/repos/bitcoin/bitcoin/issues/comments/1210312581",
      "user" : {
         "avatar_url" : "https://avatars.githubusercontent.com/u/32963518?v=4",
         "events_url" : "https://api.github.com/users/hebasto/events{/privacy}",
         "followers_url" : "https://api.github.com/users/hebasto/followers",
         "following_url" : "https://api.github.com/users/hebasto/following{/other_user}",
         "gists_url" : "https://api.github.com/users/hebasto/gists{/gist_id}",
         "gravatar_id" : "",
         "html_url" : "https://github.com/hebasto",
         "id" : 32963518,
         "login" : "hebasto",
         "node_id" : "MDQ6VXNlcjMyOTYzNTE4",
         "organizations_url" : "https://api.github.com/users/hebasto/orgs",
         "received_events_url" : "https://api.github.com/users/hebasto/received_events",
         "repos_url" : "https://api.github.com/users/hebasto/repos",
         "site_admin" : false,
         "starred_url" : "https://api.github.com/users/hebasto/starred{/owner}{/repo}",
         "subscriptions_url" : "https://api.github.com/users/hebasto/subscriptions",
         "type" : "User",
         "url" : "https://api.github.com/users/hebasto"
      }
   },
   {
      "author_association" : "MEMBER",
      "body" : "Alternatively: reducing the number of Boost includes by 10% :-)",
      "created_at" : "2022-08-10T08:35:27Z",
      "html_url" : "https://github.com/bitcoin/bitcoin/pull/25803#issuecomment-1210345267",
      "id" : 1210345267,
      "issue_url" : "https://api.github.com/repos/bitcoin/bitcoin/issues/25803",
      "node_id" : "IC_kwDOABII585IJGcz",
      "performed_via_github_app" : null,
      "reactions" : {
         "+1" : 0,
         "-1" : 0,
         "confused" : 0,
         "eyes" : 0,
         "heart" : 0,
         "hooray" : 0,
         "laugh" : 1,
         "rocket" : 0,
         "total_count" : 1,
         "url" : "https://api.github.com/repos/bitcoin/bitcoin/issues/comments/1210345267/reactions"
      },
      "updated_at" : "2022-08-10T08:35:27Z",
      "url" : "https://api.github.com/repos/bitcoin/bitcoin/issues/comments/1210345267",
      "user" : {
         "avatar_url" : "https://avatars.githubusercontent.com/u/10217?v=4",
         "events_url" : "https://api.github.com/users/Sjors/events{/privacy}",
         "followers_url" : "https://api.github.com/users/Sjors/followers",
         "following_url" : "https://api.github.com/users/Sjors/following{/other_user}",
         "gists_url" : "https://api.github.com/users/Sjors/gists{/gist_id}",
         "gravatar_id" : "",
         "html_url" : "https://github.com/Sjors",
         "id" : 10217,
         "login" : "Sjors",
         "node_id" : "MDQ6VXNlcjEwMjE3",
         "organizations_url" : "https://api.github.com/users/Sjors/orgs",
         "received_events_url" : "https://api.github.com/users/Sjors/received_events",
         "repos_url" : "https://api.github.com/users/Sjors/repos",
         "site_admin" : false,
         "starred_url" : "https://api.github.com/users/Sjors/starred{/owner}{/repo}",
         "subscriptions_url" : "https://api.github.com/users/Sjors/subscriptions",
         "type" : "User",
         "url" : "https://api.github.com/users/Sjors"
      }
   },
   {
      "author_association" : "MEMBER",
      "body" : "ACK\r\n\r\n> What do we gain from this?\r\n\r\nUsing the standard library over a third party dependency.",
      "created_at" : "2022-08-10T11:07:06Z",
      "html_url" : "https://github.com/bitcoin/bitcoin/pull/25803#issuecomment-1210521070",
      "id" : 1210521070,
      "issue_url" : "https://api.github.com/repos/bitcoin/bitcoin/issues/25803",
      "node_id" : "IC_kwDOABII585IJxXu",
      "performed_via_github_app" : null,
      "reactions" : {
         "+1" : 0,
         "-1" : 0,
         "confused" : 0,
         "eyes" : 0,
         "heart" : 0,
         "hooray" : 0,
         "laugh" : 0,
         "rocket" : 0,
         "total_count" : 0,
         "url" : "https://api.github.com/repos/bitcoin/bitcoin/issues/comments/1210521070/reactions"
      },
      "updated_at" : "2022-08-10T11:07:06Z",
      "url" : "https://api.github.com/repos/bitcoin/bitcoin/issues/comments/1210521070",
      "user" : {
         "avatar_url" : "https://avatars.githubusercontent.com/u/863730?v=4",
         "events_url" : "https://api.github.com/users/fanquake/events{/privacy}",
         "followers_url" : "https://api.github.com/users/fanquake/followers",
         "following_url" : "https://api.github.com/users/fanquake/following{/other_user}",
         "gists_url" : "https://api.github.com/users/fanquake/gists{/gist_id}",
         "gravatar_id" : "",
         "html_url" : "https://github.com/fanquake",
         "id" : 863730,
         "login" : "fanquake",
         "node_id" : "MDQ6VXNlcjg2MzczMA==",
         "organizations_url" : "https://api.github.com/users/fanquake/orgs",
         "received_events_url" : "https://api.github.com/users/fanquake/received_events",
         "repos_url" : "https://api.github.com/users/fanquake/repos",
         "site_admin" : false,
         "starred_url" : "https://api.github.com/users/fanquake/starred{/owner}{/repo}",
         "subscriptions_url" : "https://api.github.com/users/fanquake/subscriptions",
         "type" : "User",
         "url" : "https://api.github.com/users/fanquake"
      }
   },
   {
      "author_association" : "NONE",
      "body" : "ACK Tested fea75ad3caa29972db32d3ce7e0fe125ec77a0eb\r\n\r\nThis is anecdotal, but on an M1 MacBook Pro 14\" 2021 (8 core CPU) there is a slight performance boost (no pun intended ð)\r\n\r\nOn `master`\r\nmake check  289.85s user 24.91s system 55% cpu 9:24.87 total\r\n\r\nOn fea75ad3caa29972db32d3ce7e0fe125ec77a0eb\r\nmake check  276.10s user 22.31s system 48% cpu 10:11.89 total",
      "created_at" : "2022-08-10T17:43:28Z",
      "html_url" : "https://github.com/bitcoin/bitcoin/pull/25803#issuecomment-1211044184",
      "id" : 1211044184,
      "issue_url" : "https://api.github.com/repos/bitcoin/bitcoin/issues/25803",
      "node_id" : "IC_kwDOABII585ILxFY",
      "performed_via_github_app" : null,
      "reactions" : {
         "+1" : 0,
         "-1" : 0,
         "confused" : 0,
         "eyes" : 0,
         "heart" : 1,
         "hooray" : 0,
         "laugh" : 0,
         "rocket" : 0,
         "total_count" : 1,
         "url" : "https://api.github.com/repos/bitcoin/bitcoin/issues/comments/1211044184/reactions"
      },
      "updated_at" : "2022-08-10T17:43:49Z",
      "url" : "https://api.github.com/repos/bitcoin/bitcoin/issues/comments/1211044184",
      "user" : {
         "avatar_url" : "https://avatars.githubusercontent.com/u/749118?v=4",
         "events_url" : "https://api.github.com/users/adam2k/events{/privacy}",
         "followers_url" : "https://api.github.com/users/adam2k/followers",
         "following_url" : "https://api.github.com/users/adam2k/following{/other_user}",
         "gists_url" : "https://api.github.com/users/adam2k/gists{/gist_id}",
         "gravatar_id" : "",
         "html_url" : "https://github.com/adam2k",
         "id" : 749118,
         "login" : "adam2k",
         "node_id" : "MDQ6VXNlcjc0OTExOA==",
         "organizations_url" : "https://api.github.com/users/adam2k/orgs",
         "received_events_url" : "https://api.github.com/users/adam2k/received_events",
         "repos_url" : "https://api.github.com/users/adam2k/repos",
         "site_admin" : false,
         "starred_url" : "https://api.github.com/users/adam2k/starred{/owner}{/repo}",
         "subscriptions_url" : "https://api.github.com/users/adam2k/subscriptions",
         "type" : "User",
         "url" : "https://api.github.com/users/adam2k"
      }
   },
   {
      "author_association" : "MEMBER",
      "body" : "Not that it matters for our use cases, but I'd suspect that regex is slower than string-replace in a microbench.",
      "created_at" : "2022-08-10T17:56:40Z",
      "html_url" : "https://github.com/bitcoin/bitcoin/pull/25803#issuecomment-1211064028",
      "id" : 1211064028,
      "issue_url" : "https://api.github.com/repos/bitcoin/bitcoin/issues/25803",
      "node_id" : "IC_kwDOABII585IL17c",
      "performed_via_github_app" : null,
      "reactions" : {
         "+1" : 0,
         "-1" : 0,
         "confused" : 0,
         "eyes" : 0,
         "heart" : 0,
         "hooray" : 0,
         "laugh" : 0,
         "rocket" : 0,
         "total_count" : 0,
         "url" : "https://api.github.com/repos/bitcoin/bitcoin/issues/comments/1211064028/reactions"
      },
      "updated_at" : "2022-08-10T17:56:40Z",
      "url" : "https://api.github.com/repos/bitcoin/bitcoin/issues/comments/1211064028",
      "user" : {
         "avatar_url" : "https://avatars.githubusercontent.com/u/6399679?v=4",
         "events_url" : "https://api.github.com/users/MarcoFalke/events{/privacy}",
         "followers_url" : "https://api.github.com/users/MarcoFalke/followers",
         "following_url" : "https://api.github.com/users/MarcoFalke/following{/other_user}",
         "gists_url" : "https://api.github.com/users/MarcoFalke/gists{/gist_id}",
         "gravatar_id" : "",
         "html_url" : "https://github.com/MarcoFalke",
         "id" : 6399679,
         "login" : "MarcoFalke",
         "node_id" : "MDQ6VXNlcjYzOTk2Nzk=",
         "organizations_url" : "https://api.github.com/users/MarcoFalke/orgs",
         "received_events_url" : "https://api.github.com/users/MarcoFalke/received_events",
         "repos_url" : "https://api.github.com/users/MarcoFalke/repos",
         "site_admin" : false,
         "starred_url" : "https://api.github.com/users/MarcoFalke/starred{/owner}{/repo}",
         "subscriptions_url" : "https://api.github.com/users/MarcoFalke/subscriptions",
         "type" : "User",
         "url" : "https://api.github.com/users/MarcoFalke"
      }
   },
   {
      "author_association" : "CONTRIBUTOR",
      "body" : "Concept ACK on getting rid of external dependency.",
      "created_at" : "2022-08-15T21:33:15Z",
      "html_url" : "https://github.com/bitcoin/bitcoin/pull/25803#issuecomment-1215873246",
      "id" : 1215873246,
      "issue_url" : "https://api.github.com/repos/bitcoin/bitcoin/issues/25803",
      "node_id" : "IC_kwDOABII585IeMDe",
      "performed_via_github_app" : null,
      "reactions" : {
         "+1" : 0,
         "-1" : 0,
         "confused" : 0,
         "eyes" : 0,
         "heart" : 0,
         "hooray" : 0,
         "laugh" : 0,
         "rocket" : 0,
         "total_count" : 0,
         "url" : "https://api.github.com/repos/bitcoin/bitcoin/issues/comments/1215873246/reactions"
      },
      "updated_at" : "2022-08-15T21:33:15Z",
      "url" : "https://api.github.com/repos/bitcoin/bitcoin/issues/comments/1215873246",
      "user" : {
         "avatar_url" : "https://avatars.githubusercontent.com/u/4500994?v=4",
         "events_url" : "https://api.github.com/users/kristapsk/events{/privacy}",
         "followers_url" : "https://api.github.com/users/kristapsk/followers",
         "following_url" : "https://api.github.com/users/kristapsk/following{/other_user}",
         "gists_url" : "https://api.github.com/users/kristapsk/gists{/gist_id}",
         "gravatar_id" : "",
         "html_url" : "https://github.com/kristapsk",
         "id" : 4500994,
         "login" : "kristapsk",
         "node_id" : "MDQ6VXNlcjQ1MDA5OTQ=",
         "organizations_url" : "https://api.github.com/users/kristapsk/orgs",
         "received_events_url" : "https://api.github.com/users/kristapsk/received_events",
         "repos_url" : "https://api.github.com/users/kristapsk/repos",
         "site_admin" : false,
         "starred_url" : "https://api.github.com/users/kristapsk/starred{/owner}{/repo}",
         "subscriptions_url" : "https://api.github.com/users/kristapsk/subscriptions",
         "type" : "User",
         "url" : "https://api.github.com/users/kristapsk"
      }
   },
   {
      "author_association" : "MEMBER",
      "body" : "The only thing worse than a dependency, is a bundled reimplementation. Especially if the implementation is worse.",
      "created_at" : "2022-08-15T23:26:48Z",
      "html_url" : "https://github.com/bitcoin/bitcoin/pull/25803#issuecomment-1215979688",
      "id" : 1215979688,
      "issue_url" : "https://api.github.com/repos/bitcoin/bitcoin/issues/25803",
      "node_id" : "IC_kwDOABII585IemCo",
      "performed_via_github_app" : null,
      "reactions" : {
         "+1" : 0,
         "-1" : 0,
         "confused" : 0,
         "eyes" : 0,
         "heart" : 0,
         "hooray" : 0,
         "laugh" : 0,
         "rocket" : 0,
         "total_count" : 0,
         "url" : "https://api.github.com/repos/bitcoin/bitcoin/issues/comments/1215979688/reactions"
      },
      "updated_at" : "2022-08-15T23:26:48Z",
      "url" : "https://api.github.com/repos/bitcoin/bitcoin/issues/comments/1215979688",
      "user" : {
         "avatar_url" : "https://avatars.githubusercontent.com/u/1095675?v=4",
         "events_url" : "https://api.github.com/users/luke-jr/events{/privacy}",
         "followers_url" : "https://api.github.com/users/luke-jr/followers",
         "following_url" : "https://api.github.com/users/luke-jr/following{/other_user}",
         "gists_url" : "https://api.github.com/users/luke-jr/gists{/gist_id}",
         "gravatar_id" : "",
         "html_url" : "https://github.com/luke-jr",
         "id" : 1095675,
         "login" : "luke-jr",
         "node_id" : "MDQ6VXNlcjEwOTU2NzU=",
         "organizations_url" : "https://api.github.com/users/luke-jr/orgs",
         "received_events_url" : "https://api.github.com/users/luke-jr/received_events",
         "repos_url" : "https://api.github.com/users/luke-jr/repos",
         "site_admin" : false,
         "starred_url" : "https://api.github.com/users/luke-jr/starred{/owner}{/repo}",
         "subscriptions_url" : "https://api.github.com/users/luke-jr/subscriptions",
         "type" : "User",
         "url" : "https://api.github.com/users/luke-jr"
      }
   }
]
