{
   "active_lock_reason" : null,
   "assignee" : null,
   "assignees" : [],
   "author_association" : "MEMBER",
   "body" : "When building in c++20 mode using libc++, the following warning is emitted:\r\n```bash\r\n./fs.h:72:29: warning: 'u8path<std::string>' is deprecated [-Wdeprecated-declarations]\r\n    return std::filesystem::u8path(utf8_str);\r\n                            ^\r\n/usr/lib/llvm-14/bin/../include/c++/v1/__filesystem/u8path.h:72:27: note: 'u8path<std::string>' has been explicitly marked deprecated here\r\n_LIBCPP_INLINE_VISIBILITY _LIBCPP_DEPRECATED_WITH_CHAR8_T\r\n                          ^\r\n/usr/lib/llvm-14/bin/../include/c++/v1/__config:1042:43: note: expanded from macro '_LIBCPP_DEPRECATED_WITH_CHAR8_T'\r\n                                          ^\r\n/usr/lib/llvm-14/bin/../include/c++/v1/__config:1007:48: note: expanded from macro '_LIBCPP_DEPRECATED'\r\n                                               ^\r\n1 warning generated.\r\n```\r\n\r\nas [`u8path<std::string>`](https://en.cppreference.com/w/cpp/filesystem/path/u8path) is deprecated starting with C++20.\r\n\r\nSeems easiest to just suppress this, as it's a single func, and the only warning I've seen compiling under C++20. We use `#pramga` to do similar in a few other parts of the codebase.\r\n\r\nFixes: #24682.",
   "closed_at" : null,
   "closed_by" : null,
   "comments" : 0,
   "comments_url" : "https://api.github.com/repos/bitcoin/bitcoin/issues/25808/comments",
   "created_at" : "2022-08-09T08:07:54Z",
   "draft" : false,
   "events_url" : "https://api.github.com/repos/bitcoin/bitcoin/issues/25808/events",
   "html_url" : "https://github.com/bitcoin/bitcoin/pull/25808",
   "id" : 1332878972,
   "labels" : [],
   "labels_url" : "https://api.github.com/repos/bitcoin/bitcoin/issues/25808/labels{/name}",
   "locked" : false,
   "milestone" : null,
   "node_id" : "PR_kwDOABII58483gwM",
   "number" : 25808,
   "performed_via_github_app" : null,
   "pull_request" : {
      "diff_url" : "https://github.com/bitcoin/bitcoin/pull/25808.diff",
      "html_url" : "https://github.com/bitcoin/bitcoin/pull/25808",
      "merged_at" : null,
      "patch_url" : "https://github.com/bitcoin/bitcoin/pull/25808.patch",
      "url" : "https://api.github.com/repos/bitcoin/bitcoin/pulls/25808"
   },
   "reactions" : {
      "+1" : 0,
      "-1" : 0,
      "confused" : 0,
      "eyes" : 0,
      "heart" : 0,
      "hooray" : 0,
      "laugh" : 0,
      "rocket" : 0,
      "total_count" : 0,
      "url" : "https://api.github.com/repos/bitcoin/bitcoin/issues/25808/reactions"
   },
   "repository_url" : "https://api.github.com/repos/bitcoin/bitcoin",
   "state" : "open",
   "state_reason" : null,
   "timeline_url" : "https://api.github.com/repos/bitcoin/bitcoin/issues/25808/timeline",
   "title" : "fs: suppress u8path deprecated-declaration warnings with libc++",
   "updated_at" : "2022-08-09T08:48:51Z",
   "url" : "https://api.github.com/repos/bitcoin/bitcoin/issues/25808",
   "user" : {
      "avatar_url" : "https://avatars.githubusercontent.com/u/863730?v=4",
      "events_url" : "https://api.github.com/users/fanquake/events{/privacy}",
      "followers_url" : "https://api.github.com/users/fanquake/followers",
      "following_url" : "https://api.github.com/users/fanquake/following{/other_user}",
      "gists_url" : "https://api.github.com/users/fanquake/gists{/gist_id}",
      "gravatar_id" : "",
      "html_url" : "https://github.com/fanquake",
      "id" : 863730,
      "login" : "fanquake",
      "node_id" : "MDQ6VXNlcjg2MzczMA==",
      "organizations_url" : "https://api.github.com/users/fanquake/orgs",
      "received_events_url" : "https://api.github.com/users/fanquake/received_events",
      "repos_url" : "https://api.github.com/users/fanquake/repos",
      "site_admin" : false,
      "starred_url" : "https://api.github.com/users/fanquake/starred{/owner}{/repo}",
      "subscriptions_url" : "https://api.github.com/users/fanquake/subscriptions",
      "type" : "User",
      "url" : "https://api.github.com/users/fanquake"
   }
}
