{
   "active_lock_reason" : null,
   "assignee" : null,
   "assignees" : [],
   "author_association" : "MEMBER",
   "body" : "Backports:\r\n- ef20add4c98674183720d9631ac780f9a248b487 from bitcoin/bitcoin#24668 to address bitcoin/bitcoin#24939 and bitcoin-core/gui#638\r\n- bitcoin-core/gui#631\r\n\r\nGuix builds on `x86_64`:\r\n```\r\nto be added...\r\n```",
   "closed_at" : null,
   "closed_by" : null,
   "comments" : 0,
   "comments_url" : "https://api.github.com/repos/bitcoin/bitcoin/issues/25828/comments",
   "created_at" : "2022-08-12T09:34:39Z",
   "draft" : false,
   "events_url" : "https://api.github.com/repos/bitcoin/bitcoin/issues/25828/events",
   "html_url" : "https://github.com/bitcoin/bitcoin/pull/25828",
   "id" : 1336978721,
   "labels" : [
      {
         "color" : "dd7200",
         "default" : false,
         "description" : "",
         "id" : 390024790,
         "name" : "Backport",
         "node_id" : "MDU6TGFiZWwzOTAwMjQ3OTA=",
         "url" : "https://api.github.com/repos/bitcoin/bitcoin/labels/Backport"
      }
   ],
   "labels_url" : "https://api.github.com/repos/bitcoin/bitcoin/issues/25828/labels{/name}",
   "locked" : false,
   "milestone" : null,
   "node_id" : "PR_kwDOABII5849FGC0",
   "number" : 25828,
   "performed_via_github_app" : null,
   "pull_request" : {
      "diff_url" : "https://github.com/bitcoin/bitcoin/pull/25828.diff",
      "html_url" : "https://github.com/bitcoin/bitcoin/pull/25828",
      "merged_at" : null,
      "patch_url" : "https://github.com/bitcoin/bitcoin/pull/25828.patch",
      "url" : "https://api.github.com/repos/bitcoin/bitcoin/pulls/25828"
   },
   "reactions" : {
      "+1" : 0,
      "-1" : 0,
      "confused" : 0,
      "eyes" : 0,
      "heart" : 0,
      "hooray" : 0,
      "laugh" : 0,
      "rocket" : 0,
      "total_count" : 0,
      "url" : "https://api.github.com/repos/bitcoin/bitcoin/issues/25828/reactions"
   },
   "repository_url" : "https://api.github.com/repos/bitcoin/bitcoin",
   "state" : "open",
   "state_reason" : null,
   "timeline_url" : "https://api.github.com/repos/bitcoin/bitcoin/issues/25828/timeline",
   "title" : "[23.x] GUI backports",
   "updated_at" : "2022-08-12T09:40:14Z",
   "url" : "https://api.github.com/repos/bitcoin/bitcoin/issues/25828",
   "user" : {
      "avatar_url" : "https://avatars.githubusercontent.com/u/32963518?v=4",
      "events_url" : "https://api.github.com/users/hebasto/events{/privacy}",
      "followers_url" : "https://api.github.com/users/hebasto/followers",
      "following_url" : "https://api.github.com/users/hebasto/following{/other_user}",
      "gists_url" : "https://api.github.com/users/hebasto/gists{/gist_id}",
      "gravatar_id" : "",
      "html_url" : "https://github.com/hebasto",
      "id" : 32963518,
      "login" : "hebasto",
      "node_id" : "MDQ6VXNlcjMyOTYzNTE4",
      "organizations_url" : "https://api.github.com/users/hebasto/orgs",
      "received_events_url" : "https://api.github.com/users/hebasto/received_events",
      "repos_url" : "https://api.github.com/users/hebasto/repos",
      "site_admin" : false,
      "starred_url" : "https://api.github.com/users/hebasto/starred{/owner}{/repo}",
      "subscriptions_url" : "https://api.github.com/users/hebasto/subscriptions",
      "type" : "User",
      "url" : "https://api.github.com/users/hebasto"
   }
}
