{
   "active_lock_reason" : null,
   "assignee" : null,
   "assignees" : [],
   "author_association" : "CONTRIBUTOR",
   "body" : "This PR \"reverse builds on\" https://github.com/bitcoin/bitcoin/pull/25560 by carving out the parts that should be uncontroversial/purely descriptive of the current role of maintainership, while allowing #25560 to focus on the more aspirational parts (as suggested by @instagibbs). Please be sure to cross reference for comments/discussion on #25560.",
   "closed_at" : null,
   "closed_by" : null,
   "comments" : 0,
   "comments_url" : "https://api.github.com/repos/bitcoin/bitcoin/issues/25839/comments",
   "created_at" : "2022-08-13T18:08:54Z",
   "draft" : false,
   "events_url" : "https://api.github.com/repos/bitcoin/bitcoin/issues/25839/events",
   "html_url" : "https://github.com/bitcoin/bitcoin/pull/25839",
   "id" : 1338022515,
   "labels" : [],
   "labels_url" : "https://api.github.com/repos/bitcoin/bitcoin/issues/25839/labels{/name}",
   "locked" : false,
   "milestone" : null,
   "node_id" : "PR_kwDOABII5849IgYc",
   "number" : 25839,
   "performed_via_github_app" : null,
   "pull_request" : {
      "diff_url" : "https://github.com/bitcoin/bitcoin/pull/25839.diff",
      "html_url" : "https://github.com/bitcoin/bitcoin/pull/25839",
      "merged_at" : null,
      "patch_url" : "https://github.com/bitcoin/bitcoin/pull/25839.patch",
      "url" : "https://api.github.com/repos/bitcoin/bitcoin/pulls/25839"
   },
   "reactions" : {
      "+1" : 0,
      "-1" : 0,
      "confused" : 0,
      "eyes" : 0,
      "heart" : 0,
      "hooray" : 0,
      "laugh" : 0,
      "rocket" : 0,
      "total_count" : 0,
      "url" : "https://api.github.com/repos/bitcoin/bitcoin/issues/25839/reactions"
   },
   "repository_url" : "https://api.github.com/repos/bitcoin/bitcoin",
   "state" : "open",
   "state_reason" : null,
   "timeline_url" : "https://api.github.com/repos/bitcoin/bitcoin/issues/25839/timeline",
   "title" : "[WIP] Minimal MAINTAINERS.md file",
   "updated_at" : "2022-08-13T18:29:22Z",
   "url" : "https://api.github.com/repos/bitcoin/bitcoin/issues/25839",
   "user" : {
      "avatar_url" : "https://avatars.githubusercontent.com/u/886523?v=4",
      "events_url" : "https://api.github.com/users/JeremyRubin/events{/privacy}",
      "followers_url" : "https://api.github.com/users/JeremyRubin/followers",
      "following_url" : "https://api.github.com/users/JeremyRubin/following{/other_user}",
      "gists_url" : "https://api.github.com/users/JeremyRubin/gists{/gist_id}",
      "gravatar_id" : "",
      "html_url" : "https://github.com/JeremyRubin",
      "id" : 886523,
      "login" : "JeremyRubin",
      "node_id" : "MDQ6VXNlcjg4NjUyMw==",
      "organizations_url" : "https://api.github.com/users/JeremyRubin/orgs",
      "received_events_url" : "https://api.github.com/users/JeremyRubin/received_events",
      "repos_url" : "https://api.github.com/users/JeremyRubin/repos",
      "site_admin" : false,
      "starred_url" : "https://api.github.com/users/JeremyRubin/starred{/owner}{/repo}",
      "subscriptions_url" : "https://api.github.com/users/JeremyRubin/subscriptions",
      "type" : "User",
      "url" : "https://api.github.com/users/JeremyRubin"
   }
}
