{
   "_links" : {
      "comments" : {
         "href" : "https://api.github.com/repos/bitcoin/bitcoin/issues/25856/comments"
      },
      "commits" : {
         "href" : "https://api.github.com/repos/bitcoin/bitcoin/pulls/25856/commits"
      },
      "html" : {
         "href" : "https://github.com/bitcoin/bitcoin/pull/25856"
      },
      "issue" : {
         "href" : "https://api.github.com/repos/bitcoin/bitcoin/issues/25856"
      },
      "review_comment" : {
         "href" : "https://api.github.com/repos/bitcoin/bitcoin/pulls/comments{/number}"
      },
      "review_comments" : {
         "href" : "https://api.github.com/repos/bitcoin/bitcoin/pulls/25856/comments"
      },
      "self" : {
         "href" : "https://api.github.com/repos/bitcoin/bitcoin/pulls/25856"
      },
      "statuses" : {
         "href" : "https://api.github.com/repos/bitcoin/bitcoin/statuses/ca776f6d01f8d49a6e8432cb849f2df5a92ee37e"
      }
   },
   "active_lock_reason" : null,
   "additions" : 29,
   "assignee" : null,
   "assignees" : [],
   "author_association" : "CONTRIBUTOR",
   "auto_merge" : null,
   "base" : {
      "label" : "bitcoin:master",
      "ref" : "master",
      "repo" : {
         "allow_forking" : true,
         "archive_url" : "https://api.github.com/repos/bitcoin/bitcoin/{archive_format}{/ref}",
         "archived" : false,
         "assignees_url" : "https://api.github.com/repos/bitcoin/bitcoin/assignees{/user}",
         "blobs_url" : "https://api.github.com/repos/bitcoin/bitcoin/git/blobs{/sha}",
         "branches_url" : "https://api.github.com/repos/bitcoin/bitcoin/branches{/branch}",
         "clone_url" : "https://github.com/bitcoin/bitcoin.git",
         "collaborators_url" : "https://api.github.com/repos/bitcoin/bitcoin/collaborators{/collaborator}",
         "comments_url" : "https://api.github.com/repos/bitcoin/bitcoin/comments{/number}",
         "commits_url" : "https://api.github.com/repos/bitcoin/bitcoin/commits{/sha}",
         "compare_url" : "https://api.github.com/repos/bitcoin/bitcoin/compare/{base}...{head}",
         "contents_url" : "https://api.github.com/repos/bitcoin/bitcoin/contents/{+path}",
         "contributors_url" : "https://api.github.com/repos/bitcoin/bitcoin/contributors",
         "created_at" : "2010-12-19T15:16:43Z",
         "default_branch" : "master",
         "deployments_url" : "https://api.github.com/repos/bitcoin/bitcoin/deployments",
         "description" : "Bitcoin Core integration/staging tree",
         "disabled" : false,
         "downloads_url" : "https://api.github.com/repos/bitcoin/bitcoin/downloads",
         "events_url" : "https://api.github.com/repos/bitcoin/bitcoin/events",
         "fork" : false,
         "forks" : 32853,
         "forks_count" : 32853,
         "forks_url" : "https://api.github.com/repos/bitcoin/bitcoin/forks",
         "full_name" : "bitcoin/bitcoin",
         "git_commits_url" : "https://api.github.com/repos/bitcoin/bitcoin/git/commits{/sha}",
         "git_refs_url" : "https://api.github.com/repos/bitcoin/bitcoin/git/refs{/sha}",
         "git_tags_url" : "https://api.github.com/repos/bitcoin/bitcoin/git/tags{/sha}",
         "git_url" : "git://github.com/bitcoin/bitcoin.git",
         "has_downloads" : false,
         "has_issues" : true,
         "has_pages" : false,
         "has_projects" : true,
         "has_wiki" : false,
         "homepage" : "https://bitcoincore.org/en/download",
         "hooks_url" : "https://api.github.com/repos/bitcoin/bitcoin/hooks",
         "html_url" : "https://github.com/bitcoin/bitcoin",
         "id" : 1181927,
         "is_template" : false,
         "issue_comment_url" : "https://api.github.com/repos/bitcoin/bitcoin/issues/comments{/number}",
         "issue_events_url" : "https://api.github.com/repos/bitcoin/bitcoin/issues/events{/number}",
         "issues_url" : "https://api.github.com/repos/bitcoin/bitcoin/issues{/number}",
         "keys_url" : "https://api.github.com/repos/bitcoin/bitcoin/keys{/key_id}",
         "labels_url" : "https://api.github.com/repos/bitcoin/bitcoin/labels{/name}",
         "language" : "C++",
         "languages_url" : "https://api.github.com/repos/bitcoin/bitcoin/languages",
         "license" : {
            "key" : "mit",
            "name" : "MIT License",
            "node_id" : "MDc6TGljZW5zZTEz",
            "spdx_id" : "MIT",
            "url" : "https://api.github.com/licenses/mit"
         },
         "merges_url" : "https://api.github.com/repos/bitcoin/bitcoin/merges",
         "milestones_url" : "https://api.github.com/repos/bitcoin/bitcoin/milestones{/number}",
         "mirror_url" : null,
         "name" : "bitcoin",
         "node_id" : "MDEwOlJlcG9zaXRvcnkxMTgxOTI3",
         "notifications_url" : "https://api.github.com/repos/bitcoin/bitcoin/notifications{?since,all,participating}",
         "open_issues" : 847,
         "open_issues_count" : 847,
         "owner" : {
            "avatar_url" : "https://avatars.githubusercontent.com/u/528860?v=4",
            "events_url" : "https://api.github.com/users/bitcoin/events{/privacy}",
            "followers_url" : "https://api.github.com/users/bitcoin/followers",
            "following_url" : "https://api.github.com/users/bitcoin/following{/other_user}",
            "gists_url" : "https://api.github.com/users/bitcoin/gists{/gist_id}",
            "gravatar_id" : "",
            "html_url" : "https://github.com/bitcoin",
            "id" : 528860,
            "login" : "bitcoin",
            "node_id" : "MDEyOk9yZ2FuaXphdGlvbjUyODg2MA==",
            "organizations_url" : "https://api.github.com/users/bitcoin/orgs",
            "received_events_url" : "https://api.github.com/users/bitcoin/received_events",
            "repos_url" : "https://api.github.com/users/bitcoin/repos",
            "site_admin" : false,
            "starred_url" : "https://api.github.com/users/bitcoin/starred{/owner}{/repo}",
            "subscriptions_url" : "https://api.github.com/users/bitcoin/subscriptions",
            "type" : "Organization",
            "url" : "https://api.github.com/users/bitcoin"
         },
         "private" : false,
         "pulls_url" : "https://api.github.com/repos/bitcoin/bitcoin/pulls{/number}",
         "pushed_at" : "2022-08-16T01:53:38Z",
         "releases_url" : "https://api.github.com/repos/bitcoin/bitcoin/releases{/id}",
         "size" : 212726,
         "ssh_url" : "git@github.com:bitcoin/bitcoin.git",
         "stargazers_count" : 65710,
         "stargazers_url" : "https://api.github.com/repos/bitcoin/bitcoin/stargazers",
         "statuses_url" : "https://api.github.com/repos/bitcoin/bitcoin/statuses/{sha}",
         "subscribers_url" : "https://api.github.com/repos/bitcoin/bitcoin/subscribers",
         "subscription_url" : "https://api.github.com/repos/bitcoin/bitcoin/subscription",
         "svn_url" : "https://github.com/bitcoin/bitcoin",
         "tags_url" : "https://api.github.com/repos/bitcoin/bitcoin/tags",
         "teams_url" : "https://api.github.com/repos/bitcoin/bitcoin/teams",
         "topics" : [
            "bitcoin",
            "c-plus-plus",
            "cryptocurrency",
            "cryptography",
            "p2p"
         ],
         "trees_url" : "https://api.github.com/repos/bitcoin/bitcoin/git/trees{/sha}",
         "updated_at" : "2022-08-16T01:51:08Z",
         "url" : "https://api.github.com/repos/bitcoin/bitcoin",
         "visibility" : "public",
         "watchers" : 65710,
         "watchers_count" : 65710,
         "web_commit_signoff_required" : false
      },
      "sha" : "22d96d76ab02fc73e7fe0d810bacee4c982df085",
      "user" : {
         "avatar_url" : "https://avatars.githubusercontent.com/u/528860?v=4",
         "events_url" : "https://api.github.com/users/bitcoin/events{/privacy}",
         "followers_url" : "https://api.github.com/users/bitcoin/followers",
         "following_url" : "https://api.github.com/users/bitcoin/following{/other_user}",
         "gists_url" : "https://api.github.com/users/bitcoin/gists{/gist_id}",
         "gravatar_id" : "",
         "html_url" : "https://github.com/bitcoin",
         "id" : 528860,
         "login" : "bitcoin",
         "node_id" : "MDEyOk9yZ2FuaXphdGlvbjUyODg2MA==",
         "organizations_url" : "https://api.github.com/users/bitcoin/orgs",
         "received_events_url" : "https://api.github.com/users/bitcoin/received_events",
         "repos_url" : "https://api.github.com/users/bitcoin/repos",
         "site_admin" : false,
         "starred_url" : "https://api.github.com/users/bitcoin/starred{/owner}{/repo}",
         "subscriptions_url" : "https://api.github.com/users/bitcoin/subscriptions",
         "type" : "Organization",
         "url" : "https://api.github.com/users/bitcoin"
      }
   },
   "body" : "According to BIP-174, the tap_tree field must be:\r\n\r\n> One or more tuples representing the depth, leaf version, and script for a leaf in the Taproot tree, allowing the entire tree to be reconstructed. The tuples must be in depth first search order so that the tree is correctly reconstructed. Each tuple is an 8-bit unsigned integer representing the depth in the Taproot tree for this script, an 8-bit unsigned integer representing the leaf version, the length of the script as a compact size unsigned integer, and the script itself.\r\n\r\nallowing serializing an empty tap tree tuple breaks the \"one or more\"ness of the field, so serializations should ignore empty but initialized tap_trees.\r\n\r\nsee also https://github.com/rust-bitcoin/rust-bitcoin/pull/1194, where this caused downstream issues.\r\n",
   "changed_files" : 2,
   "closed_at" : null,
   "comments" : 0,
   "comments_url" : "https://api.github.com/repos/bitcoin/bitcoin/issues/25856/comments",
   "commits" : 1,
   "commits_url" : "https://api.github.com/repos/bitcoin/bitcoin/pulls/25856/commits",
   "created_at" : "2022-08-16T01:53:38Z",
   "deletions" : 21,
   "diff_url" : "https://github.com/bitcoin/bitcoin/pull/25856.diff",
   "draft" : false,
   "head" : {
      "label" : "JeremyRubin:psbt-tap-tree-174-compliance",
      "ref" : "psbt-tap-tree-174-compliance",
      "repo" : {
         "allow_forking" : true,
         "archive_url" : "https://api.github.com/repos/JeremyRubin/bitcoin/{archive_format}{/ref}",
         "archived" : false,
         "assignees_url" : "https://api.github.com/repos/JeremyRubin/bitcoin/assignees{/user}",
         "blobs_url" : "https://api.github.com/repos/JeremyRubin/bitcoin/git/blobs{/sha}",
         "branches_url" : "https://api.github.com/repos/JeremyRubin/bitcoin/branches{/branch}",
         "clone_url" : "https://github.com/JeremyRubin/bitcoin.git",
         "collaborators_url" : "https://api.github.com/repos/JeremyRubin/bitcoin/collaborators{/collaborator}",
         "comments_url" : "https://api.github.com/repos/JeremyRubin/bitcoin/comments{/number}",
         "commits_url" : "https://api.github.com/repos/JeremyRubin/bitcoin/commits{/sha}",
         "compare_url" : "https://api.github.com/repos/JeremyRubin/bitcoin/compare/{base}...{head}",
         "contents_url" : "https://api.github.com/repos/JeremyRubin/bitcoin/contents/{+path}",
         "contributors_url" : "https://api.github.com/repos/JeremyRubin/bitcoin/contributors",
         "created_at" : "2016-03-04T06:06:13Z",
         "default_branch" : "master",
         "deployments_url" : "https://api.github.com/repos/JeremyRubin/bitcoin/deployments",
         "description" : "Bitcoin Core integration/staging tree",
         "disabled" : false,
         "downloads_url" : "https://api.github.com/repos/JeremyRubin/bitcoin/downloads",
         "events_url" : "https://api.github.com/repos/JeremyRubin/bitcoin/events",
         "fork" : true,
         "forks" : 6,
         "forks_count" : 6,
         "forks_url" : "https://api.github.com/repos/JeremyRubin/bitcoin/forks",
         "full_name" : "JeremyRubin/bitcoin",
         "git_commits_url" : "https://api.github.com/repos/JeremyRubin/bitcoin/git/commits{/sha}",
         "git_refs_url" : "https://api.github.com/repos/JeremyRubin/bitcoin/git/refs{/sha}",
         "git_tags_url" : "https://api.github.com/repos/JeremyRubin/bitcoin/git/tags{/sha}",
         "git_url" : "git://github.com/JeremyRubin/bitcoin.git",
         "has_downloads" : false,
         "has_issues" : false,
         "has_pages" : false,
         "has_projects" : true,
         "has_wiki" : false,
         "homepage" : "https://bitcoin.org/en/download",
         "hooks_url" : "https://api.github.com/repos/JeremyRubin/bitcoin/hooks",
         "html_url" : "https://github.com/JeremyRubin/bitcoin",
         "id" : 53111803,
         "is_template" : false,
         "issue_comment_url" : "https://api.github.com/repos/JeremyRubin/bitcoin/issues/comments{/number}",
         "issue_events_url" : "https://api.github.com/repos/JeremyRubin/bitcoin/issues/events{/number}",
         "issues_url" : "https://api.github.com/repos/JeremyRubin/bitcoin/issues{/number}",
         "keys_url" : "https://api.github.com/repos/JeremyRubin/bitcoin/keys{/key_id}",
         "labels_url" : "https://api.github.com/repos/JeremyRubin/bitcoin/labels{/name}",
         "language" : "C++",
         "languages_url" : "https://api.github.com/repos/JeremyRubin/bitcoin/languages",
         "license" : {
            "key" : "mit",
            "name" : "MIT License",
            "node_id" : "MDc6TGljZW5zZTEz",
            "spdx_id" : "MIT",
            "url" : "https://api.github.com/licenses/mit"
         },
         "merges_url" : "https://api.github.com/repos/JeremyRubin/bitcoin/merges",
         "milestones_url" : "https://api.github.com/repos/JeremyRubin/bitcoin/milestones{/number}",
         "mirror_url" : null,
         "name" : "bitcoin",
         "node_id" : "MDEwOlJlcG9zaXRvcnk1MzExMTgwMw==",
         "notifications_url" : "https://api.github.com/repos/JeremyRubin/bitcoin/notifications{?since,all,participating}",
         "open_issues" : 5,
         "open_issues_count" : 5,
         "owner" : {
            "avatar_url" : "https://avatars.githubusercontent.com/u/886523?v=4",
            "events_url" : "https://api.github.com/users/JeremyRubin/events{/privacy}",
            "followers_url" : "https://api.github.com/users/JeremyRubin/followers",
            "following_url" : "https://api.github.com/users/JeremyRubin/following{/other_user}",
            "gists_url" : "https://api.github.com/users/JeremyRubin/gists{/gist_id}",
            "gravatar_id" : "",
            "html_url" : "https://github.com/JeremyRubin",
            "id" : 886523,
            "login" : "JeremyRubin",
            "node_id" : "MDQ6VXNlcjg4NjUyMw==",
            "organizations_url" : "https://api.github.com/users/JeremyRubin/orgs",
            "received_events_url" : "https://api.github.com/users/JeremyRubin/received_events",
            "repos_url" : "https://api.github.com/users/JeremyRubin/repos",
            "site_admin" : false,
            "starred_url" : "https://api.github.com/users/JeremyRubin/starred{/owner}{/repo}",
            "subscriptions_url" : "https://api.github.com/users/JeremyRubin/subscriptions",
            "type" : "User",
            "url" : "https://api.github.com/users/JeremyRubin"
         },
         "private" : false,
         "pulls_url" : "https://api.github.com/repos/JeremyRubin/bitcoin/pulls{/number}",
         "pushed_at" : "2022-08-16T01:51:54Z",
         "releases_url" : "https://api.github.com/repos/JeremyRubin/bitcoin/releases{/id}",
         "size" : 197590,
         "ssh_url" : "git@github.com:JeremyRubin/bitcoin.git",
         "stargazers_count" : 9,
         "stargazers_url" : "https://api.github.com/repos/JeremyRubin/bitcoin/stargazers",
         "statuses_url" : "https://api.github.com/repos/JeremyRubin/bitcoin/statuses/{sha}",
         "subscribers_url" : "https://api.github.com/repos/JeremyRubin/bitcoin/subscribers",
         "subscription_url" : "https://api.github.com/repos/JeremyRubin/bitcoin/subscription",
         "svn_url" : "https://github.com/JeremyRubin/bitcoin",
         "tags_url" : "https://api.github.com/repos/JeremyRubin/bitcoin/tags",
         "teams_url" : "https://api.github.com/repos/JeremyRubin/bitcoin/teams",
         "topics" : [],
         "trees_url" : "https://api.github.com/repos/JeremyRubin/bitcoin/git/trees{/sha}",
         "updated_at" : "2022-04-21T19:21:08Z",
         "url" : "https://api.github.com/repos/JeremyRubin/bitcoin",
         "visibility" : "public",
         "watchers" : 9,
         "watchers_count" : 9,
         "web_commit_signoff_required" : false
      },
      "sha" : "ca776f6d01f8d49a6e8432cb849f2df5a92ee37e",
      "user" : {
         "avatar_url" : "https://avatars.githubusercontent.com/u/886523?v=4",
         "events_url" : "https://api.github.com/users/JeremyRubin/events{/privacy}",
         "followers_url" : "https://api.github.com/users/JeremyRubin/followers",
         "following_url" : "https://api.github.com/users/JeremyRubin/following{/other_user}",
         "gists_url" : "https://api.github.com/users/JeremyRubin/gists{/gist_id}",
         "gravatar_id" : "",
         "html_url" : "https://github.com/JeremyRubin",
         "id" : 886523,
         "login" : "JeremyRubin",
         "node_id" : "MDQ6VXNlcjg4NjUyMw==",
         "organizations_url" : "https://api.github.com/users/JeremyRubin/orgs",
         "received_events_url" : "https://api.github.com/users/JeremyRubin/received_events",
         "repos_url" : "https://api.github.com/users/JeremyRubin/repos",
         "site_admin" : false,
         "starred_url" : "https://api.github.com/users/JeremyRubin/starred{/owner}{/repo}",
         "subscriptions_url" : "https://api.github.com/users/JeremyRubin/subscriptions",
         "type" : "User",
         "url" : "https://api.github.com/users/JeremyRubin"
      }
   },
   "html_url" : "https://github.com/bitcoin/bitcoin/pull/25856",
   "id" : 1027059123,
   "issue_url" : "https://api.github.com/repos/bitcoin/bitcoin/issues/25856",
   "labels" : [],
   "locked" : false,
   "maintainer_can_modify" : true,
   "merge_commit_sha" : "5333ce4990c5189458ec2a5e5b8588a69850d63f",
   "mergeable" : true,
   "mergeable_state" : "blocked",
   "merged" : false,
   "merged_at" : null,
   "merged_by" : null,
   "milestone" : null,
   "node_id" : "PR_kwDOABII5849N62z",
   "number" : 25856,
   "patch_url" : "https://github.com/bitcoin/bitcoin/pull/25856.patch",
   "rebaseable" : true,
   "requested_reviewers" : [
      {
         "avatar_url" : "https://avatars.githubusercontent.com/u/3782274?v=4",
         "events_url" : "https://api.github.com/users/achow101/events{/privacy}",
         "followers_url" : "https://api.github.com/users/achow101/followers",
         "following_url" : "https://api.github.com/users/achow101/following{/other_user}",
         "gists_url" : "https://api.github.com/users/achow101/gists{/gist_id}",
         "gravatar_id" : "",
         "html_url" : "https://github.com/achow101",
         "id" : 3782274,
         "login" : "achow101",
         "node_id" : "MDQ6VXNlcjM3ODIyNzQ=",
         "organizations_url" : "https://api.github.com/users/achow101/orgs",
         "received_events_url" : "https://api.github.com/users/achow101/received_events",
         "repos_url" : "https://api.github.com/users/achow101/repos",
         "site_admin" : false,
         "starred_url" : "https://api.github.com/users/achow101/starred{/owner}{/repo}",
         "subscriptions_url" : "https://api.github.com/users/achow101/subscriptions",
         "type" : "User",
         "url" : "https://api.github.com/users/achow101"
      }
   ],
   "requested_teams" : [],
   "review_comment_url" : "https://api.github.com/repos/bitcoin/bitcoin/pulls/comments{/number}",
   "review_comments" : 0,
   "review_comments_url" : "https://api.github.com/repos/bitcoin/bitcoin/pulls/25856/comments",
   "state" : "open",
   "statuses_url" : "https://api.github.com/repos/bitcoin/bitcoin/statuses/ca776f6d01f8d49a6e8432cb849f2df5a92ee37e",
   "title" : "[BugFix] Make PSBT serializations 174 compliant by excluding empty taptree from serialization",
   "updated_at" : "2022-08-16T01:53:38Z",
   "url" : "https://api.github.com/repos/bitcoin/bitcoin/pulls/25856",
   "user" : {
      "avatar_url" : "https://avatars.githubusercontent.com/u/886523?v=4",
      "events_url" : "https://api.github.com/users/JeremyRubin/events{/privacy}",
      "followers_url" : "https://api.github.com/users/JeremyRubin/followers",
      "following_url" : "https://api.github.com/users/JeremyRubin/following{/other_user}",
      "gists_url" : "https://api.github.com/users/JeremyRubin/gists{/gist_id}",
      "gravatar_id" : "",
      "html_url" : "https://github.com/JeremyRubin",
      "id" : 886523,
      "login" : "JeremyRubin",
      "node_id" : "MDQ6VXNlcjg4NjUyMw==",
      "organizations_url" : "https://api.github.com/users/JeremyRubin/orgs",
      "received_events_url" : "https://api.github.com/users/JeremyRubin/received_events",
      "repos_url" : "https://api.github.com/users/JeremyRubin/repos",
      "site_admin" : false,
      "starred_url" : "https://api.github.com/users/JeremyRubin/starred{/owner}{/repo}",
      "subscriptions_url" : "https://api.github.com/users/JeremyRubin/subscriptions",
      "type" : "User",
      "url" : "https://api.github.com/users/JeremyRubin"
   }
}
