{
   "_links" : {
      "comments" : {
         "href" : "https://api.github.com/repos/bitcoin/bitcoin/issues/25854/comments"
      },
      "commits" : {
         "href" : "https://api.github.com/repos/bitcoin/bitcoin/pulls/25854/commits"
      },
      "html" : {
         "href" : "https://github.com/bitcoin/bitcoin/pull/25854"
      },
      "issue" : {
         "href" : "https://api.github.com/repos/bitcoin/bitcoin/issues/25854"
      },
      "review_comment" : {
         "href" : "https://api.github.com/repos/bitcoin/bitcoin/pulls/comments{/number}"
      },
      "review_comments" : {
         "href" : "https://api.github.com/repos/bitcoin/bitcoin/pulls/25854/comments"
      },
      "self" : {
         "href" : "https://api.github.com/repos/bitcoin/bitcoin/pulls/25854"
      },
      "statuses" : {
         "href" : "https://api.github.com/repos/bitcoin/bitcoin/statuses/4a7609ebda837d99004a5ae189f551ffae5a6d82"
      }
   },
   "active_lock_reason" : null,
   "additions" : 5,
   "assignee" : null,
   "assignees" : [],
   "author_association" : "NONE",
   "auto_merge" : null,
   "base" : {
      "label" : "bitcoin:master",
      "ref" : "master",
      "repo" : {
         "allow_forking" : true,
         "archive_url" : "https://api.github.com/repos/bitcoin/bitcoin/{archive_format}{/ref}",
         "archived" : false,
         "assignees_url" : "https://api.github.com/repos/bitcoin/bitcoin/assignees{/user}",
         "blobs_url" : "https://api.github.com/repos/bitcoin/bitcoin/git/blobs{/sha}",
         "branches_url" : "https://api.github.com/repos/bitcoin/bitcoin/branches{/branch}",
         "clone_url" : "https://github.com/bitcoin/bitcoin.git",
         "collaborators_url" : "https://api.github.com/repos/bitcoin/bitcoin/collaborators{/collaborator}",
         "comments_url" : "https://api.github.com/repos/bitcoin/bitcoin/comments{/number}",
         "commits_url" : "https://api.github.com/repos/bitcoin/bitcoin/commits{/sha}",
         "compare_url" : "https://api.github.com/repos/bitcoin/bitcoin/compare/{base}...{head}",
         "contents_url" : "https://api.github.com/repos/bitcoin/bitcoin/contents/{+path}",
         "contributors_url" : "https://api.github.com/repos/bitcoin/bitcoin/contributors",
         "created_at" : "2010-12-19T15:16:43Z",
         "default_branch" : "master",
         "deployments_url" : "https://api.github.com/repos/bitcoin/bitcoin/deployments",
         "description" : "Bitcoin Core integration/staging tree",
         "disabled" : false,
         "downloads_url" : "https://api.github.com/repos/bitcoin/bitcoin/downloads",
         "events_url" : "https://api.github.com/repos/bitcoin/bitcoin/events",
         "fork" : false,
         "forks" : 32852,
         "forks_count" : 32852,
         "forks_url" : "https://api.github.com/repos/bitcoin/bitcoin/forks",
         "full_name" : "bitcoin/bitcoin",
         "git_commits_url" : "https://api.github.com/repos/bitcoin/bitcoin/git/commits{/sha}",
         "git_refs_url" : "https://api.github.com/repos/bitcoin/bitcoin/git/refs{/sha}",
         "git_tags_url" : "https://api.github.com/repos/bitcoin/bitcoin/git/tags{/sha}",
         "git_url" : "git://github.com/bitcoin/bitcoin.git",
         "has_downloads" : false,
         "has_issues" : true,
         "has_pages" : false,
         "has_projects" : true,
         "has_wiki" : false,
         "homepage" : "https://bitcoincore.org/en/download",
         "hooks_url" : "https://api.github.com/repos/bitcoin/bitcoin/hooks",
         "html_url" : "https://github.com/bitcoin/bitcoin",
         "id" : 1181927,
         "is_template" : false,
         "issue_comment_url" : "https://api.github.com/repos/bitcoin/bitcoin/issues/comments{/number}",
         "issue_events_url" : "https://api.github.com/repos/bitcoin/bitcoin/issues/events{/number}",
         "issues_url" : "https://api.github.com/repos/bitcoin/bitcoin/issues{/number}",
         "keys_url" : "https://api.github.com/repos/bitcoin/bitcoin/keys{/key_id}",
         "labels_url" : "https://api.github.com/repos/bitcoin/bitcoin/labels{/name}",
         "language" : "C++",
         "languages_url" : "https://api.github.com/repos/bitcoin/bitcoin/languages",
         "license" : {
            "key" : "mit",
            "name" : "MIT License",
            "node_id" : "MDc6TGljZW5zZTEz",
            "spdx_id" : "MIT",
            "url" : "https://api.github.com/licenses/mit"
         },
         "merges_url" : "https://api.github.com/repos/bitcoin/bitcoin/merges",
         "milestones_url" : "https://api.github.com/repos/bitcoin/bitcoin/milestones{/number}",
         "mirror_url" : null,
         "name" : "bitcoin",
         "node_id" : "MDEwOlJlcG9zaXRvcnkxMTgxOTI3",
         "notifications_url" : "https://api.github.com/repos/bitcoin/bitcoin/notifications{?since,all,participating}",
         "open_issues" : 846,
         "open_issues_count" : 846,
         "owner" : {
            "avatar_url" : "https://avatars.githubusercontent.com/u/528860?v=4",
            "events_url" : "https://api.github.com/users/bitcoin/events{/privacy}",
            "followers_url" : "https://api.github.com/users/bitcoin/followers",
            "following_url" : "https://api.github.com/users/bitcoin/following{/other_user}",
            "gists_url" : "https://api.github.com/users/bitcoin/gists{/gist_id}",
            "gravatar_id" : "",
            "html_url" : "https://github.com/bitcoin",
            "id" : 528860,
            "login" : "bitcoin",
            "node_id" : "MDEyOk9yZ2FuaXphdGlvbjUyODg2MA==",
            "organizations_url" : "https://api.github.com/users/bitcoin/orgs",
            "received_events_url" : "https://api.github.com/users/bitcoin/received_events",
            "repos_url" : "https://api.github.com/users/bitcoin/repos",
            "site_admin" : false,
            "starred_url" : "https://api.github.com/users/bitcoin/starred{/owner}{/repo}",
            "subscriptions_url" : "https://api.github.com/users/bitcoin/subscriptions",
            "type" : "Organization",
            "url" : "https://api.github.com/users/bitcoin"
         },
         "private" : false,
         "pulls_url" : "https://api.github.com/repos/bitcoin/bitcoin/pulls{/number}",
         "pushed_at" : "2022-08-15T21:12:16Z",
         "releases_url" : "https://api.github.com/repos/bitcoin/bitcoin/releases{/id}",
         "size" : 212726,
         "ssh_url" : "git@github.com:bitcoin/bitcoin.git",
         "stargazers_count" : 65702,
         "stargazers_url" : "https://api.github.com/repos/bitcoin/bitcoin/stargazers",
         "statuses_url" : "https://api.github.com/repos/bitcoin/bitcoin/statuses/{sha}",
         "subscribers_url" : "https://api.github.com/repos/bitcoin/bitcoin/subscribers",
         "subscription_url" : "https://api.github.com/repos/bitcoin/bitcoin/subscription",
         "svn_url" : "https://github.com/bitcoin/bitcoin",
         "tags_url" : "https://api.github.com/repos/bitcoin/bitcoin/tags",
         "teams_url" : "https://api.github.com/repos/bitcoin/bitcoin/teams",
         "topics" : [
            "bitcoin",
            "c-plus-plus",
            "cryptocurrency",
            "cryptography",
            "p2p"
         ],
         "trees_url" : "https://api.github.com/repos/bitcoin/bitcoin/git/trees{/sha}",
         "updated_at" : "2022-08-15T21:49:03Z",
         "url" : "https://api.github.com/repos/bitcoin/bitcoin",
         "visibility" : "public",
         "watchers" : 65702,
         "watchers_count" : 65702,
         "web_commit_signoff_required" : false
      },
      "sha" : "22d96d76ab02fc73e7fe0d810bacee4c982df085",
      "user" : {
         "avatar_url" : "https://avatars.githubusercontent.com/u/528860?v=4",
         "events_url" : "https://api.github.com/users/bitcoin/events{/privacy}",
         "followers_url" : "https://api.github.com/users/bitcoin/followers",
         "following_url" : "https://api.github.com/users/bitcoin/following{/other_user}",
         "gists_url" : "https://api.github.com/users/bitcoin/gists{/gist_id}",
         "gravatar_id" : "",
         "html_url" : "https://github.com/bitcoin",
         "id" : 528860,
         "login" : "bitcoin",
         "node_id" : "MDEyOk9yZ2FuaXphdGlvbjUyODg2MA==",
         "organizations_url" : "https://api.github.com/users/bitcoin/orgs",
         "received_events_url" : "https://api.github.com/users/bitcoin/received_events",
         "repos_url" : "https://api.github.com/users/bitcoin/repos",
         "site_admin" : false,
         "starred_url" : "https://api.github.com/users/bitcoin/starred{/owner}{/repo}",
         "subscriptions_url" : "https://api.github.com/users/bitcoin/subscriptions",
         "type" : "Organization",
         "url" : "https://api.github.com/users/bitcoin"
      }
   },
   "body" : "Update tracing.md",
   "changed_files" : 1,
   "closed_at" : null,
   "comments" : 0,
   "comments_url" : "https://api.github.com/repos/bitcoin/bitcoin/issues/25854/comments",
   "commits" : 1,
   "commits_url" : "https://api.github.com/repos/bitcoin/bitcoin/pulls/25854/commits",
   "created_at" : "2022-08-15T21:12:05Z",
   "deletions" : 5,
   "diff_url" : "https://github.com/bitcoin/bitcoin/pull/25854.diff",
   "draft" : false,
   "head" : {
      "label" : "SkiingIsFun123:patch-1",
      "ref" : "patch-1",
      "repo" : {
         "allow_forking" : true,
         "archive_url" : "https://api.github.com/repos/SkiingIsFun123/bitcoin/{archive_format}{/ref}",
         "archived" : false,
         "assignees_url" : "https://api.github.com/repos/SkiingIsFun123/bitcoin/assignees{/user}",
         "blobs_url" : "https://api.github.com/repos/SkiingIsFun123/bitcoin/git/blobs{/sha}",
         "branches_url" : "https://api.github.com/repos/SkiingIsFun123/bitcoin/branches{/branch}",
         "clone_url" : "https://github.com/SkiingIsFun123/bitcoin.git",
         "collaborators_url" : "https://api.github.com/repos/SkiingIsFun123/bitcoin/collaborators{/collaborator}",
         "comments_url" : "https://api.github.com/repos/SkiingIsFun123/bitcoin/comments{/number}",
         "commits_url" : "https://api.github.com/repos/SkiingIsFun123/bitcoin/commits{/sha}",
         "compare_url" : "https://api.github.com/repos/SkiingIsFun123/bitcoin/compare/{base}...{head}",
         "contents_url" : "https://api.github.com/repos/SkiingIsFun123/bitcoin/contents/{+path}",
         "contributors_url" : "https://api.github.com/repos/SkiingIsFun123/bitcoin/contributors",
         "created_at" : "2022-08-15T21:08:55Z",
         "default_branch" : "master",
         "deployments_url" : "https://api.github.com/repos/SkiingIsFun123/bitcoin/deployments",
         "description" : "Bitcoin Core integration/staging tree",
         "disabled" : false,
         "downloads_url" : "https://api.github.com/repos/SkiingIsFun123/bitcoin/downloads",
         "events_url" : "https://api.github.com/repos/SkiingIsFun123/bitcoin/events",
         "fork" : true,
         "forks" : 0,
         "forks_count" : 0,
         "forks_url" : "https://api.github.com/repos/SkiingIsFun123/bitcoin/forks",
         "full_name" : "SkiingIsFun123/bitcoin",
         "git_commits_url" : "https://api.github.com/repos/SkiingIsFun123/bitcoin/git/commits{/sha}",
         "git_refs_url" : "https://api.github.com/repos/SkiingIsFun123/bitcoin/git/refs{/sha}",
         "git_tags_url" : "https://api.github.com/repos/SkiingIsFun123/bitcoin/git/tags{/sha}",
         "git_url" : "git://github.com/SkiingIsFun123/bitcoin.git",
         "has_downloads" : false,
         "has_issues" : false,
         "has_pages" : false,
         "has_projects" : true,
         "has_wiki" : false,
         "homepage" : "https://bitcoincore.org/en/download",
         "hooks_url" : "https://api.github.com/repos/SkiingIsFun123/bitcoin/hooks",
         "html_url" : "https://github.com/SkiingIsFun123/bitcoin",
         "id" : 525139700,
         "is_template" : false,
         "issue_comment_url" : "https://api.github.com/repos/SkiingIsFun123/bitcoin/issues/comments{/number}",
         "issue_events_url" : "https://api.github.com/repos/SkiingIsFun123/bitcoin/issues/events{/number}",
         "issues_url" : "https://api.github.com/repos/SkiingIsFun123/bitcoin/issues{/number}",
         "keys_url" : "https://api.github.com/repos/SkiingIsFun123/bitcoin/keys{/key_id}",
         "labels_url" : "https://api.github.com/repos/SkiingIsFun123/bitcoin/labels{/name}",
         "language" : null,
         "languages_url" : "https://api.github.com/repos/SkiingIsFun123/bitcoin/languages",
         "license" : {
            "key" : "mit",
            "name" : "MIT License",
            "node_id" : "MDc6TGljZW5zZTEz",
            "spdx_id" : "MIT",
            "url" : "https://api.github.com/licenses/mit"
         },
         "merges_url" : "https://api.github.com/repos/SkiingIsFun123/bitcoin/merges",
         "milestones_url" : "https://api.github.com/repos/SkiingIsFun123/bitcoin/milestones{/number}",
         "mirror_url" : null,
         "name" : "bitcoin",
         "node_id" : "R_kgDOH0z-9A",
         "notifications_url" : "https://api.github.com/repos/SkiingIsFun123/bitcoin/notifications{?since,all,participating}",
         "open_issues" : 0,
         "open_issues_count" : 0,
         "owner" : {
            "avatar_url" : "https://avatars.githubusercontent.com/u/101684827?v=4",
            "events_url" : "https://api.github.com/users/SkiingIsFun123/events{/privacy}",
            "followers_url" : "https://api.github.com/users/SkiingIsFun123/followers",
            "following_url" : "https://api.github.com/users/SkiingIsFun123/following{/other_user}",
            "gists_url" : "https://api.github.com/users/SkiingIsFun123/gists{/gist_id}",
            "gravatar_id" : "",
            "html_url" : "https://github.com/SkiingIsFun123",
            "id" : 101684827,
            "login" : "SkiingIsFun123",
            "node_id" : "U_kgDOBg-WWw",
            "organizations_url" : "https://api.github.com/users/SkiingIsFun123/orgs",
            "received_events_url" : "https://api.github.com/users/SkiingIsFun123/received_events",
            "repos_url" : "https://api.github.com/users/SkiingIsFun123/repos",
            "site_admin" : false,
            "starred_url" : "https://api.github.com/users/SkiingIsFun123/starred{/owner}{/repo}",
            "subscriptions_url" : "https://api.github.com/users/SkiingIsFun123/subscriptions",
            "type" : "User",
            "url" : "https://api.github.com/users/SkiingIsFun123"
         },
         "private" : false,
         "pulls_url" : "https://api.github.com/repos/SkiingIsFun123/bitcoin/pulls{/number}",
         "pushed_at" : "2022-08-15T21:11:37Z",
         "releases_url" : "https://api.github.com/repos/SkiingIsFun123/bitcoin/releases{/id}",
         "size" : 212726,
         "ssh_url" : "git@github.com:SkiingIsFun123/bitcoin.git",
         "stargazers_count" : 0,
         "stargazers_url" : "https://api.github.com/repos/SkiingIsFun123/bitcoin/stargazers",
         "statuses_url" : "https://api.github.com/repos/SkiingIsFun123/bitcoin/statuses/{sha}",
         "subscribers_url" : "https://api.github.com/repos/SkiingIsFun123/bitcoin/subscribers",
         "subscription_url" : "https://api.github.com/repos/SkiingIsFun123/bitcoin/subscription",
         "svn_url" : "https://github.com/SkiingIsFun123/bitcoin",
         "tags_url" : "https://api.github.com/repos/SkiingIsFun123/bitcoin/tags",
         "teams_url" : "https://api.github.com/repos/SkiingIsFun123/bitcoin/teams",
         "topics" : [],
         "trees_url" : "https://api.github.com/repos/SkiingIsFun123/bitcoin/git/trees{/sha}",
         "updated_at" : "2022-08-15T21:05:43Z",
         "url" : "https://api.github.com/repos/SkiingIsFun123/bitcoin",
         "visibility" : "public",
         "watchers" : 0,
         "watchers_count" : 0,
         "web_commit_signoff_required" : false
      },
      "sha" : "4a7609ebda837d99004a5ae189f551ffae5a6d82",
      "user" : {
         "avatar_url" : "https://avatars.githubusercontent.com/u/101684827?v=4",
         "events_url" : "https://api.github.com/users/SkiingIsFun123/events{/privacy}",
         "followers_url" : "https://api.github.com/users/SkiingIsFun123/followers",
         "following_url" : "https://api.github.com/users/SkiingIsFun123/following{/other_user}",
         "gists_url" : "https://api.github.com/users/SkiingIsFun123/gists{/gist_id}",
         "gravatar_id" : "",
         "html_url" : "https://github.com/SkiingIsFun123",
         "id" : 101684827,
         "login" : "SkiingIsFun123",
         "node_id" : "U_kgDOBg-WWw",
         "organizations_url" : "https://api.github.com/users/SkiingIsFun123/orgs",
         "received_events_url" : "https://api.github.com/users/SkiingIsFun123/received_events",
         "repos_url" : "https://api.github.com/users/SkiingIsFun123/repos",
         "site_admin" : false,
         "starred_url" : "https://api.github.com/users/SkiingIsFun123/starred{/owner}{/repo}",
         "subscriptions_url" : "https://api.github.com/users/SkiingIsFun123/subscriptions",
         "type" : "User",
         "url" : "https://api.github.com/users/SkiingIsFun123"
      }
   },
   "html_url" : "https://github.com/bitcoin/bitcoin/pull/25854",
   "id" : 1026891932,
   "issue_url" : "https://api.github.com/repos/bitcoin/bitcoin/issues/25854",
   "labels" : [
      {
         "color" : "02d7e1",
         "default" : false,
         "description" : null,
         "id" : 148216,
         "name" : "Docs",
         "node_id" : "MDU6TGFiZWwxNDgyMTY=",
         "url" : "https://api.github.com/repos/bitcoin/bitcoin/labels/Docs"
      }
   ],
   "locked" : false,
   "maintainer_can_modify" : true,
   "merge_commit_sha" : "1b3ad55688bd7c6c319b6a11767057ee2b25063a",
   "mergeable" : true,
   "mergeable_state" : "blocked",
   "merged" : false,
   "merged_at" : null,
   "merged_by" : null,
   "milestone" : null,
   "node_id" : "PR_kwDOABII5849NSCc",
   "number" : 25854,
   "patch_url" : "https://github.com/bitcoin/bitcoin/pull/25854.patch",
   "rebaseable" : true,
   "requested_reviewers" : [],
   "requested_teams" : [],
   "review_comment_url" : "https://api.github.com/repos/bitcoin/bitcoin/pulls/comments{/number}",
   "review_comments" : 0,
   "review_comments_url" : "https://api.github.com/repos/bitcoin/bitcoin/pulls/25854/comments",
   "state" : "open",
   "statuses_url" : "https://api.github.com/repos/bitcoin/bitcoin/statuses/4a7609ebda837d99004a5ae189f551ffae5a6d82",
   "title" : "Update tracing.md",
   "updated_at" : "2022-08-15T21:22:09Z",
   "url" : "https://api.github.com/repos/bitcoin/bitcoin/pulls/25854",
   "user" : {
      "avatar_url" : "https://avatars.githubusercontent.com/u/101684827?v=4",
      "events_url" : "https://api.github.com/users/SkiingIsFun123/events{/privacy}",
      "followers_url" : "https://api.github.com/users/SkiingIsFun123/followers",
      "following_url" : "https://api.github.com/users/SkiingIsFun123/following{/other_user}",
      "gists_url" : "https://api.github.com/users/SkiingIsFun123/gists{/gist_id}",
      "gravatar_id" : "",
      "html_url" : "https://github.com/SkiingIsFun123",
      "id" : 101684827,
      "login" : "SkiingIsFun123",
      "node_id" : "U_kgDOBg-WWw",
      "organizations_url" : "https://api.github.com/users/SkiingIsFun123/orgs",
      "received_events_url" : "https://api.github.com/users/SkiingIsFun123/received_events",
      "repos_url" : "https://api.github.com/users/SkiingIsFun123/repos",
      "site_admin" : false,
      "starred_url" : "https://api.github.com/users/SkiingIsFun123/starred{/owner}{/repo}",
      "subscriptions_url" : "https://api.github.com/users/SkiingIsFun123/subscriptions",
      "type" : "User",
      "url" : "https://api.github.com/users/SkiingIsFun123"
   }
}
