[
   {
      "_links" : {
         "html" : {
            "href" : "https://github.com/bitcoin/bitcoin/pull/25698#discussion_r928994059"
         },
         "pull_request" : {
            "href" : "https://api.github.com/repos/bitcoin/bitcoin/pulls/25698"
         },
         "self" : {
            "href" : "https://api.github.com/repos/bitcoin/bitcoin/pulls/comments/928994059"
         }
      },
      "author_association" : "MEMBER",
      "body" : "nit:\r\n```suggestion\r\n#include <cassert>\r\n```",
      "commit_id" : "132034dcae1a1b47940472e6d4f2653090241519",
      "created_at" : "2022-07-25T15:06:06Z",
      "diff_hunk" : "@@ -8,6 +8,7 @@\n #include <crypto/common.h>\n #include <crypto/chacha20.h>\n \n+#include <assert.h>",
      "html_url" : "https://github.com/bitcoin/bitcoin/pull/25698#discussion_r928994059",
      "id" : 928994059,
      "line" : null,
      "node_id" : "PRRC_kwDOABII5843X1ML",
      "original_commit_id" : "e941e929322df661880bc7158120c3f8b925e173",
      "original_line" : 11,
      "original_position" : 4,
      "original_start_line" : null,
      "path" : "src/crypto/chacha20.cpp",
      "position" : null,
      "pull_request_review_id" : 1049627445,
      "pull_request_url" : "https://api.github.com/repos/bitcoin/bitcoin/pulls/25698",
      "reactions" : {
         "+1" : 0,
         "-1" : 0,
         "confused" : 0,
         "eyes" : 0,
         "heart" : 0,
         "hooray" : 0,
         "laugh" : 0,
         "rocket" : 0,
         "total_count" : 0,
         "url" : "https://api.github.com/repos/bitcoin/bitcoin/pulls/comments/928994059/reactions"
      },
      "side" : "RIGHT",
      "start_line" : null,
      "start_side" : null,
      "updated_at" : "2022-07-25T15:06:13Z",
      "url" : "https://api.github.com/repos/bitcoin/bitcoin/pulls/comments/928994059",
      "user" : {
         "avatar_url" : "https://avatars.githubusercontent.com/u/6399679?v=4",
         "events_url" : "https://api.github.com/users/MarcoFalke/events{/privacy}",
         "followers_url" : "https://api.github.com/users/MarcoFalke/followers",
         "following_url" : "https://api.github.com/users/MarcoFalke/following{/other_user}",
         "gists_url" : "https://api.github.com/users/MarcoFalke/gists{/gist_id}",
         "gravatar_id" : "",
         "html_url" : "https://github.com/MarcoFalke",
         "id" : 6399679,
         "login" : "MarcoFalke",
         "node_id" : "MDQ6VXNlcjYzOTk2Nzk=",
         "organizations_url" : "https://api.github.com/users/MarcoFalke/orgs",
         "received_events_url" : "https://api.github.com/users/MarcoFalke/received_events",
         "repos_url" : "https://api.github.com/users/MarcoFalke/repos",
         "site_admin" : false,
         "starred_url" : "https://api.github.com/users/MarcoFalke/starred{/owner}{/repo}",
         "subscriptions_url" : "https://api.github.com/users/MarcoFalke/subscriptions",
         "type" : "User",
         "url" : "https://api.github.com/users/MarcoFalke"
      }
   },
   {
      "_links" : {
         "html" : {
            "href" : "https://github.com/bitcoin/bitcoin/pull/25698#discussion_r929003508"
         },
         "pull_request" : {
            "href" : "https://api.github.com/repos/bitcoin/bitcoin/pulls/25698"
         },
         "self" : {
            "href" : "https://api.github.com/repos/bitcoin/bitcoin/pulls/comments/929003508"
         }
      },
      "author_association" : "CONTRIBUTOR",
      "body" : "Thanks, done. For some reason there is a strong tendency towards including .h headers from the C standard library in the crypto modules. Changed to `cassert` now (also from `string.h` to `cstring`).",
      "commit_id" : "132034dcae1a1b47940472e6d4f2653090241519",
      "created_at" : "2022-07-25T15:14:45Z",
      "diff_hunk" : "@@ -8,6 +8,7 @@\n #include <crypto/common.h>\n #include <crypto/chacha20.h>\n \n+#include <assert.h>",
      "html_url" : "https://github.com/bitcoin/bitcoin/pull/25698#discussion_r929003508",
      "id" : 929003508,
      "in_reply_to_id" : 928994059,
      "line" : null,
      "node_id" : "PRRC_kwDOABII5843X3f0",
      "original_commit_id" : "e941e929322df661880bc7158120c3f8b925e173",
      "original_line" : 11,
      "original_position" : 4,
      "original_start_line" : null,
      "path" : "src/crypto/chacha20.cpp",
      "position" : null,
      "pull_request_review_id" : 1049640760,
      "pull_request_url" : "https://api.github.com/repos/bitcoin/bitcoin/pulls/25698",
      "reactions" : {
         "+1" : 0,
         "-1" : 0,
         "confused" : 0,
         "eyes" : 0,
         "heart" : 0,
         "hooray" : 0,
         "laugh" : 0,
         "rocket" : 0,
         "total_count" : 0,
         "url" : "https://api.github.com/repos/bitcoin/bitcoin/pulls/comments/929003508/reactions"
      },
      "side" : "RIGHT",
      "start_line" : null,
      "start_side" : null,
      "updated_at" : "2022-07-25T15:14:45Z",
      "url" : "https://api.github.com/repos/bitcoin/bitcoin/pulls/comments/929003508",
      "user" : {
         "avatar_url" : "https://avatars.githubusercontent.com/u/91535?v=4",
         "events_url" : "https://api.github.com/users/theStack/events{/privacy}",
         "followers_url" : "https://api.github.com/users/theStack/followers",
         "following_url" : "https://api.github.com/users/theStack/following{/other_user}",
         "gists_url" : "https://api.github.com/users/theStack/gists{/gist_id}",
         "gravatar_id" : "",
         "html_url" : "https://github.com/theStack",
         "id" : 91535,
         "login" : "theStack",
         "node_id" : "MDQ6VXNlcjkxNTM1",
         "organizations_url" : "https://api.github.com/users/theStack/orgs",
         "received_events_url" : "https://api.github.com/users/theStack/received_events",
         "repos_url" : "https://api.github.com/users/theStack/repos",
         "site_admin" : false,
         "starred_url" : "https://api.github.com/users/theStack/starred{/owner}{/repo}",
         "subscriptions_url" : "https://api.github.com/users/theStack/subscriptions",
         "type" : "User",
         "url" : "https://api.github.com/users/theStack"
      }
   },
   {
      "author_association" : "MEMBER",
      "body" : "ref: https://github.com/bitcoin/bitcoin/pull/21781",
      "created_at" : "2022-07-25T15:40:24Z",
      "html_url" : "https://github.com/bitcoin/bitcoin/pull/25698#issuecomment-1194232985",
      "id" : 1194232985,
      "issue_url" : "https://api.github.com/repos/bitcoin/bitcoin/issues/25698",
      "node_id" : "IC_kwDOABII585HLoyZ",
      "performed_via_github_app" : null,
      "reactions" : {
         "+1" : 0,
         "-1" : 0,
         "confused" : 0,
         "eyes" : 0,
         "heart" : 0,
         "hooray" : 0,
         "laugh" : 0,
         "rocket" : 0,
         "total_count" : 0,
         "url" : "https://api.github.com/repos/bitcoin/bitcoin/issues/comments/1194232985/reactions"
      },
      "updated_at" : "2022-07-25T15:40:24Z",
      "url" : "https://api.github.com/repos/bitcoin/bitcoin/issues/comments/1194232985",
      "user" : {
         "avatar_url" : "https://avatars.githubusercontent.com/u/6399679?v=4",
         "events_url" : "https://api.github.com/users/MarcoFalke/events{/privacy}",
         "followers_url" : "https://api.github.com/users/MarcoFalke/followers",
         "following_url" : "https://api.github.com/users/MarcoFalke/following{/other_user}",
         "gists_url" : "https://api.github.com/users/MarcoFalke/gists{/gist_id}",
         "gravatar_id" : "",
         "html_url" : "https://github.com/MarcoFalke",
         "id" : 6399679,
         "login" : "MarcoFalke",
         "node_id" : "MDQ6VXNlcjYzOTk2Nzk=",
         "organizations_url" : "https://api.github.com/users/MarcoFalke/orgs",
         "received_events_url" : "https://api.github.com/users/MarcoFalke/received_events",
         "repos_url" : "https://api.github.com/users/MarcoFalke/repos",
         "site_admin" : false,
         "starred_url" : "https://api.github.com/users/MarcoFalke/starred{/owner}{/repo}",
         "subscriptions_url" : "https://api.github.com/users/MarcoFalke/subscriptions",
         "type" : "User",
         "url" : "https://api.github.com/users/MarcoFalke"
      }
   },
   {
      "author_association" : "CONTRIBUTOR",
      "body" : "<!--e57a25ab6845829454e8d69fc972939a-->\n\nThe following sections might be updated with supplementary metadata relevant to reviewers and maintainers.\n\n<!--174a7506f384e20aa4161008e828411d-->\n### Conflicts\nReviewers, this pull request conflicts with the following ones:\n\n* [#25361](https://github.com/bitcoin/bitcoin/pull/25361) (BIP324: Cipher suite by dhruv)\n* [#25354](https://github.com/bitcoin/bitcoin/pull/25354) ([crypto] Reduce wasted pseudorandom bytes in ChaCha20 by dhruv)\n* [#25172](https://github.com/bitcoin/bitcoin/pull/25172) (refactor: use std:: prefix for std lib funcs by fanquake)\n* [#23561](https://github.com/bitcoin/bitcoin/pull/23561) (BIP324: Handshake prerequisites by dhruv)\n* [#23233](https://github.com/bitcoin/bitcoin/pull/23233) (BIP324: Add encrypted p2p transport {de}serializer by dhruv)\n\nIf you consider this pull request important, please also help to review the conflicting pull requests. Ideally, start with the one that should be merged first.",
      "created_at" : "2022-07-25T18:23:06Z",
      "html_url" : "https://github.com/bitcoin/bitcoin/pull/25698#issuecomment-1194446870",
      "id" : 1194446870,
      "issue_url" : "https://api.github.com/repos/bitcoin/bitcoin/issues/25698",
      "node_id" : "IC_kwDOABII585HMdAW",
      "performed_via_github_app" : null,
      "reactions" : {
         "+1" : 0,
         "-1" : 0,
         "confused" : 0,
         "eyes" : 0,
         "heart" : 0,
         "hooray" : 0,
         "laugh" : 0,
         "rocket" : 0,
         "total_count" : 0,
         "url" : "https://api.github.com/repos/bitcoin/bitcoin/issues/comments/1194446870/reactions"
      },
      "updated_at" : "2022-07-25T18:23:06Z",
      "url" : "https://api.github.com/repos/bitcoin/bitcoin/issues/comments/1194446870",
      "user" : {
         "avatar_url" : "https://avatars.githubusercontent.com/u/39886733?v=4",
         "events_url" : "https://api.github.com/users/DrahtBot/events{/privacy}",
         "followers_url" : "https://api.github.com/users/DrahtBot/followers",
         "following_url" : "https://api.github.com/users/DrahtBot/following{/other_user}",
         "gists_url" : "https://api.github.com/users/DrahtBot/gists{/gist_id}",
         "gravatar_id" : "",
         "html_url" : "https://github.com/DrahtBot",
         "id" : 39886733,
         "login" : "DrahtBot",
         "node_id" : "MDQ6VXNlcjM5ODg2NzMz",
         "organizations_url" : "https://api.github.com/users/DrahtBot/orgs",
         "received_events_url" : "https://api.github.com/users/DrahtBot/received_events",
         "repos_url" : "https://api.github.com/users/DrahtBot/repos",
         "site_admin" : false,
         "starred_url" : "https://api.github.com/users/DrahtBot/starred{/owner}{/repo}",
         "subscriptions_url" : "https://api.github.com/users/DrahtBot/subscriptions",
         "type" : "User",
         "url" : "https://api.github.com/users/DrahtBot"
      }
   },
   {
      "author_association" : "MEMBER",
      "body" : "To simplify things, I think we could also just drop support for 16-byte keys and only permit 32-byte ones.",
      "created_at" : "2022-07-26T11:36:50Z",
      "html_url" : "https://github.com/bitcoin/bitcoin/pull/25698#issuecomment-1195369032",
      "id" : 1195369032,
      "issue_url" : "https://api.github.com/repos/bitcoin/bitcoin/issues/25698",
      "node_id" : "IC_kwDOABII585HP-JI",
      "performed_via_github_app" : null,
      "reactions" : {
         "+1" : 1,
         "-1" : 0,
         "confused" : 0,
         "eyes" : 0,
         "heart" : 0,
         "hooray" : 0,
         "laugh" : 0,
         "rocket" : 0,
         "total_count" : 1,
         "url" : "https://api.github.com/repos/bitcoin/bitcoin/issues/comments/1195369032/reactions"
      },
      "updated_at" : "2022-07-26T11:36:50Z",
      "url" : "https://api.github.com/repos/bitcoin/bitcoin/issues/comments/1195369032",
      "user" : {
         "avatar_url" : "https://avatars.githubusercontent.com/u/548488?v=4",
         "events_url" : "https://api.github.com/users/sipa/events{/privacy}",
         "followers_url" : "https://api.github.com/users/sipa/followers",
         "following_url" : "https://api.github.com/users/sipa/following{/other_user}",
         "gists_url" : "https://api.github.com/users/sipa/gists{/gist_id}",
         "gravatar_id" : "",
         "html_url" : "https://github.com/sipa",
         "id" : 548488,
         "login" : "sipa",
         "node_id" : "MDQ6VXNlcjU0ODQ4OA==",
         "organizations_url" : "https://api.github.com/users/sipa/orgs",
         "received_events_url" : "https://api.github.com/users/sipa/received_events",
         "repos_url" : "https://api.github.com/users/sipa/repos",
         "site_admin" : false,
         "starred_url" : "https://api.github.com/users/sipa/starred{/owner}{/repo}",
         "subscriptions_url" : "https://api.github.com/users/sipa/subscriptions",
         "type" : "User",
         "url" : "https://api.github.com/users/sipa"
      }
   },
   {
      "author_association" : "CONTRIBUTOR",
      "body" : "> To simplify things, I think we could also just drop support for 16-byte keys and only permit 32-byte ones.\r\n\r\nGood idea, opened another pull for that: #25712\r\nI'm still keeping this PR open right now, for the unlikely case that we would still need to support 16-byte keys for some reason.",
      "created_at" : "2022-07-26T13:45:42Z",
      "html_url" : "https://github.com/bitcoin/bitcoin/pull/25698#issuecomment-1195506089",
      "id" : 1195506089,
      "issue_url" : "https://api.github.com/repos/bitcoin/bitcoin/issues/25698",
      "node_id" : "IC_kwDOABII585HQfmp",
      "performed_via_github_app" : null,
      "reactions" : {
         "+1" : 0,
         "-1" : 0,
         "confused" : 0,
         "eyes" : 0,
         "heart" : 0,
         "hooray" : 0,
         "laugh" : 0,
         "rocket" : 0,
         "total_count" : 0,
         "url" : "https://api.github.com/repos/bitcoin/bitcoin/issues/comments/1195506089/reactions"
      },
      "updated_at" : "2022-07-26T13:45:42Z",
      "url" : "https://api.github.com/repos/bitcoin/bitcoin/issues/comments/1195506089",
      "user" : {
         "avatar_url" : "https://avatars.githubusercontent.com/u/91535?v=4",
         "events_url" : "https://api.github.com/users/theStack/events{/privacy}",
         "followers_url" : "https://api.github.com/users/theStack/followers",
         "following_url" : "https://api.github.com/users/theStack/following{/other_user}",
         "gists_url" : "https://api.github.com/users/theStack/gists{/gist_id}",
         "gravatar_id" : "",
         "html_url" : "https://github.com/theStack",
         "id" : 91535,
         "login" : "theStack",
         "node_id" : "MDQ6VXNlcjkxNTM1",
         "organizations_url" : "https://api.github.com/users/theStack/orgs",
         "received_events_url" : "https://api.github.com/users/theStack/received_events",
         "repos_url" : "https://api.github.com/users/theStack/repos",
         "site_admin" : false,
         "starred_url" : "https://api.github.com/users/theStack/starred{/owner}{/repo}",
         "subscriptions_url" : "https://api.github.com/users/theStack/subscriptions",
         "type" : "User",
         "url" : "https://api.github.com/users/theStack"
      }
   }
]
