[
   {
      "_links" : {
         "html" : {
            "href" : "https://github.com/bitcoin/bitcoin/pull/25696#discussion_r929152069"
         },
         "pull_request" : {
            "href" : "https://api.github.com/repos/bitcoin/bitcoin/pulls/25696"
         },
         "self" : {
            "href" : "https://api.github.com/repos/bitcoin/bitcoin/pulls/comments/929152069"
         }
      },
      "author_association" : "MEMBER",
      "body" : "This test is too simplistic/fragile and will fail to detect compatibility correctly.\r\n\r\nSee the test I have in #25111",
      "commit_id" : "94bbce8f4b7d33ab60406fd8a80748fa69eafea7",
      "created_at" : "2022-07-25T17:55:19Z",
      "diff_hunk" : "@@ -1476,45 +1476,33 @@ if test \"$use_boost\" = \"yes\"; then\n fi\n \n if test \"$use_external_signer\" != \"no\"; then\n-  case $host in\n-    *mingw*)\n-      dnl Boost Process uses Boost Filesystem when targeting Windows. Also,\n-      dnl since Boost 1.71.0, Process does not work with mingw-w64 without\n-      dnl workarounds. See 67669ab425b52a2b6be3d2f3b3b7e3939b676a2c.\n-      if test \"$use_external_signer\" = \"yes\"; then\n-        AC_MSG_ERROR([External signing is not supported on Windows])\n-      fi\n-      use_external_signer=\"no\";\n-    ;;\n-    *)\n-      AC_MSG_CHECKING([whether Boost.Process can be used])\n-      TEMP_CXXFLAGS=\"$CXXFLAGS\"\n-      dnl Boost 1.78 requires the following workaround.\n-      dnl See: https://github.com/boostorg/process/issues/235\n-      CXXFLAGS=\"$CXXFLAGS -Wno-error=narrowing\"\n-      TEMP_CPPFLAGS=\"$CPPFLAGS\"\n-      CPPFLAGS=\"$CPPFLAGS $BOOST_CPPFLAGS\"\n-      TEMP_LDFLAGS=\"$LDFLAGS\"\n-      dnl Boost 1.73 and older require the following workaround.\n-      LDFLAGS=\"$LDFLAGS $PTHREAD_CFLAGS\"\n-      AC_LINK_IFELSE([AC_LANG_PROGRAM([[#include <boost/process.hpp>]])],\n-        [have_boost_process=\"yes\"],\n-        [have_boost_process=\"no\"])\n-      LDFLAGS=\"$TEMP_LDFLAGS\"\n-      CPPFLAGS=\"$TEMP_CPPFLAGS\"\n-      CXXFLAGS=\"$TEMP_CXXFLAGS\"\n-      AC_MSG_RESULT([$have_boost_process])\n-      if test \"$have_boost_process\" = \"yes\"; then\n-        use_external_signer=\"yes\"\n-        AC_DEFINE([ENABLE_EXTERNAL_SIGNER], [1], [Define if external signer support is enabled])\n-      else\n-        if test \"$use_external_signer\" = \"yes\"; then\n-          AC_MSG_ERROR([External signing is not supported for this Boost version])\n-        fi\n-        use_external_signer=\"no\";\n-      fi\n-    ;;\n-  esac\n+  AC_MSG_CHECKING([whether Boost.Process can be used])\n+  TEMP_CXXFLAGS=\"$CXXFLAGS\"\n+  dnl Boost 1.78 requires the following workaround.\n+  dnl See: https://github.com/boostorg/process/issues/235\n+  CXXFLAGS=\"$CXXFLAGS -Wno-error=narrowing\"\n+  TEMP_CPPFLAGS=\"$CPPFLAGS\"\n+  CPPFLAGS=\"$CPPFLAGS $BOOST_CPPFLAGS\"\n+  TEMP_LDFLAGS=\"$LDFLAGS\"\n+  dnl Boost 1.73 and older require the following workaround.\n+  LDFLAGS=\"$LDFLAGS $PTHREAD_CFLAGS\"\n+  AC_LINK_IFELSE([AC_LANG_PROGRAM([[#include <boost/process.hpp>]])],",
      "html_url" : "https://github.com/bitcoin/bitcoin/pull/25696#discussion_r929152069",
      "id" : 929152069,
      "line" : 1489,
      "node_id" : "PRRC_kwDOABII5843YbxF",
      "original_commit_id" : "94bbce8f4b7d33ab60406fd8a80748fa69eafea7",
      "original_line" : 1489,
      "original_position" : 53,
      "original_start_line" : null,
      "path" : "configure.ac",
      "position" : 53,
      "pull_request_review_id" : 1049849401,
      "pull_request_url" : "https://api.github.com/repos/bitcoin/bitcoin/pulls/25696",
      "reactions" : {
         "+1" : 0,
         "-1" : 0,
         "confused" : 0,
         "eyes" : 0,
         "heart" : 0,
         "hooray" : 0,
         "laugh" : 0,
         "rocket" : 0,
         "total_count" : 0,
         "url" : "https://api.github.com/repos/bitcoin/bitcoin/pulls/comments/929152069/reactions"
      },
      "side" : "RIGHT",
      "start_line" : null,
      "start_side" : null,
      "updated_at" : "2022-07-25T17:55:23Z",
      "url" : "https://api.github.com/repos/bitcoin/bitcoin/pulls/comments/929152069",
      "user" : {
         "avatar_url" : "https://avatars.githubusercontent.com/u/1095675?v=4",
         "events_url" : "https://api.github.com/users/luke-jr/events{/privacy}",
         "followers_url" : "https://api.github.com/users/luke-jr/followers",
         "following_url" : "https://api.github.com/users/luke-jr/following{/other_user}",
         "gists_url" : "https://api.github.com/users/luke-jr/gists{/gist_id}",
         "gravatar_id" : "",
         "html_url" : "https://github.com/luke-jr",
         "id" : 1095675,
         "login" : "luke-jr",
         "node_id" : "MDQ6VXNlcjEwOTU2NzU=",
         "organizations_url" : "https://api.github.com/users/luke-jr/orgs",
         "received_events_url" : "https://api.github.com/users/luke-jr/received_events",
         "repos_url" : "https://api.github.com/users/luke-jr/repos",
         "site_admin" : false,
         "starred_url" : "https://api.github.com/users/luke-jr/starred{/owner}{/repo}",
         "subscriptions_url" : "https://api.github.com/users/luke-jr/subscriptions",
         "type" : "User",
         "url" : "https://api.github.com/users/luke-jr"
      }
   },
   {
      "author_association" : "CONTRIBUTOR",
      "body" : "<!--e57a25ab6845829454e8d69fc972939a-->\n\nThe following sections might be updated with supplementary metadata relevant to reviewers and maintainers.\n\n<!--174a7506f384e20aa4161008e828411d-->\n### Conflicts\nNo conflicts as of last run.",
      "created_at" : "2022-07-25T18:26:10Z",
      "html_url" : "https://github.com/bitcoin/bitcoin/pull/25696#issuecomment-1194450214",
      "id" : 1194450214,
      "issue_url" : "https://api.github.com/repos/bitcoin/bitcoin/issues/25696",
      "node_id" : "IC_kwDOABII585HMd0m",
      "performed_via_github_app" : null,
      "reactions" : {
         "+1" : 0,
         "-1" : 0,
         "confused" : 0,
         "eyes" : 0,
         "heart" : 0,
         "hooray" : 0,
         "laugh" : 0,
         "rocket" : 0,
         "total_count" : 0,
         "url" : "https://api.github.com/repos/bitcoin/bitcoin/issues/comments/1194450214/reactions"
      },
      "updated_at" : "2022-07-27T21:28:45Z",
      "url" : "https://api.github.com/repos/bitcoin/bitcoin/issues/comments/1194450214",
      "user" : {
         "avatar_url" : "https://avatars.githubusercontent.com/u/39886733?v=4",
         "events_url" : "https://api.github.com/users/DrahtBot/events{/privacy}",
         "followers_url" : "https://api.github.com/users/DrahtBot/followers",
         "following_url" : "https://api.github.com/users/DrahtBot/following{/other_user}",
         "gists_url" : "https://api.github.com/users/DrahtBot/gists{/gist_id}",
         "gravatar_id" : "",
         "html_url" : "https://github.com/DrahtBot",
         "id" : 39886733,
         "login" : "DrahtBot",
         "node_id" : "MDQ6VXNlcjM5ODg2NzMz",
         "organizations_url" : "https://api.github.com/users/DrahtBot/orgs",
         "received_events_url" : "https://api.github.com/users/DrahtBot/received_events",
         "repos_url" : "https://api.github.com/users/DrahtBot/repos",
         "site_admin" : false,
         "starred_url" : "https://api.github.com/users/DrahtBot/starred{/owner}{/repo}",
         "subscriptions_url" : "https://api.github.com/users/DrahtBot/subscriptions",
         "type" : "User",
         "url" : "https://api.github.com/users/DrahtBot"
      }
   },
   {
      "_links" : {
         "html" : {
            "href" : "https://github.com/bitcoin/bitcoin/pull/25696#discussion_r929977999"
         },
         "pull_request" : {
            "href" : "https://api.github.com/repos/bitcoin/bitcoin/pulls/25696"
         },
         "self" : {
            "href" : "https://api.github.com/repos/bitcoin/bitcoin/pulls/comments/929977999"
         }
      },
      "author_association" : "MEMBER",
      "body" : "Thank you @luke-jr! Cherry-picked your commit from #25111.",
      "commit_id" : "b08deecc0905317940b9a1296eb883fd01ace339",
      "created_at" : "2022-07-26T13:39:15Z",
      "diff_hunk" : "@@ -1476,45 +1476,33 @@ if test \"$use_boost\" = \"yes\"; then\n fi\n \n if test \"$use_external_signer\" != \"no\"; then\n-  case $host in\n-    *mingw*)\n-      dnl Boost Process uses Boost Filesystem when targeting Windows. Also,\n-      dnl since Boost 1.71.0, Process does not work with mingw-w64 without\n-      dnl workarounds. See 67669ab425b52a2b6be3d2f3b3b7e3939b676a2c.\n-      if test \"$use_external_signer\" = \"yes\"; then\n-        AC_MSG_ERROR([External signing is not supported on Windows])\n-      fi\n-      use_external_signer=\"no\";\n-    ;;\n-    *)\n-      AC_MSG_CHECKING([whether Boost.Process can be used])\n-      TEMP_CXXFLAGS=\"$CXXFLAGS\"\n-      dnl Boost 1.78 requires the following workaround.\n-      dnl See: https://github.com/boostorg/process/issues/235\n-      CXXFLAGS=\"$CXXFLAGS -Wno-error=narrowing\"\n-      TEMP_CPPFLAGS=\"$CPPFLAGS\"\n-      CPPFLAGS=\"$CPPFLAGS $BOOST_CPPFLAGS\"\n-      TEMP_LDFLAGS=\"$LDFLAGS\"\n-      dnl Boost 1.73 and older require the following workaround.\n-      LDFLAGS=\"$LDFLAGS $PTHREAD_CFLAGS\"\n-      AC_LINK_IFELSE([AC_LANG_PROGRAM([[#include <boost/process.hpp>]])],\n-        [have_boost_process=\"yes\"],\n-        [have_boost_process=\"no\"])\n-      LDFLAGS=\"$TEMP_LDFLAGS\"\n-      CPPFLAGS=\"$TEMP_CPPFLAGS\"\n-      CXXFLAGS=\"$TEMP_CXXFLAGS\"\n-      AC_MSG_RESULT([$have_boost_process])\n-      if test \"$have_boost_process\" = \"yes\"; then\n-        use_external_signer=\"yes\"\n-        AC_DEFINE([ENABLE_EXTERNAL_SIGNER], [1], [Define if external signer support is enabled])\n-      else\n-        if test \"$use_external_signer\" = \"yes\"; then\n-          AC_MSG_ERROR([External signing is not supported for this Boost version])\n-        fi\n-        use_external_signer=\"no\";\n-      fi\n-    ;;\n-  esac\n+  AC_MSG_CHECKING([whether Boost.Process can be used])\n+  TEMP_CXXFLAGS=\"$CXXFLAGS\"\n+  dnl Boost 1.78 requires the following workaround.\n+  dnl See: https://github.com/boostorg/process/issues/235\n+  CXXFLAGS=\"$CXXFLAGS -Wno-error=narrowing\"\n+  TEMP_CPPFLAGS=\"$CPPFLAGS\"\n+  CPPFLAGS=\"$CPPFLAGS $BOOST_CPPFLAGS\"\n+  TEMP_LDFLAGS=\"$LDFLAGS\"\n+  dnl Boost 1.73 and older require the following workaround.\n+  LDFLAGS=\"$LDFLAGS $PTHREAD_CFLAGS\"\n+  AC_LINK_IFELSE([AC_LANG_PROGRAM([[#include <boost/process.hpp>]])],",
      "html_url" : "https://github.com/bitcoin/bitcoin/pull/25696#discussion_r929977999",
      "id" : 929977999,
      "in_reply_to_id" : 929152069,
      "line" : null,
      "node_id" : "PRRC_kwDOABII5843blaP",
      "original_commit_id" : "94bbce8f4b7d33ab60406fd8a80748fa69eafea7",
      "original_line" : 1489,
      "original_position" : 53,
      "original_start_line" : null,
      "path" : "configure.ac",
      "position" : null,
      "pull_request_review_id" : 1051002486,
      "pull_request_url" : "https://api.github.com/repos/bitcoin/bitcoin/pulls/25696",
      "reactions" : {
         "+1" : 0,
         "-1" : 0,
         "confused" : 0,
         "eyes" : 0,
         "heart" : 0,
         "hooray" : 0,
         "laugh" : 0,
         "rocket" : 0,
         "total_count" : 0,
         "url" : "https://api.github.com/repos/bitcoin/bitcoin/pulls/comments/929977999/reactions"
      },
      "side" : "RIGHT",
      "start_line" : null,
      "start_side" : null,
      "updated_at" : "2022-07-26T13:39:16Z",
      "url" : "https://api.github.com/repos/bitcoin/bitcoin/pulls/comments/929977999",
      "user" : {
         "avatar_url" : "https://avatars.githubusercontent.com/u/32963518?v=4",
         "events_url" : "https://api.github.com/users/hebasto/events{/privacy}",
         "followers_url" : "https://api.github.com/users/hebasto/followers",
         "following_url" : "https://api.github.com/users/hebasto/following{/other_user}",
         "gists_url" : "https://api.github.com/users/hebasto/gists{/gist_id}",
         "gravatar_id" : "",
         "html_url" : "https://github.com/hebasto",
         "id" : 32963518,
         "login" : "hebasto",
         "node_id" : "MDQ6VXNlcjMyOTYzNTE4",
         "organizations_url" : "https://api.github.com/users/hebasto/orgs",
         "received_events_url" : "https://api.github.com/users/hebasto/received_events",
         "repos_url" : "https://api.github.com/users/hebasto/repos",
         "site_admin" : false,
         "starred_url" : "https://api.github.com/users/hebasto/starred{/owner}{/repo}",
         "subscriptions_url" : "https://api.github.com/users/hebasto/subscriptions",
         "type" : "User",
         "url" : "https://api.github.com/users/hebasto"
      }
   },
   {
      "_links" : {
         "html" : {
            "href" : "https://github.com/bitcoin/bitcoin/pull/25696#discussion_r930234843"
         },
         "pull_request" : {
            "href" : "https://api.github.com/repos/bitcoin/bitcoin/pulls/25696"
         },
         "self" : {
            "href" : "https://api.github.com/repos/bitcoin/bitcoin/pulls/comments/930234843"
         }
      },
      "author_association" : "MEMBER",
      "body" : "Note there were 2 fixup commits as well. I think a7fa0da8611eb35ecd24284392f062a8ec47d037 might not be applicable here, but we probably need 06548df560f61c9deb5be09f72dd079833ec3c6b?",
      "commit_id" : "b08deecc0905317940b9a1296eb883fd01ace339",
      "created_at" : "2022-07-26T17:24:44Z",
      "diff_hunk" : "@@ -1476,45 +1476,33 @@ if test \"$use_boost\" = \"yes\"; then\n fi\n \n if test \"$use_external_signer\" != \"no\"; then\n-  case $host in\n-    *mingw*)\n-      dnl Boost Process uses Boost Filesystem when targeting Windows. Also,\n-      dnl since Boost 1.71.0, Process does not work with mingw-w64 without\n-      dnl workarounds. See 67669ab425b52a2b6be3d2f3b3b7e3939b676a2c.\n-      if test \"$use_external_signer\" = \"yes\"; then\n-        AC_MSG_ERROR([External signing is not supported on Windows])\n-      fi\n-      use_external_signer=\"no\";\n-    ;;\n-    *)\n-      AC_MSG_CHECKING([whether Boost.Process can be used])\n-      TEMP_CXXFLAGS=\"$CXXFLAGS\"\n-      dnl Boost 1.78 requires the following workaround.\n-      dnl See: https://github.com/boostorg/process/issues/235\n-      CXXFLAGS=\"$CXXFLAGS -Wno-error=narrowing\"\n-      TEMP_CPPFLAGS=\"$CPPFLAGS\"\n-      CPPFLAGS=\"$CPPFLAGS $BOOST_CPPFLAGS\"\n-      TEMP_LDFLAGS=\"$LDFLAGS\"\n-      dnl Boost 1.73 and older require the following workaround.\n-      LDFLAGS=\"$LDFLAGS $PTHREAD_CFLAGS\"\n-      AC_LINK_IFELSE([AC_LANG_PROGRAM([[#include <boost/process.hpp>]])],\n-        [have_boost_process=\"yes\"],\n-        [have_boost_process=\"no\"])\n-      LDFLAGS=\"$TEMP_LDFLAGS\"\n-      CPPFLAGS=\"$TEMP_CPPFLAGS\"\n-      CXXFLAGS=\"$TEMP_CXXFLAGS\"\n-      AC_MSG_RESULT([$have_boost_process])\n-      if test \"$have_boost_process\" = \"yes\"; then\n-        use_external_signer=\"yes\"\n-        AC_DEFINE([ENABLE_EXTERNAL_SIGNER], [1], [Define if external signer support is enabled])\n-      else\n-        if test \"$use_external_signer\" = \"yes\"; then\n-          AC_MSG_ERROR([External signing is not supported for this Boost version])\n-        fi\n-        use_external_signer=\"no\";\n-      fi\n-    ;;\n-  esac\n+  AC_MSG_CHECKING([whether Boost.Process can be used])\n+  TEMP_CXXFLAGS=\"$CXXFLAGS\"\n+  dnl Boost 1.78 requires the following workaround.\n+  dnl See: https://github.com/boostorg/process/issues/235\n+  CXXFLAGS=\"$CXXFLAGS -Wno-error=narrowing\"\n+  TEMP_CPPFLAGS=\"$CPPFLAGS\"\n+  CPPFLAGS=\"$CPPFLAGS $BOOST_CPPFLAGS\"\n+  TEMP_LDFLAGS=\"$LDFLAGS\"\n+  dnl Boost 1.73 and older require the following workaround.\n+  LDFLAGS=\"$LDFLAGS $PTHREAD_CFLAGS\"\n+  AC_LINK_IFELSE([AC_LANG_PROGRAM([[#include <boost/process.hpp>]])],",
      "html_url" : "https://github.com/bitcoin/bitcoin/pull/25696#discussion_r930234843",
      "id" : 930234843,
      "in_reply_to_id" : 929152069,
      "line" : null,
      "node_id" : "PRRC_kwDOABII5843ckHb",
      "original_commit_id" : "94bbce8f4b7d33ab60406fd8a80748fa69eafea7",
      "original_line" : 1489,
      "original_position" : 53,
      "original_start_line" : null,
      "path" : "configure.ac",
      "position" : null,
      "pull_request_review_id" : 1051366520,
      "pull_request_url" : "https://api.github.com/repos/bitcoin/bitcoin/pulls/25696",
      "reactions" : {
         "+1" : 0,
         "-1" : 0,
         "confused" : 0,
         "eyes" : 0,
         "heart" : 0,
         "hooray" : 0,
         "laugh" : 0,
         "rocket" : 0,
         "total_count" : 0,
         "url" : "https://api.github.com/repos/bitcoin/bitcoin/pulls/comments/930234843/reactions"
      },
      "side" : "RIGHT",
      "start_line" : null,
      "start_side" : null,
      "updated_at" : "2022-07-26T17:24:44Z",
      "url" : "https://api.github.com/repos/bitcoin/bitcoin/pulls/comments/930234843",
      "user" : {
         "avatar_url" : "https://avatars.githubusercontent.com/u/1095675?v=4",
         "events_url" : "https://api.github.com/users/luke-jr/events{/privacy}",
         "followers_url" : "https://api.github.com/users/luke-jr/followers",
         "following_url" : "https://api.github.com/users/luke-jr/following{/other_user}",
         "gists_url" : "https://api.github.com/users/luke-jr/gists{/gist_id}",
         "gravatar_id" : "",
         "html_url" : "https://github.com/luke-jr",
         "id" : 1095675,
         "login" : "luke-jr",
         "node_id" : "MDQ6VXNlcjEwOTU2NzU=",
         "organizations_url" : "https://api.github.com/users/luke-jr/orgs",
         "received_events_url" : "https://api.github.com/users/luke-jr/received_events",
         "repos_url" : "https://api.github.com/users/luke-jr/repos",
         "site_admin" : false,
         "starred_url" : "https://api.github.com/users/luke-jr/starred{/owner}{/repo}",
         "subscriptions_url" : "https://api.github.com/users/luke-jr/subscriptions",
         "type" : "User",
         "url" : "https://api.github.com/users/luke-jr"
      }
   },
   {
      "_links" : {
         "html" : {
            "href" : "https://github.com/bitcoin/bitcoin/pull/25696#discussion_r930849393"
         },
         "pull_request" : {
            "href" : "https://api.github.com/repos/bitcoin/bitcoin/pulls/25696"
         },
         "self" : {
            "href" : "https://api.github.com/repos/bitcoin/bitcoin/pulls/comments/930849393"
         }
      },
      "author_association" : "MEMBER",
      "body" : "> Note there were 2 fixup commits as well. I think [a7fa0da](https://github.com/bitcoin/bitcoin/commit/a7fa0da8611eb35ecd24284392f062a8ec47d037) might not be applicable here\r\n\r\nFor sure, since v1.78.0. See https://github.com/boostorg/process/pull/171.\r\n\r\n> but we probably need [06548df](https://github.com/bitcoin/bitcoin/commit/06548df560f61c9deb5be09f72dd079833ec3c6b)?\r\n\r\nThat issue has also been fixed since v1.78.0. See https://github.com/boostorg/process/pull/215.",
      "commit_id" : "b08deecc0905317940b9a1296eb883fd01ace339",
      "created_at" : "2022-07-27T09:41:16Z",
      "diff_hunk" : "@@ -1476,45 +1476,33 @@ if test \"$use_boost\" = \"yes\"; then\n fi\n \n if test \"$use_external_signer\" != \"no\"; then\n-  case $host in\n-    *mingw*)\n-      dnl Boost Process uses Boost Filesystem when targeting Windows. Also,\n-      dnl since Boost 1.71.0, Process does not work with mingw-w64 without\n-      dnl workarounds. See 67669ab425b52a2b6be3d2f3b3b7e3939b676a2c.\n-      if test \"$use_external_signer\" = \"yes\"; then\n-        AC_MSG_ERROR([External signing is not supported on Windows])\n-      fi\n-      use_external_signer=\"no\";\n-    ;;\n-    *)\n-      AC_MSG_CHECKING([whether Boost.Process can be used])\n-      TEMP_CXXFLAGS=\"$CXXFLAGS\"\n-      dnl Boost 1.78 requires the following workaround.\n-      dnl See: https://github.com/boostorg/process/issues/235\n-      CXXFLAGS=\"$CXXFLAGS -Wno-error=narrowing\"\n-      TEMP_CPPFLAGS=\"$CPPFLAGS\"\n-      CPPFLAGS=\"$CPPFLAGS $BOOST_CPPFLAGS\"\n-      TEMP_LDFLAGS=\"$LDFLAGS\"\n-      dnl Boost 1.73 and older require the following workaround.\n-      LDFLAGS=\"$LDFLAGS $PTHREAD_CFLAGS\"\n-      AC_LINK_IFELSE([AC_LANG_PROGRAM([[#include <boost/process.hpp>]])],\n-        [have_boost_process=\"yes\"],\n-        [have_boost_process=\"no\"])\n-      LDFLAGS=\"$TEMP_LDFLAGS\"\n-      CPPFLAGS=\"$TEMP_CPPFLAGS\"\n-      CXXFLAGS=\"$TEMP_CXXFLAGS\"\n-      AC_MSG_RESULT([$have_boost_process])\n-      if test \"$have_boost_process\" = \"yes\"; then\n-        use_external_signer=\"yes\"\n-        AC_DEFINE([ENABLE_EXTERNAL_SIGNER], [1], [Define if external signer support is enabled])\n-      else\n-        if test \"$use_external_signer\" = \"yes\"; then\n-          AC_MSG_ERROR([External signing is not supported for this Boost version])\n-        fi\n-        use_external_signer=\"no\";\n-      fi\n-    ;;\n-  esac\n+  AC_MSG_CHECKING([whether Boost.Process can be used])\n+  TEMP_CXXFLAGS=\"$CXXFLAGS\"\n+  dnl Boost 1.78 requires the following workaround.\n+  dnl See: https://github.com/boostorg/process/issues/235\n+  CXXFLAGS=\"$CXXFLAGS -Wno-error=narrowing\"\n+  TEMP_CPPFLAGS=\"$CPPFLAGS\"\n+  CPPFLAGS=\"$CPPFLAGS $BOOST_CPPFLAGS\"\n+  TEMP_LDFLAGS=\"$LDFLAGS\"\n+  dnl Boost 1.73 and older require the following workaround.\n+  LDFLAGS=\"$LDFLAGS $PTHREAD_CFLAGS\"\n+  AC_LINK_IFELSE([AC_LANG_PROGRAM([[#include <boost/process.hpp>]])],",
      "html_url" : "https://github.com/bitcoin/bitcoin/pull/25696#discussion_r930849393",
      "id" : 930849393,
      "in_reply_to_id" : 929152069,
      "line" : null,
      "node_id" : "PRRC_kwDOABII5843e6Jx",
      "original_commit_id" : "94bbce8f4b7d33ab60406fd8a80748fa69eafea7",
      "original_line" : 1489,
      "original_position" : 53,
      "original_start_line" : null,
      "path" : "configure.ac",
      "position" : null,
      "pull_request_review_id" : 1052206166,
      "pull_request_url" : "https://api.github.com/repos/bitcoin/bitcoin/pulls/25696",
      "reactions" : {
         "+1" : 0,
         "-1" : 0,
         "confused" : 0,
         "eyes" : 0,
         "heart" : 0,
         "hooray" : 0,
         "laugh" : 0,
         "rocket" : 0,
         "total_count" : 0,
         "url" : "https://api.github.com/repos/bitcoin/bitcoin/pulls/comments/930849393/reactions"
      },
      "side" : "RIGHT",
      "start_line" : null,
      "start_side" : null,
      "updated_at" : "2022-07-27T09:41:16Z",
      "url" : "https://api.github.com/repos/bitcoin/bitcoin/pulls/comments/930849393",
      "user" : {
         "avatar_url" : "https://avatars.githubusercontent.com/u/32963518?v=4",
         "events_url" : "https://api.github.com/users/hebasto/events{/privacy}",
         "followers_url" : "https://api.github.com/users/hebasto/followers",
         "following_url" : "https://api.github.com/users/hebasto/following{/other_user}",
         "gists_url" : "https://api.github.com/users/hebasto/gists{/gist_id}",
         "gravatar_id" : "",
         "html_url" : "https://github.com/hebasto",
         "id" : 32963518,
         "login" : "hebasto",
         "node_id" : "MDQ6VXNlcjMyOTYzNTE4",
         "organizations_url" : "https://api.github.com/users/hebasto/orgs",
         "received_events_url" : "https://api.github.com/users/hebasto/received_events",
         "repos_url" : "https://api.github.com/users/hebasto/repos",
         "site_admin" : false,
         "starred_url" : "https://api.github.com/users/hebasto/starred{/owner}{/repo}",
         "subscriptions_url" : "https://api.github.com/users/hebasto/subscriptions",
         "type" : "User",
         "url" : "https://api.github.com/users/hebasto"
      }
   },
   {
      "author_association" : "MEMBER",
      "body" : "[Similar to #25111. I'm still ~0 on this change](https://github.com/bitcoin/bitcoin/pull/25111#pullrequestreview-970602390), but this approach is an improvement. \r\n\r\nGiven #24907, I don't think we should be leaning back into more Boost code usage. Outside of that, it's pretty clear that Boost Process currently has no or minimal support for mingw-w64 builds. It looks like they don't even have a mingw-w64 build [in their CI](https://drone.cpp.al/boostorg/process/87) (only MSVC). Windows fixes, some that we've upstreamed, also remain ignored, i.e https://github.com/boostorg/process/pull/237, https://github.com/boostorg/process/pull/239, https://github.com/boostorg/process/pull/240.\r\n\r\nI assume if we make this change, external signing on Windows is only going to be supported with Boost 1.80.0 and later? If so, I assume we can remove https://github.com/bitcoin/bitcoin/blob/207a22877330709e4462e6092c265ab55c8653ac/src/test/system_tests.cpp#L10?",
      "created_at" : "2022-07-27T14:10:42Z",
      "html_url" : "https://github.com/bitcoin/bitcoin/pull/25696#issuecomment-1196813412",
      "id" : 1196813412,
      "issue_url" : "https://api.github.com/repos/bitcoin/bitcoin/issues/25696",
      "node_id" : "IC_kwDOABII585HVexk",
      "performed_via_github_app" : null,
      "reactions" : {
         "+1" : 0,
         "-1" : 0,
         "confused" : 0,
         "eyes" : 0,
         "heart" : 0,
         "hooray" : 0,
         "laugh" : 0,
         "rocket" : 0,
         "total_count" : 0,
         "url" : "https://api.github.com/repos/bitcoin/bitcoin/issues/comments/1196813412/reactions"
      },
      "updated_at" : "2022-07-27T14:10:42Z",
      "url" : "https://api.github.com/repos/bitcoin/bitcoin/issues/comments/1196813412",
      "user" : {
         "avatar_url" : "https://avatars.githubusercontent.com/u/863730?v=4",
         "events_url" : "https://api.github.com/users/fanquake/events{/privacy}",
         "followers_url" : "https://api.github.com/users/fanquake/followers",
         "following_url" : "https://api.github.com/users/fanquake/following{/other_user}",
         "gists_url" : "https://api.github.com/users/fanquake/gists{/gist_id}",
         "gravatar_id" : "",
         "html_url" : "https://github.com/fanquake",
         "id" : 863730,
         "login" : "fanquake",
         "node_id" : "MDQ6VXNlcjg2MzczMA==",
         "organizations_url" : "https://api.github.com/users/fanquake/orgs",
         "received_events_url" : "https://api.github.com/users/fanquake/received_events",
         "repos_url" : "https://api.github.com/users/fanquake/repos",
         "site_admin" : false,
         "starred_url" : "https://api.github.com/users/fanquake/starred{/owner}{/repo}",
         "subscriptions_url" : "https://api.github.com/users/fanquake/subscriptions",
         "type" : "User",
         "url" : "https://api.github.com/users/fanquake"
      }
   },
   {
      "_links" : {
         "html" : {
            "href" : "https://github.com/bitcoin/bitcoin/pull/25696#discussion_r931122396"
         },
         "pull_request" : {
            "href" : "https://api.github.com/repos/bitcoin/bitcoin/pulls/25696"
         },
         "self" : {
            "href" : "https://api.github.com/repos/bitcoin/bitcoin/pulls/comments/931122396"
         }
      },
      "author_association" : "MEMBER",
      "body" : "We support Boost down to 1.64.0 currently on non-Windows.",
      "commit_id" : "b08deecc0905317940b9a1296eb883fd01ace339",
      "created_at" : "2022-07-27T14:18:00Z",
      "diff_hunk" : "@@ -1476,45 +1476,33 @@ if test \"$use_boost\" = \"yes\"; then\n fi\n \n if test \"$use_external_signer\" != \"no\"; then\n-  case $host in\n-    *mingw*)\n-      dnl Boost Process uses Boost Filesystem when targeting Windows. Also,\n-      dnl since Boost 1.71.0, Process does not work with mingw-w64 without\n-      dnl workarounds. See 67669ab425b52a2b6be3d2f3b3b7e3939b676a2c.\n-      if test \"$use_external_signer\" = \"yes\"; then\n-        AC_MSG_ERROR([External signing is not supported on Windows])\n-      fi\n-      use_external_signer=\"no\";\n-    ;;\n-    *)\n-      AC_MSG_CHECKING([whether Boost.Process can be used])\n-      TEMP_CXXFLAGS=\"$CXXFLAGS\"\n-      dnl Boost 1.78 requires the following workaround.\n-      dnl See: https://github.com/boostorg/process/issues/235\n-      CXXFLAGS=\"$CXXFLAGS -Wno-error=narrowing\"\n-      TEMP_CPPFLAGS=\"$CPPFLAGS\"\n-      CPPFLAGS=\"$CPPFLAGS $BOOST_CPPFLAGS\"\n-      TEMP_LDFLAGS=\"$LDFLAGS\"\n-      dnl Boost 1.73 and older require the following workaround.\n-      LDFLAGS=\"$LDFLAGS $PTHREAD_CFLAGS\"\n-      AC_LINK_IFELSE([AC_LANG_PROGRAM([[#include <boost/process.hpp>]])],\n-        [have_boost_process=\"yes\"],\n-        [have_boost_process=\"no\"])\n-      LDFLAGS=\"$TEMP_LDFLAGS\"\n-      CPPFLAGS=\"$TEMP_CPPFLAGS\"\n-      CXXFLAGS=\"$TEMP_CXXFLAGS\"\n-      AC_MSG_RESULT([$have_boost_process])\n-      if test \"$have_boost_process\" = \"yes\"; then\n-        use_external_signer=\"yes\"\n-        AC_DEFINE([ENABLE_EXTERNAL_SIGNER], [1], [Define if external signer support is enabled])\n-      else\n-        if test \"$use_external_signer\" = \"yes\"; then\n-          AC_MSG_ERROR([External signing is not supported for this Boost version])\n-        fi\n-        use_external_signer=\"no\";\n-      fi\n-    ;;\n-  esac\n+  AC_MSG_CHECKING([whether Boost.Process can be used])\n+  TEMP_CXXFLAGS=\"$CXXFLAGS\"\n+  dnl Boost 1.78 requires the following workaround.\n+  dnl See: https://github.com/boostorg/process/issues/235\n+  CXXFLAGS=\"$CXXFLAGS -Wno-error=narrowing\"\n+  TEMP_CPPFLAGS=\"$CPPFLAGS\"\n+  CPPFLAGS=\"$CPPFLAGS $BOOST_CPPFLAGS\"\n+  TEMP_LDFLAGS=\"$LDFLAGS\"\n+  dnl Boost 1.73 and older require the following workaround.\n+  LDFLAGS=\"$LDFLAGS $PTHREAD_CFLAGS\"\n+  AC_LINK_IFELSE([AC_LANG_PROGRAM([[#include <boost/process.hpp>]])],",
      "html_url" : "https://github.com/bitcoin/bitcoin/pull/25696#discussion_r931122396",
      "id" : 931122396,
      "in_reply_to_id" : 929152069,
      "line" : null,
      "node_id" : "PRRC_kwDOABII5843f8zc",
      "original_commit_id" : "94bbce8f4b7d33ab60406fd8a80748fa69eafea7",
      "original_line" : 1489,
      "original_position" : 53,
      "original_start_line" : null,
      "path" : "configure.ac",
      "position" : null,
      "pull_request_review_id" : 1052593245,
      "pull_request_url" : "https://api.github.com/repos/bitcoin/bitcoin/pulls/25696",
      "reactions" : {
         "+1" : 0,
         "-1" : 0,
         "confused" : 0,
         "eyes" : 0,
         "heart" : 0,
         "hooray" : 0,
         "laugh" : 0,
         "rocket" : 0,
         "total_count" : 0,
         "url" : "https://api.github.com/repos/bitcoin/bitcoin/pulls/comments/931122396/reactions"
      },
      "side" : "RIGHT",
      "start_line" : null,
      "start_side" : null,
      "updated_at" : "2022-07-27T14:18:00Z",
      "url" : "https://api.github.com/repos/bitcoin/bitcoin/pulls/comments/931122396",
      "user" : {
         "avatar_url" : "https://avatars.githubusercontent.com/u/1095675?v=4",
         "events_url" : "https://api.github.com/users/luke-jr/events{/privacy}",
         "followers_url" : "https://api.github.com/users/luke-jr/followers",
         "following_url" : "https://api.github.com/users/luke-jr/following{/other_user}",
         "gists_url" : "https://api.github.com/users/luke-jr/gists{/gist_id}",
         "gravatar_id" : "",
         "html_url" : "https://github.com/luke-jr",
         "id" : 1095675,
         "login" : "luke-jr",
         "node_id" : "MDQ6VXNlcjEwOTU2NzU=",
         "organizations_url" : "https://api.github.com/users/luke-jr/orgs",
         "received_events_url" : "https://api.github.com/users/luke-jr/received_events",
         "repos_url" : "https://api.github.com/users/luke-jr/repos",
         "site_admin" : false,
         "starred_url" : "https://api.github.com/users/luke-jr/starred{/owner}{/repo}",
         "subscriptions_url" : "https://api.github.com/users/luke-jr/subscriptions",
         "type" : "User",
         "url" : "https://api.github.com/users/luke-jr"
      }
   },
   {
      "_links" : {
         "html" : {
            "href" : "https://github.com/bitcoin/bitcoin/pull/25696#discussion_r931503403"
         },
         "pull_request" : {
            "href" : "https://api.github.com/repos/bitcoin/bitcoin/pulls/25696"
         },
         "self" : {
            "href" : "https://api.github.com/repos/bitcoin/bitcoin/pulls/comments/931503403"
         }
      },
      "author_association" : "MEMBER",
      "body" : "Changes in `wchar_t.hpp` look Windows-specific. FWIW, the first commit compiles with depends (boost 1.77) successfully.\r\n\r\n@luke-jr Could you point at a configuration which fails?",
      "commit_id" : "0444353ba7e97b53ff7f4ed7f06d67ed36466912",
      "created_at" : "2022-07-27T19:22:39Z",
      "diff_hunk" : "@@ -1476,45 +1476,33 @@ if test \"$use_boost\" = \"yes\"; then\n fi\n \n if test \"$use_external_signer\" != \"no\"; then\n-  case $host in\n-    *mingw*)\n-      dnl Boost Process uses Boost Filesystem when targeting Windows. Also,\n-      dnl since Boost 1.71.0, Process does not work with mingw-w64 without\n-      dnl workarounds. See 67669ab425b52a2b6be3d2f3b3b7e3939b676a2c.\n-      if test \"$use_external_signer\" = \"yes\"; then\n-        AC_MSG_ERROR([External signing is not supported on Windows])\n-      fi\n-      use_external_signer=\"no\";\n-    ;;\n-    *)\n-      AC_MSG_CHECKING([whether Boost.Process can be used])\n-      TEMP_CXXFLAGS=\"$CXXFLAGS\"\n-      dnl Boost 1.78 requires the following workaround.\n-      dnl See: https://github.com/boostorg/process/issues/235\n-      CXXFLAGS=\"$CXXFLAGS -Wno-error=narrowing\"\n-      TEMP_CPPFLAGS=\"$CPPFLAGS\"\n-      CPPFLAGS=\"$CPPFLAGS $BOOST_CPPFLAGS\"\n-      TEMP_LDFLAGS=\"$LDFLAGS\"\n-      dnl Boost 1.73 and older require the following workaround.\n-      LDFLAGS=\"$LDFLAGS $PTHREAD_CFLAGS\"\n-      AC_LINK_IFELSE([AC_LANG_PROGRAM([[#include <boost/process.hpp>]])],\n-        [have_boost_process=\"yes\"],\n-        [have_boost_process=\"no\"])\n-      LDFLAGS=\"$TEMP_LDFLAGS\"\n-      CPPFLAGS=\"$TEMP_CPPFLAGS\"\n-      CXXFLAGS=\"$TEMP_CXXFLAGS\"\n-      AC_MSG_RESULT([$have_boost_process])\n-      if test \"$have_boost_process\" = \"yes\"; then\n-        use_external_signer=\"yes\"\n-        AC_DEFINE([ENABLE_EXTERNAL_SIGNER], [1], [Define if external signer support is enabled])\n-      else\n-        if test \"$use_external_signer\" = \"yes\"; then\n-          AC_MSG_ERROR([External signing is not supported for this Boost version])\n-        fi\n-        use_external_signer=\"no\";\n-      fi\n-    ;;\n-  esac\n+  AC_MSG_CHECKING([whether Boost.Process can be used])\n+  TEMP_CXXFLAGS=\"$CXXFLAGS\"\n+  dnl Boost 1.78 requires the following workaround.\n+  dnl See: https://github.com/boostorg/process/issues/235\n+  CXXFLAGS=\"$CXXFLAGS -Wno-error=narrowing\"\n+  TEMP_CPPFLAGS=\"$CPPFLAGS\"\n+  CPPFLAGS=\"$CPPFLAGS $BOOST_CPPFLAGS\"\n+  TEMP_LDFLAGS=\"$LDFLAGS\"\n+  dnl Boost 1.73 and older require the following workaround.\n+  LDFLAGS=\"$LDFLAGS $PTHREAD_CFLAGS\"\n+  AC_LINK_IFELSE([AC_LANG_PROGRAM([[#include <boost/process.hpp>]])],",
      "html_url" : "https://github.com/bitcoin/bitcoin/pull/25696#discussion_r931503403",
      "id" : 931503403,
      "in_reply_to_id" : 929152069,
      "line" : null,
      "node_id" : "PRRC_kwDOABII5843hZ0r",
      "original_commit_id" : "94bbce8f4b7d33ab60406fd8a80748fa69eafea7",
      "original_line" : 1489,
      "original_position" : 53,
      "original_start_line" : null,
      "path" : "configure.ac",
      "position" : null,
      "pull_request_review_id" : 1053116978,
      "pull_request_url" : "https://api.github.com/repos/bitcoin/bitcoin/pulls/25696",
      "reactions" : {
         "+1" : 0,
         "-1" : 0,
         "confused" : 0,
         "eyes" : 0,
         "heart" : 0,
         "hooray" : 0,
         "laugh" : 0,
         "rocket" : 0,
         "total_count" : 0,
         "url" : "https://api.github.com/repos/bitcoin/bitcoin/pulls/comments/931503403/reactions"
      },
      "side" : "RIGHT",
      "start_line" : null,
      "start_side" : null,
      "updated_at" : "2022-07-28T10:22:21Z",
      "url" : "https://api.github.com/repos/bitcoin/bitcoin/pulls/comments/931503403",
      "user" : {
         "avatar_url" : "https://avatars.githubusercontent.com/u/32963518?v=4",
         "events_url" : "https://api.github.com/users/hebasto/events{/privacy}",
         "followers_url" : "https://api.github.com/users/hebasto/followers",
         "following_url" : "https://api.github.com/users/hebasto/following{/other_user}",
         "gists_url" : "https://api.github.com/users/hebasto/gists{/gist_id}",
         "gravatar_id" : "",
         "html_url" : "https://github.com/hebasto",
         "id" : 32963518,
         "login" : "hebasto",
         "node_id" : "MDQ6VXNlcjMyOTYzNTE4",
         "organizations_url" : "https://api.github.com/users/hebasto/orgs",
         "received_events_url" : "https://api.github.com/users/hebasto/received_events",
         "repos_url" : "https://api.github.com/users/hebasto/repos",
         "site_admin" : false,
         "starred_url" : "https://api.github.com/users/hebasto/starred{/owner}{/repo}",
         "subscriptions_url" : "https://api.github.com/users/hebasto/subscriptions",
         "type" : "User",
         "url" : "https://api.github.com/users/hebasto"
      }
   },
   {
      "author_association" : "MEMBER",
      "body" : "@fanquake \r\n> I assume if we make this change, external signing on Windows is only going to be supported with Boost 1.80.0 and later? If so, I assume we can remove\r\n> \r\n> https://github.com/bitcoin/bitcoin/blob/207a22877330709e4462e6092c265ab55c8653ac/src/test/system_tests.cpp#L10\r\n\r\nCorrect. See #25723.",
      "created_at" : "2022-07-27T19:47:51Z",
      "html_url" : "https://github.com/bitcoin/bitcoin/pull/25696#issuecomment-1197292690",
      "id" : 1197292690,
      "issue_url" : "https://api.github.com/repos/bitcoin/bitcoin/issues/25696",
      "node_id" : "IC_kwDOABII585HXTyS",
      "performed_via_github_app" : null,
      "reactions" : {
         "+1" : 0,
         "-1" : 0,
         "confused" : 0,
         "eyes" : 0,
         "heart" : 0,
         "hooray" : 0,
         "laugh" : 0,
         "rocket" : 0,
         "total_count" : 0,
         "url" : "https://api.github.com/repos/bitcoin/bitcoin/issues/comments/1197292690/reactions"
      },
      "updated_at" : "2022-07-27T19:47:51Z",
      "url" : "https://api.github.com/repos/bitcoin/bitcoin/issues/comments/1197292690",
      "user" : {
         "avatar_url" : "https://avatars.githubusercontent.com/u/32963518?v=4",
         "events_url" : "https://api.github.com/users/hebasto/events{/privacy}",
         "followers_url" : "https://api.github.com/users/hebasto/followers",
         "following_url" : "https://api.github.com/users/hebasto/following{/other_user}",
         "gists_url" : "https://api.github.com/users/hebasto/gists{/gist_id}",
         "gravatar_id" : "",
         "html_url" : "https://github.com/hebasto",
         "id" : 32963518,
         "login" : "hebasto",
         "node_id" : "MDQ6VXNlcjMyOTYzNTE4",
         "organizations_url" : "https://api.github.com/users/hebasto/orgs",
         "received_events_url" : "https://api.github.com/users/hebasto/received_events",
         "repos_url" : "https://api.github.com/users/hebasto/repos",
         "site_admin" : false,
         "starred_url" : "https://api.github.com/users/hebasto/starred{/owner}{/repo}",
         "subscriptions_url" : "https://api.github.com/users/hebasto/subscriptions",
         "type" : "User",
         "url" : "https://api.github.com/users/hebasto"
      }
   },
   {
      "author_association" : "MEMBER",
      "body" : "Rebased on top of #25723.",
      "created_at" : "2022-07-28T11:03:54Z",
      "html_url" : "https://github.com/bitcoin/bitcoin/pull/25696#issuecomment-1197994947",
      "id" : 1197994947,
      "issue_url" : "https://api.github.com/repos/bitcoin/bitcoin/issues/25696",
      "node_id" : "IC_kwDOABII585HZ_PD",
      "performed_via_github_app" : null,
      "reactions" : {
         "+1" : 0,
         "-1" : 0,
         "confused" : 0,
         "eyes" : 0,
         "heart" : 0,
         "hooray" : 0,
         "laugh" : 0,
         "rocket" : 0,
         "total_count" : 0,
         "url" : "https://api.github.com/repos/bitcoin/bitcoin/issues/comments/1197994947/reactions"
      },
      "updated_at" : "2022-07-28T11:03:54Z",
      "url" : "https://api.github.com/repos/bitcoin/bitcoin/issues/comments/1197994947",
      "user" : {
         "avatar_url" : "https://avatars.githubusercontent.com/u/32963518?v=4",
         "events_url" : "https://api.github.com/users/hebasto/events{/privacy}",
         "followers_url" : "https://api.github.com/users/hebasto/followers",
         "following_url" : "https://api.github.com/users/hebasto/following{/other_user}",
         "gists_url" : "https://api.github.com/users/hebasto/gists{/gist_id}",
         "gravatar_id" : "",
         "html_url" : "https://github.com/hebasto",
         "id" : 32963518,
         "login" : "hebasto",
         "node_id" : "MDQ6VXNlcjMyOTYzNTE4",
         "organizations_url" : "https://api.github.com/users/hebasto/orgs",
         "received_events_url" : "https://api.github.com/users/hebasto/received_events",
         "repos_url" : "https://api.github.com/users/hebasto/repos",
         "site_admin" : false,
         "starred_url" : "https://api.github.com/users/hebasto/starred{/owner}{/repo}",
         "subscriptions_url" : "https://api.github.com/users/hebasto/subscriptions",
         "type" : "User",
         "url" : "https://api.github.com/users/hebasto"
      }
   },
   {
      "_links" : {
         "html" : {
            "href" : "https://github.com/bitcoin/bitcoin/pull/25696#discussion_r934359266"
         },
         "pull_request" : {
            "href" : "https://api.github.com/repos/bitcoin/bitcoin/pulls/25696"
         },
         "self" : {
            "href" : "https://api.github.com/repos/bitcoin/bitcoin/pulls/comments/934359266"
         }
      },
      "author_association" : "MEMBER",
      "body" : "Is this patch from upstream? If so, can you add the upstream commit details / links here? If not, are you planning on upstreaming it? The fact that we still have to patch Process out the box, just to make it work, isn't encouraging. Maybe these fixes can make it into 1.80.0.",
      "commit_id" : "0444353ba7e97b53ff7f4ed7f06d67ed36466912",
      "created_at" : "2022-08-01T10:05:29Z",
      "diff_hunk" : "@@ -0,0 +1,15 @@\n+Use Boost.Process with mingw32",
      "html_url" : "https://github.com/bitcoin/bitcoin/pull/25696#discussion_r934359266",
      "id" : 934359266,
      "line" : 1,
      "node_id" : "PRRC_kwDOABII5843sTDi",
      "original_commit_id" : "0444353ba7e97b53ff7f4ed7f06d67ed36466912",
      "original_line" : 1,
      "original_position" : 1,
      "original_start_line" : null,
      "path" : "depends/patches/boost/mingw32_process.patch",
      "position" : 1,
      "pull_request_review_id" : 1057055613,
      "pull_request_url" : "https://api.github.com/repos/bitcoin/bitcoin/pulls/25696",
      "reactions" : {
         "+1" : 0,
         "-1" : 0,
         "confused" : 0,
         "eyes" : 0,
         "heart" : 0,
         "hooray" : 0,
         "laugh" : 0,
         "rocket" : 0,
         "total_count" : 0,
         "url" : "https://api.github.com/repos/bitcoin/bitcoin/pulls/comments/934359266/reactions"
      },
      "side" : "RIGHT",
      "start_line" : null,
      "start_side" : null,
      "updated_at" : "2022-08-01T10:05:29Z",
      "url" : "https://api.github.com/repos/bitcoin/bitcoin/pulls/comments/934359266",
      "user" : {
         "avatar_url" : "https://avatars.githubusercontent.com/u/863730?v=4",
         "events_url" : "https://api.github.com/users/fanquake/events{/privacy}",
         "followers_url" : "https://api.github.com/users/fanquake/followers",
         "following_url" : "https://api.github.com/users/fanquake/following{/other_user}",
         "gists_url" : "https://api.github.com/users/fanquake/gists{/gist_id}",
         "gravatar_id" : "",
         "html_url" : "https://github.com/fanquake",
         "id" : 863730,
         "login" : "fanquake",
         "node_id" : "MDQ6VXNlcjg2MzczMA==",
         "organizations_url" : "https://api.github.com/users/fanquake/orgs",
         "received_events_url" : "https://api.github.com/users/fanquake/received_events",
         "repos_url" : "https://api.github.com/users/fanquake/repos",
         "site_admin" : false,
         "starred_url" : "https://api.github.com/users/fanquake/starred{/owner}{/repo}",
         "subscriptions_url" : "https://api.github.com/users/fanquake/subscriptions",
         "type" : "User",
         "url" : "https://api.github.com/users/fanquake"
      }
   },
   {
      "_links" : {
         "html" : {
            "href" : "https://github.com/bitcoin/bitcoin/pull/25696#discussion_r935282961"
         },
         "pull_request" : {
            "href" : "https://api.github.com/repos/bitcoin/bitcoin/pulls/25696"
         },
         "self" : {
            "href" : "https://api.github.com/repos/bitcoin/bitcoin/pulls/comments/935282961"
         }
      },
      "author_association" : "MEMBER",
      "body" : "> If not, are you planning on upstreaming it?\r\n\r\nhttps://github.com/boostorg/process/pull/264",
      "commit_id" : "0444353ba7e97b53ff7f4ed7f06d67ed36466912",
      "created_at" : "2022-08-02T08:44:35Z",
      "diff_hunk" : "@@ -0,0 +1,15 @@\n+Use Boost.Process with mingw32",
      "html_url" : "https://github.com/bitcoin/bitcoin/pull/25696#discussion_r935282961",
      "id" : 935282961,
      "in_reply_to_id" : 934359266,
      "line" : 1,
      "node_id" : "PRRC_kwDOABII5843v0kR",
      "original_commit_id" : "0444353ba7e97b53ff7f4ed7f06d67ed36466912",
      "original_line" : 1,
      "original_position" : 1,
      "original_start_line" : null,
      "path" : "depends/patches/boost/mingw32_process.patch",
      "position" : 1,
      "pull_request_review_id" : 1058353542,
      "pull_request_url" : "https://api.github.com/repos/bitcoin/bitcoin/pulls/25696",
      "reactions" : {
         "+1" : 0,
         "-1" : 0,
         "confused" : 0,
         "eyes" : 0,
         "heart" : 0,
         "hooray" : 0,
         "laugh" : 0,
         "rocket" : 0,
         "total_count" : 0,
         "url" : "https://api.github.com/repos/bitcoin/bitcoin/pulls/comments/935282961/reactions"
      },
      "side" : "RIGHT",
      "start_line" : null,
      "start_side" : null,
      "updated_at" : "2022-08-02T08:44:35Z",
      "url" : "https://api.github.com/repos/bitcoin/bitcoin/pulls/comments/935282961",
      "user" : {
         "avatar_url" : "https://avatars.githubusercontent.com/u/32963518?v=4",
         "events_url" : "https://api.github.com/users/hebasto/events{/privacy}",
         "followers_url" : "https://api.github.com/users/hebasto/followers",
         "following_url" : "https://api.github.com/users/hebasto/following{/other_user}",
         "gists_url" : "https://api.github.com/users/hebasto/gists{/gist_id}",
         "gravatar_id" : "",
         "html_url" : "https://github.com/hebasto",
         "id" : 32963518,
         "login" : "hebasto",
         "node_id" : "MDQ6VXNlcjMyOTYzNTE4",
         "organizations_url" : "https://api.github.com/users/hebasto/orgs",
         "received_events_url" : "https://api.github.com/users/hebasto/received_events",
         "repos_url" : "https://api.github.com/users/hebasto/repos",
         "site_admin" : false,
         "starred_url" : "https://api.github.com/users/hebasto/starred{/owner}{/repo}",
         "subscriptions_url" : "https://api.github.com/users/hebasto/subscriptions",
         "type" : "User",
         "url" : "https://api.github.com/users/hebasto"
      }
   },
   {
      "author_association" : "MEMBER",
      "body" : "I can't test on Windows. Bumping the Boost version in depends should probably be its own PR? (or at least indicated in the PR description) ",
      "created_at" : "2022-08-05T08:27:47Z",
      "html_url" : "https://github.com/bitcoin/bitcoin/pull/25696#issuecomment-1206186035",
      "id" : 1206186035,
      "issue_url" : "https://api.github.com/repos/bitcoin/bitcoin/issues/25696",
      "node_id" : "IC_kwDOABII585H5PAz",
      "performed_via_github_app" : null,
      "reactions" : {
         "+1" : 0,
         "-1" : 0,
         "confused" : 0,
         "eyes" : 0,
         "heart" : 0,
         "hooray" : 0,
         "laugh" : 0,
         "rocket" : 0,
         "total_count" : 0,
         "url" : "https://api.github.com/repos/bitcoin/bitcoin/issues/comments/1206186035/reactions"
      },
      "updated_at" : "2022-08-05T08:27:47Z",
      "url" : "https://api.github.com/repos/bitcoin/bitcoin/issues/comments/1206186035",
      "user" : {
         "avatar_url" : "https://avatars.githubusercontent.com/u/10217?v=4",
         "events_url" : "https://api.github.com/users/Sjors/events{/privacy}",
         "followers_url" : "https://api.github.com/users/Sjors/followers",
         "following_url" : "https://api.github.com/users/Sjors/following{/other_user}",
         "gists_url" : "https://api.github.com/users/Sjors/gists{/gist_id}",
         "gravatar_id" : "",
         "html_url" : "https://github.com/Sjors",
         "id" : 10217,
         "login" : "Sjors",
         "node_id" : "MDQ6VXNlcjEwMjE3",
         "organizations_url" : "https://api.github.com/users/Sjors/orgs",
         "received_events_url" : "https://api.github.com/users/Sjors/received_events",
         "repos_url" : "https://api.github.com/users/Sjors/repos",
         "site_admin" : false,
         "starred_url" : "https://api.github.com/users/Sjors/starred{/owner}{/repo}",
         "subscriptions_url" : "https://api.github.com/users/Sjors/subscriptions",
         "type" : "User",
         "url" : "https://api.github.com/users/Sjors"
      }
   }
]
