[
   {
      "_links" : {
         "html" : {
            "href" : "https://github.com/bitcoin/bitcoin/pull/23928#discussion_r777143922"
         },
         "pull_request" : {
            "href" : "https://api.github.com/repos/bitcoin/bitcoin/pulls/23928"
         },
         "self" : {
            "href" : "https://api.github.com/repos/bitcoin/bitcoin/pulls/comments/777143922"
         }
      },
      "author_association" : "CONTRIBUTOR",
      "body" : "nit: alternative version, which I find easier to reason (feel free to ignore):\r\n```suggestion\r\n            not (self.options.perf and exists_perf_subprocess)\r\n```",
      "commit_id" : "8a133c4b168e079bdf0f95798ba01903e4ff1477",
      "created_at" : "2022-01-01T22:27:04Z",
      "diff_hunk" : "@@ -307,11 +307,12 @@ def shutdown(self):\n                 node.cleanup_on_exit = False\n             self.log.info(\"Note: bitcoinds were not stopped and may still be running\")\n \n+        exists_perf_subprocess = any(bool(node.perf_subprocesses) for node in self.nodes)\n         should_clean_up = (\n             not self.options.nocleanup and\n             not self.options.noshutdown and\n             self.success != TestStatus.FAILED and\n-            not self.options.perf\n+            (not self.options.perf or not exists_perf_subprocess)",
      "html_url" : "https://github.com/bitcoin/bitcoin/pull/23928#discussion_r777143922",
      "id" : 777143922,
      "line" : 315,
      "node_id" : "PRRC_kwDOABII584uUkZy",
      "original_commit_id" : "8a133c4b168e079bdf0f95798ba01903e4ff1477",
      "original_line" : 315,
      "original_position" : 10,
      "original_start_line" : null,
      "path" : "test/functional/test_framework/test_framework.py",
      "position" : 10,
      "pull_request_review_id" : 842364565,
      "pull_request_url" : "https://api.github.com/repos/bitcoin/bitcoin/pulls/23928",
      "reactions" : {
         "+1" : 0,
         "-1" : 0,
         "confused" : 0,
         "eyes" : 0,
         "heart" : 0,
         "hooray" : 0,
         "laugh" : 0,
         "rocket" : 0,
         "total_count" : 0,
         "url" : "https://api.github.com/repos/bitcoin/bitcoin/pulls/comments/777143922/reactions"
      },
      "side" : "RIGHT",
      "start_line" : null,
      "start_side" : null,
      "updated_at" : "2022-01-01T22:29:06Z",
      "url" : "https://api.github.com/repos/bitcoin/bitcoin/pulls/comments/777143922",
      "user" : {
         "avatar_url" : "https://avatars.githubusercontent.com/u/91535?v=4",
         "events_url" : "https://api.github.com/users/theStack/events{/privacy}",
         "followers_url" : "https://api.github.com/users/theStack/followers",
         "following_url" : "https://api.github.com/users/theStack/following{/other_user}",
         "gists_url" : "https://api.github.com/users/theStack/gists{/gist_id}",
         "gravatar_id" : "",
         "html_url" : "https://github.com/theStack",
         "id" : 91535,
         "login" : "theStack",
         "node_id" : "MDQ6VXNlcjkxNTM1",
         "organizations_url" : "https://api.github.com/users/theStack/orgs",
         "received_events_url" : "https://api.github.com/users/theStack/received_events",
         "repos_url" : "https://api.github.com/users/theStack/repos",
         "site_admin" : false,
         "starred_url" : "https://api.github.com/users/theStack/starred{/owner}{/repo}",
         "subscriptions_url" : "https://api.github.com/users/theStack/subscriptions",
         "type" : "User",
         "url" : "https://api.github.com/users/theStack"
      }
   },
   {
      "_links" : {
         "html" : {
            "href" : "https://github.com/bitcoin/bitcoin/pull/23928#discussion_r777212965"
         },
         "pull_request" : {
            "href" : "https://api.github.com/repos/bitcoin/bitcoin/pulls/23928"
         },
         "self" : {
            "href" : "https://api.github.com/repos/bitcoin/bitcoin/pulls/comments/777212965"
         }
      },
      "author_association" : "CONTRIBUTOR",
      "body" : "Great",
      "commit_id" : "af76ac1e1120f670d52ef3df05792ecad6f1aeaa",
      "created_at" : "2022-01-02T13:48:37Z",
      "diff_hunk" : "@@ -307,11 +307,12 @@ def shutdown(self):\n                 node.cleanup_on_exit = False\n             self.log.info(\"Note: bitcoinds were not stopped and may still be running\")\n \n+        exists_perf_subprocess = any(bool(node.perf_subprocesses) for node in self.nodes)\n         should_clean_up = (\n             not self.options.nocleanup and\n             not self.options.noshutdown and\n             self.success != TestStatus.FAILED and\n-            not self.options.perf\n+            (not self.options.perf or not exists_perf_subprocess)",
      "html_url" : "https://github.com/bitcoin/bitcoin/pull/23928#discussion_r777212965",
      "id" : 777212965,
      "in_reply_to_id" : 777143922,
      "line" : null,
      "node_id" : "PRRC_kwDOABII584uU1Ql",
      "original_commit_id" : "8a133c4b168e079bdf0f95798ba01903e4ff1477",
      "original_line" : 315,
      "original_position" : 10,
      "original_start_line" : null,
      "path" : "test/functional/test_framework/test_framework.py",
      "position" : null,
      "pull_request_review_id" : 842415153,
      "pull_request_url" : "https://api.github.com/repos/bitcoin/bitcoin/pulls/23928",
      "reactions" : {
         "+1" : 0,
         "-1" : 0,
         "confused" : 0,
         "eyes" : 0,
         "heart" : 0,
         "hooray" : 0,
         "laugh" : 0,
         "rocket" : 0,
         "total_count" : 0,
         "url" : "https://api.github.com/repos/bitcoin/bitcoin/pulls/comments/777212965/reactions"
      },
      "side" : "RIGHT",
      "start_line" : null,
      "start_side" : null,
      "updated_at" : "2022-01-02T13:48:37Z",
      "url" : "https://api.github.com/repos/bitcoin/bitcoin/pulls/comments/777212965",
      "user" : {
         "avatar_url" : "https://avatars.githubusercontent.com/u/19480819?v=4",
         "events_url" : "https://api.github.com/users/brunoerg/events{/privacy}",
         "followers_url" : "https://api.github.com/users/brunoerg/followers",
         "following_url" : "https://api.github.com/users/brunoerg/following{/other_user}",
         "gists_url" : "https://api.github.com/users/brunoerg/gists{/gist_id}",
         "gravatar_id" : "",
         "html_url" : "https://github.com/brunoerg",
         "id" : 19480819,
         "login" : "brunoerg",
         "node_id" : "MDQ6VXNlcjE5NDgwODE5",
         "organizations_url" : "https://api.github.com/users/brunoerg/orgs",
         "received_events_url" : "https://api.github.com/users/brunoerg/received_events",
         "repos_url" : "https://api.github.com/users/brunoerg/repos",
         "site_admin" : false,
         "starred_url" : "https://api.github.com/users/brunoerg/starred{/owner}{/repo}",
         "subscriptions_url" : "https://api.github.com/users/brunoerg/subscriptions",
         "type" : "User",
         "url" : "https://api.github.com/users/brunoerg"
      }
   },
   {
      "author_association" : "MEMBER",
      "body" : "So if a test shuts down the nodes, it won't be possible to use perf?",
      "created_at" : "2022-01-03T07:45:34Z",
      "html_url" : "https://github.com/bitcoin/bitcoin/pull/23928#issuecomment-1003916401",
      "id" : 1003916401,
      "issue_url" : "https://api.github.com/repos/bitcoin/bitcoin/issues/23928",
      "node_id" : "IC_kwDOABII58471oxx",
      "performed_via_github_app" : null,
      "reactions" : {
         "+1" : 0,
         "-1" : 0,
         "confused" : 0,
         "eyes" : 0,
         "heart" : 0,
         "hooray" : 0,
         "laugh" : 0,
         "rocket" : 0,
         "total_count" : 0,
         "url" : "https://api.github.com/repos/bitcoin/bitcoin/issues/comments/1003916401/reactions"
      },
      "updated_at" : "2022-01-03T07:45:34Z",
      "url" : "https://api.github.com/repos/bitcoin/bitcoin/issues/comments/1003916401",
      "user" : {
         "avatar_url" : "https://avatars.githubusercontent.com/u/6399679?v=4",
         "events_url" : "https://api.github.com/users/MarcoFalke/events{/privacy}",
         "followers_url" : "https://api.github.com/users/MarcoFalke/followers",
         "following_url" : "https://api.github.com/users/MarcoFalke/following{/other_user}",
         "gists_url" : "https://api.github.com/users/MarcoFalke/gists{/gist_id}",
         "gravatar_id" : "",
         "html_url" : "https://github.com/MarcoFalke",
         "id" : 6399679,
         "login" : "MarcoFalke",
         "node_id" : "MDQ6VXNlcjYzOTk2Nzk=",
         "organizations_url" : "https://api.github.com/users/MarcoFalke/orgs",
         "received_events_url" : "https://api.github.com/users/MarcoFalke/received_events",
         "repos_url" : "https://api.github.com/users/MarcoFalke/repos",
         "site_admin" : false,
         "starred_url" : "https://api.github.com/users/MarcoFalke/starred{/owner}{/repo}",
         "subscriptions_url" : "https://api.github.com/users/MarcoFalke/subscriptions",
         "type" : "User",
         "url" : "https://api.github.com/users/MarcoFalke"
      }
   },
   {
      "author_association" : "CONTRIBUTOR",
      "body" : "> So if a test shuts down the nodes, it won't be possible to use perf?\r\n\r\nTrue, didn't think about that scenario :/\r\nso I guess it'd be better to set some flag like `perf_available` and check for that instead of the perf subprocesses?",
      "created_at" : "2022-01-03T13:55:30Z",
      "html_url" : "https://github.com/bitcoin/bitcoin/pull/23928#issuecomment-1004108197",
      "id" : 1004108197,
      "issue_url" : "https://api.github.com/repos/bitcoin/bitcoin/issues/23928",
      "node_id" : "IC_kwDOABII58472Xml",
      "performed_via_github_app" : null,
      "reactions" : {
         "+1" : 0,
         "-1" : 0,
         "confused" : 0,
         "eyes" : 0,
         "heart" : 0,
         "hooray" : 0,
         "laugh" : 0,
         "rocket" : 0,
         "total_count" : 0,
         "url" : "https://api.github.com/repos/bitcoin/bitcoin/issues/comments/1004108197/reactions"
      },
      "updated_at" : "2022-01-03T13:55:30Z",
      "url" : "https://api.github.com/repos/bitcoin/bitcoin/issues/comments/1004108197",
      "user" : {
         "avatar_url" : "https://avatars.githubusercontent.com/u/91535?v=4",
         "events_url" : "https://api.github.com/users/theStack/events{/privacy}",
         "followers_url" : "https://api.github.com/users/theStack/followers",
         "following_url" : "https://api.github.com/users/theStack/following{/other_user}",
         "gists_url" : "https://api.github.com/users/theStack/gists{/gist_id}",
         "gravatar_id" : "",
         "html_url" : "https://github.com/theStack",
         "id" : 91535,
         "login" : "theStack",
         "node_id" : "MDQ6VXNlcjkxNTM1",
         "organizations_url" : "https://api.github.com/users/theStack/orgs",
         "received_events_url" : "https://api.github.com/users/theStack/received_events",
         "repos_url" : "https://api.github.com/users/theStack/repos",
         "site_admin" : false,
         "starred_url" : "https://api.github.com/users/theStack/starred{/owner}{/repo}",
         "subscriptions_url" : "https://api.github.com/users/theStack/subscriptions",
         "type" : "User",
         "url" : "https://api.github.com/users/theStack"
      }
   },
   {
      "author_association" : "CONTRIBUTOR",
      "body" : "> So if a test shuts down the nodes, it won't be possible to use perf?\r\n\r\nTrue, nice thought. So, it would be better to create a flag `perf_available` as suggested by @theStack (default false) in TestNode, and set it true in `_start_perf`.\r\n```python\r\nsubp = subprocess.Popen(cmd, stdout=subprocess.PIPE, stderr=subprocess.PIPE)\r\nself.perf_subprocesses[profile_name] = subp\r\nself.perf_available = True\r\n```\r\n\r\nand then, use this flag to verify, like:\r\n```python\r\nperf_available = any(bool(node.perf_available) for node in self.nodes)\r\nshould_clean_up = (\r\n     not self.options.nocleanup and\r\n     not self.options.noshutdown and\r\n     self.success != TestStatus.FAILED and\r\n     not (self.options.perf and perf_available)\r\n)\r\n```\r\n\r\nWhat do you think?",
      "created_at" : "2022-01-03T14:19:15Z",
      "html_url" : "https://github.com/bitcoin/bitcoin/pull/23928#issuecomment-1004123969",
      "id" : 1004123969,
      "issue_url" : "https://api.github.com/repos/bitcoin/bitcoin/issues/23928",
      "node_id" : "IC_kwDOABII58472bdB",
      "performed_via_github_app" : null,
      "reactions" : {
         "+1" : 0,
         "-1" : 0,
         "confused" : 0,
         "eyes" : 0,
         "heart" : 0,
         "hooray" : 0,
         "laugh" : 0,
         "rocket" : 0,
         "total_count" : 0,
         "url" : "https://api.github.com/repos/bitcoin/bitcoin/issues/comments/1004123969/reactions"
      },
      "updated_at" : "2022-01-03T14:19:15Z",
      "url" : "https://api.github.com/repos/bitcoin/bitcoin/issues/comments/1004123969",
      "user" : {
         "avatar_url" : "https://avatars.githubusercontent.com/u/19480819?v=4",
         "events_url" : "https://api.github.com/users/brunoerg/events{/privacy}",
         "followers_url" : "https://api.github.com/users/brunoerg/followers",
         "following_url" : "https://api.github.com/users/brunoerg/following{/other_user}",
         "gists_url" : "https://api.github.com/users/brunoerg/gists{/gist_id}",
         "gravatar_id" : "",
         "html_url" : "https://github.com/brunoerg",
         "id" : 19480819,
         "login" : "brunoerg",
         "node_id" : "MDQ6VXNlcjE5NDgwODE5",
         "organizations_url" : "https://api.github.com/users/brunoerg/orgs",
         "received_events_url" : "https://api.github.com/users/brunoerg/received_events",
         "repos_url" : "https://api.github.com/users/brunoerg/repos",
         "site_admin" : false,
         "starred_url" : "https://api.github.com/users/brunoerg/starred{/owner}{/repo}",
         "subscriptions_url" : "https://api.github.com/users/brunoerg/subscriptions",
         "type" : "User",
         "url" : "https://api.github.com/users/brunoerg"
      }
   },
   {
      "author_association" : "CONTRIBUTOR",
      "body" : "@brunoerg \r\n\r\nI reckon this would be a better way to go about, as:\r\n- We would not be dependent on the existence of the `node.perf_subprocess` to check if _perf-tools_ were used successfully or not.\r\n- Value of `node.perf_available` set to true would ensure with 100% confidence that _perf-tools_ were used successfully for this node, and hence datadir should not be cleaned.",
      "created_at" : "2022-01-03T14:32:51Z",
      "html_url" : "https://github.com/bitcoin/bitcoin/pull/23928#issuecomment-1004133472",
      "id" : 1004133472,
      "issue_url" : "https://api.github.com/repos/bitcoin/bitcoin/issues/23928",
      "node_id" : "IC_kwDOABII58472dxg",
      "performed_via_github_app" : null,
      "reactions" : {
         "+1" : 0,
         "-1" : 0,
         "confused" : 0,
         "eyes" : 0,
         "heart" : 0,
         "hooray" : 0,
         "laugh" : 0,
         "rocket" : 0,
         "total_count" : 0,
         "url" : "https://api.github.com/repos/bitcoin/bitcoin/issues/comments/1004133472/reactions"
      },
      "updated_at" : "2022-01-03T14:32:51Z",
      "url" : "https://api.github.com/repos/bitcoin/bitcoin/issues/comments/1004133472",
      "user" : {
         "avatar_url" : "https://avatars.githubusercontent.com/u/85434418?v=4",
         "events_url" : "https://api.github.com/users/shaavan/events{/privacy}",
         "followers_url" : "https://api.github.com/users/shaavan/followers",
         "following_url" : "https://api.github.com/users/shaavan/following{/other_user}",
         "gists_url" : "https://api.github.com/users/shaavan/gists{/gist_id}",
         "gravatar_id" : "",
         "html_url" : "https://github.com/shaavan",
         "id" : 85434418,
         "login" : "shaavan",
         "node_id" : "MDQ6VXNlcjg1NDM0NDE4",
         "organizations_url" : "https://api.github.com/users/shaavan/orgs",
         "received_events_url" : "https://api.github.com/users/shaavan/received_events",
         "repos_url" : "https://api.github.com/users/shaavan/repos",
         "site_admin" : false,
         "starred_url" : "https://api.github.com/users/shaavan/starred{/owner}{/repo}",
         "subscriptions_url" : "https://api.github.com/users/shaavan/subscriptions",
         "type" : "User",
         "url" : "https://api.github.com/users/shaavan"
      }
   },
   {
      "author_association" : "CONTRIBUTOR",
      "body" : "force-pushed to change the approach, now using a flag instead of checking the subprocess.",
      "created_at" : "2022-01-03T16:08:30Z",
      "html_url" : "https://github.com/bitcoin/bitcoin/pull/23928#issuecomment-1004194414",
      "id" : 1004194414,
      "issue_url" : "https://api.github.com/repos/bitcoin/bitcoin/issues/23928",
      "node_id" : "IC_kwDOABII58472spu",
      "performed_via_github_app" : null,
      "reactions" : {
         "+1" : 0,
         "-1" : 0,
         "confused" : 0,
         "eyes" : 0,
         "heart" : 0,
         "hooray" : 0,
         "laugh" : 0,
         "rocket" : 0,
         "total_count" : 0,
         "url" : "https://api.github.com/repos/bitcoin/bitcoin/issues/comments/1004194414/reactions"
      },
      "updated_at" : "2022-01-03T16:08:30Z",
      "url" : "https://api.github.com/repos/bitcoin/bitcoin/issues/comments/1004194414",
      "user" : {
         "avatar_url" : "https://avatars.githubusercontent.com/u/19480819?v=4",
         "events_url" : "https://api.github.com/users/brunoerg/events{/privacy}",
         "followers_url" : "https://api.github.com/users/brunoerg/followers",
         "following_url" : "https://api.github.com/users/brunoerg/following{/other_user}",
         "gists_url" : "https://api.github.com/users/brunoerg/gists{/gist_id}",
         "gravatar_id" : "",
         "html_url" : "https://github.com/brunoerg",
         "id" : 19480819,
         "login" : "brunoerg",
         "node_id" : "MDQ6VXNlcjE5NDgwODE5",
         "organizations_url" : "https://api.github.com/users/brunoerg/orgs",
         "received_events_url" : "https://api.github.com/users/brunoerg/received_events",
         "repos_url" : "https://api.github.com/users/brunoerg/repos",
         "site_admin" : false,
         "starred_url" : "https://api.github.com/users/brunoerg/starred{/owner}{/repo}",
         "subscriptions_url" : "https://api.github.com/users/brunoerg/subscriptions",
         "type" : "User",
         "url" : "https://api.github.com/users/brunoerg"
      }
   },
   {
      "author_association" : "CONTRIBUTOR",
      "body" : "Is this approach ok for that situation? @MarcoFalke @theStack ",
      "created_at" : "2022-01-04T21:43:23Z",
      "html_url" : "https://github.com/bitcoin/bitcoin/pull/23928#issuecomment-1005192374",
      "id" : 1005192374,
      "issue_url" : "https://api.github.com/repos/bitcoin/bitcoin/issues/23928",
      "node_id" : "IC_kwDOABII58476gS2",
      "performed_via_github_app" : null,
      "reactions" : {
         "+1" : 0,
         "-1" : 0,
         "confused" : 0,
         "eyes" : 0,
         "heart" : 0,
         "hooray" : 0,
         "laugh" : 0,
         "rocket" : 0,
         "total_count" : 0,
         "url" : "https://api.github.com/repos/bitcoin/bitcoin/issues/comments/1005192374/reactions"
      },
      "updated_at" : "2022-01-04T21:43:23Z",
      "url" : "https://api.github.com/repos/bitcoin/bitcoin/issues/comments/1005192374",
      "user" : {
         "avatar_url" : "https://avatars.githubusercontent.com/u/19480819?v=4",
         "events_url" : "https://api.github.com/users/brunoerg/events{/privacy}",
         "followers_url" : "https://api.github.com/users/brunoerg/followers",
         "following_url" : "https://api.github.com/users/brunoerg/following{/other_user}",
         "gists_url" : "https://api.github.com/users/brunoerg/gists{/gist_id}",
         "gravatar_id" : "",
         "html_url" : "https://github.com/brunoerg",
         "id" : 19480819,
         "login" : "brunoerg",
         "node_id" : "MDQ6VXNlcjE5NDgwODE5",
         "organizations_url" : "https://api.github.com/users/brunoerg/orgs",
         "received_events_url" : "https://api.github.com/users/brunoerg/received_events",
         "repos_url" : "https://api.github.com/users/brunoerg/repos",
         "site_admin" : false,
         "starred_url" : "https://api.github.com/users/brunoerg/starred{/owner}{/repo}",
         "subscriptions_url" : "https://api.github.com/users/brunoerg/subscriptions",
         "type" : "User",
         "url" : "https://api.github.com/users/brunoerg"
      }
   },
   {
      "author_association" : "MEMBER",
      "body" : "Still not sure about this. What is the point of continuing the test when the user asked for `perf`, but it is not available? Shouldn't the test fail early with an error?",
      "created_at" : "2022-01-26T15:07:50Z",
      "html_url" : "https://github.com/bitcoin/bitcoin/pull/23928#issuecomment-1022287656",
      "id" : 1022287656,
      "issue_url" : "https://api.github.com/repos/bitcoin/bitcoin/issues/23928",
      "node_id" : "IC_kwDOABII58487t8o",
      "performed_via_github_app" : null,
      "reactions" : {
         "+1" : 0,
         "-1" : 0,
         "confused" : 0,
         "eyes" : 0,
         "heart" : 0,
         "hooray" : 0,
         "laugh" : 0,
         "rocket" : 0,
         "total_count" : 0,
         "url" : "https://api.github.com/repos/bitcoin/bitcoin/issues/comments/1022287656/reactions"
      },
      "updated_at" : "2022-01-26T15:07:50Z",
      "url" : "https://api.github.com/repos/bitcoin/bitcoin/issues/comments/1022287656",
      "user" : {
         "avatar_url" : "https://avatars.githubusercontent.com/u/6399679?v=4",
         "events_url" : "https://api.github.com/users/MarcoFalke/events{/privacy}",
         "followers_url" : "https://api.github.com/users/MarcoFalke/followers",
         "following_url" : "https://api.github.com/users/MarcoFalke/following{/other_user}",
         "gists_url" : "https://api.github.com/users/MarcoFalke/gists{/gist_id}",
         "gravatar_id" : "",
         "html_url" : "https://github.com/MarcoFalke",
         "id" : 6399679,
         "login" : "MarcoFalke",
         "node_id" : "MDQ6VXNlcjYzOTk2Nzk=",
         "organizations_url" : "https://api.github.com/users/MarcoFalke/orgs",
         "received_events_url" : "https://api.github.com/users/MarcoFalke/received_events",
         "repos_url" : "https://api.github.com/users/MarcoFalke/repos",
         "site_admin" : false,
         "starred_url" : "https://api.github.com/users/MarcoFalke/starred{/owner}{/repo}",
         "subscriptions_url" : "https://api.github.com/users/MarcoFalke/subscriptions",
         "type" : "User",
         "url" : "https://api.github.com/users/MarcoFalke"
      }
   },
   {
      "author_association" : "CONTRIBUTOR",
      "body" : "If more people agree on failing the test when perf is not available, I can change the approach. However, I believe the test could be executed normally since perf is just a tool to measure performance.",
      "created_at" : "2022-01-27T15:59:42Z",
      "html_url" : "https://github.com/bitcoin/bitcoin/pull/23928#issuecomment-1023367342",
      "id" : 1023367342,
      "issue_url" : "https://api.github.com/repos/bitcoin/bitcoin/issues/23928",
      "node_id" : "IC_kwDOABII5848_1iu",
      "performed_via_github_app" : null,
      "reactions" : {
         "+1" : 0,
         "-1" : 0,
         "confused" : 0,
         "eyes" : 0,
         "heart" : 0,
         "hooray" : 0,
         "laugh" : 0,
         "rocket" : 0,
         "total_count" : 0,
         "url" : "https://api.github.com/repos/bitcoin/bitcoin/issues/comments/1023367342/reactions"
      },
      "updated_at" : "2022-01-27T15:59:42Z",
      "url" : "https://api.github.com/repos/bitcoin/bitcoin/issues/comments/1023367342",
      "user" : {
         "avatar_url" : "https://avatars.githubusercontent.com/u/19480819?v=4",
         "events_url" : "https://api.github.com/users/brunoerg/events{/privacy}",
         "followers_url" : "https://api.github.com/users/brunoerg/followers",
         "following_url" : "https://api.github.com/users/brunoerg/following{/other_user}",
         "gists_url" : "https://api.github.com/users/brunoerg/gists{/gist_id}",
         "gravatar_id" : "",
         "html_url" : "https://github.com/brunoerg",
         "id" : 19480819,
         "login" : "brunoerg",
         "node_id" : "MDQ6VXNlcjE5NDgwODE5",
         "organizations_url" : "https://api.github.com/users/brunoerg/orgs",
         "received_events_url" : "https://api.github.com/users/brunoerg/received_events",
         "repos_url" : "https://api.github.com/users/brunoerg/repos",
         "site_admin" : false,
         "starred_url" : "https://api.github.com/users/brunoerg/starred{/owner}{/repo}",
         "subscriptions_url" : "https://api.github.com/users/brunoerg/subscriptions",
         "type" : "User",
         "url" : "https://api.github.com/users/brunoerg"
      }
   },
   {
      "author_association" : "MEMBER",
      "body" : "@MarcoFalke any thoughts after the latest comment?",
      "created_at" : "2022-05-06T10:51:31Z",
      "html_url" : "https://github.com/bitcoin/bitcoin/pull/23928#issuecomment-1119490333",
      "id" : 1119490333,
      "issue_url" : "https://api.github.com/repos/bitcoin/bitcoin/issues/23928",
      "node_id" : "IC_kwDOABII585CuhEd",
      "performed_via_github_app" : null,
      "reactions" : {
         "+1" : 0,
         "-1" : 0,
         "confused" : 0,
         "eyes" : 0,
         "heart" : 0,
         "hooray" : 0,
         "laugh" : 0,
         "rocket" : 0,
         "total_count" : 0,
         "url" : "https://api.github.com/repos/bitcoin/bitcoin/issues/comments/1119490333/reactions"
      },
      "updated_at" : "2022-05-06T10:51:31Z",
      "url" : "https://api.github.com/repos/bitcoin/bitcoin/issues/comments/1119490333",
      "user" : {
         "avatar_url" : "https://avatars.githubusercontent.com/u/863730?v=4",
         "events_url" : "https://api.github.com/users/fanquake/events{/privacy}",
         "followers_url" : "https://api.github.com/users/fanquake/followers",
         "following_url" : "https://api.github.com/users/fanquake/following{/other_user}",
         "gists_url" : "https://api.github.com/users/fanquake/gists{/gist_id}",
         "gravatar_id" : "",
         "html_url" : "https://github.com/fanquake",
         "id" : 863730,
         "login" : "fanquake",
         "node_id" : "MDQ6VXNlcjg2MzczMA==",
         "organizations_url" : "https://api.github.com/users/fanquake/orgs",
         "received_events_url" : "https://api.github.com/users/fanquake/received_events",
         "repos_url" : "https://api.github.com/users/fanquake/repos",
         "site_admin" : false,
         "starred_url" : "https://api.github.com/users/fanquake/starred{/owner}{/repo}",
         "subscriptions_url" : "https://api.github.com/users/fanquake/subscriptions",
         "type" : "User",
         "url" : "https://api.github.com/users/fanquake"
      }
   },
   {
      "author_association" : "MEMBER",
      "body" : "No, I don't have new thoughts related to this pull request",
      "created_at" : "2022-05-06T11:15:28Z",
      "html_url" : "https://github.com/bitcoin/bitcoin/pull/23928#issuecomment-1119507386",
      "id" : 1119507386,
      "issue_url" : "https://api.github.com/repos/bitcoin/bitcoin/issues/23928",
      "node_id" : "IC_kwDOABII585CulO6",
      "performed_via_github_app" : null,
      "reactions" : {
         "+1" : 0,
         "-1" : 0,
         "confused" : 0,
         "eyes" : 0,
         "heart" : 0,
         "hooray" : 0,
         "laugh" : 0,
         "rocket" : 0,
         "total_count" : 0,
         "url" : "https://api.github.com/repos/bitcoin/bitcoin/issues/comments/1119507386/reactions"
      },
      "updated_at" : "2022-05-06T11:15:28Z",
      "url" : "https://api.github.com/repos/bitcoin/bitcoin/issues/comments/1119507386",
      "user" : {
         "avatar_url" : "https://avatars.githubusercontent.com/u/6399679?v=4",
         "events_url" : "https://api.github.com/users/MarcoFalke/events{/privacy}",
         "followers_url" : "https://api.github.com/users/MarcoFalke/followers",
         "following_url" : "https://api.github.com/users/MarcoFalke/following{/other_user}",
         "gists_url" : "https://api.github.com/users/MarcoFalke/gists{/gist_id}",
         "gravatar_id" : "",
         "html_url" : "https://github.com/MarcoFalke",
         "id" : 6399679,
         "login" : "MarcoFalke",
         "node_id" : "MDQ6VXNlcjYzOTk2Nzk=",
         "organizations_url" : "https://api.github.com/users/MarcoFalke/orgs",
         "received_events_url" : "https://api.github.com/users/MarcoFalke/received_events",
         "repos_url" : "https://api.github.com/users/MarcoFalke/repos",
         "site_admin" : false,
         "starred_url" : "https://api.github.com/users/MarcoFalke/starred{/owner}{/repo}",
         "subscriptions_url" : "https://api.github.com/users/MarcoFalke/subscriptions",
         "type" : "User",
         "url" : "https://api.github.com/users/MarcoFalke"
      }
   }
]
