{
   "active_lock_reason" : null,
   "assignee" : null,
   "assignees" : [],
   "author_association" : "MEMBER",
   "body" : "https://cirrus-ci.com/task/4615142003441664\r\n\r\n<details><summary>log excerpt</summary>\r\n<p>\r\n\r\n```\r\n177/244 - wallet_encryption.py --descriptors failed, Duration: 6 s\r\n\r\nstdout:\r\n2022-06-27T07:50:03.095000Z TestFramework (INFO): Initializing test directory C:\\Users\\ContainerAdministrator\\AppData\\Local\\Temp\\test_runner_â¿_ð_20220627_071202\\wallet_encryption_65\r\n\r\n2022-06-27T07:50:08.820000Z TestFramework (INFO): Check a timeout less than the limit\r\n\r\n2022-06-27T07:50:09.007000Z TestFramework (ERROR): Assertion failed\r\n\r\nTraceback (most recent call last):\r\n\r\n  File \"C:\\Users\\ContainerAdministrator\\AppData\\Local\\Temp\\cirrus-ci-build\\test\\functional\\test_framework\\test_framework.py\", line 133, in main\r\n\r\n    self.run_test()\r\n\r\n  File \"C:\\Users\\ContainerAdministrator\\AppData\\Local\\Temp\\cirrus-ci-build\\test\\functional\\wallet_encryption.py\", line 85, in run_test\r\n\r\n    assert_greater_than(expected_time_with_buffer, actual_time)\r\n\r\n  File \"C:\\Users\\ContainerAdministrator\\AppData\\Local\\Temp\\cirrus-ci-build\\test\\functional\\test_framework\\util.py\", line 56, in assert_greater_than\r\n\r\n    raise AssertionError(\"%s <= %s\" % (str(thing1), str(thing2)))\r\n\r\nAssertionError: 1756315608.992383 <= 1756315609\r\n\r\n2022-06-27T07:50:09.070000Z TestFramework (INFO): Stopping nodes\r\n\r\n2022-06-27T07:50:09.211000Z TestFramework (WARNING): Not cleaning up dir C:\\Users\\ContainerAdministrator\\AppData\\Local\\Temp\\test_runner_â¿_ð_20220627_071202\\wallet_encryption_65\r\n\r\n2022-06-27T07:50:09.211000Z TestFramework (ERROR): Test failed. Test logging available at C:\\Users\\ContainerAdministrator\\AppData\\Local\\Temp\\test_runner_â¿_ð_20220627_071202\\wallet_encryption_65/test_framework.log\r\n\r\n2022-06-27T07:50:09.211000Z TestFramework (ERROR): \r\n\r\n2022-06-27T07:50:09.211000Z TestFramework (ERROR): Hint: Call C:\\Users\\ContainerAdministrator\\AppData\\Local\\Temp\\cirrus-ci-build\\test\\functional\\combine_logs.py 'C:\\Users\\ContainerAdministrator\\AppData\\Local\\Temp\\test_runner_â¿_ð_20220627_071202\\wallet_encryption_65' to consolidate all logs\r\n\r\n2022-06-27T07:50:09.211000Z TestFramework (ERROR): \r\n\r\n2022-06-27T07:50:09.211000Z TestFramework (ERROR): If this failure happened unexpectedly or intermittently, please file a bug and provide a link or upload of the combined log.\r\n\r\n2022-06-27T07:50:09.211000Z TestFramework (ERROR): https://github.com/bitcoin/bitcoin/issues\r\n\r\n2022-06-27T07:50:09.211000Z TestFramework (ERROR): \r\n```\r\n\r\n</p>\r\n</details>",
   "closed_at" : null,
   "closed_by" : null,
   "comments" : 0,
   "comments_url" : "https://api.github.com/repos/bitcoin/bitcoin/issues/25482/comments",
   "created_at" : "2022-06-27T08:19:26Z",
   "events_url" : "https://api.github.com/repos/bitcoin/bitcoin/issues/25482/events",
   "html_url" : "https://github.com/bitcoin/bitcoin/issues/25482",
   "id" : 1285427476,
   "labels" : [
      {
         "color" : "FBBAAB",
         "default" : false,
         "description" : null,
         "id" : 64585,
         "name" : "Bug",
         "node_id" : "MDU6TGFiZWw2NDU4NQ==",
         "url" : "https://api.github.com/repos/bitcoin/bitcoin/labels/Bug"
      },
      {
         "color" : "08a781",
         "default" : false,
         "description" : null,
         "id" : 149424,
         "name" : "Wallet",
         "node_id" : "MDU6TGFiZWwxNDk0MjQ=",
         "url" : "https://api.github.com/repos/bitcoin/bitcoin/labels/Wallet"
      },
      {
         "color" : "d4c5f9",
         "default" : false,
         "description" : null,
         "id" : 62963516,
         "name" : "Tests",
         "node_id" : "MDU6TGFiZWw2Mjk2MzUxNg==",
         "url" : "https://api.github.com/repos/bitcoin/bitcoin/labels/Tests"
      }
   ],
   "labels_url" : "https://api.github.com/repos/bitcoin/bitcoin/issues/25482/labels{/name}",
   "locked" : false,
   "milestone" : null,
   "node_id" : "I_kwDOABII585MnhEU",
   "number" : 25482,
   "performed_via_github_app" : null,
   "reactions" : {
      "+1" : 0,
      "-1" : 0,
      "confused" : 0,
      "eyes" : 0,
      "heart" : 0,
      "hooray" : 0,
      "laugh" : 0,
      "rocket" : 0,
      "total_count" : 0,
      "url" : "https://api.github.com/repos/bitcoin/bitcoin/issues/25482/reactions"
   },
   "repository_url" : "https://api.github.com/repos/bitcoin/bitcoin",
   "state" : "open",
   "state_reason" : null,
   "timeline_url" : "https://api.github.com/repos/bitcoin/bitcoin/issues/25482/timeline",
   "title" : "qa: Intermittent failure in `wallet_encryption.py --descriptors`",
   "updated_at" : "2022-06-27T08:19:26Z",
   "url" : "https://api.github.com/repos/bitcoin/bitcoin/issues/25482",
   "user" : {
      "avatar_url" : "https://avatars.githubusercontent.com/u/32963518?v=4",
      "events_url" : "https://api.github.com/users/hebasto/events{/privacy}",
      "followers_url" : "https://api.github.com/users/hebasto/followers",
      "following_url" : "https://api.github.com/users/hebasto/following{/other_user}",
      "gists_url" : "https://api.github.com/users/hebasto/gists{/gist_id}",
      "gravatar_id" : "",
      "html_url" : "https://github.com/hebasto",
      "id" : 32963518,
      "login" : "hebasto",
      "node_id" : "MDQ6VXNlcjMyOTYzNTE4",
      "organizations_url" : "https://api.github.com/users/hebasto/orgs",
      "received_events_url" : "https://api.github.com/users/hebasto/received_events",
      "repos_url" : "https://api.github.com/users/hebasto/repos",
      "site_admin" : false,
      "starred_url" : "https://api.github.com/users/hebasto/starred{/owner}{/repo}",
      "subscriptions_url" : "https://api.github.com/users/hebasto/subscriptions",
      "type" : "User",
      "url" : "https://api.github.com/users/hebasto"
   }
}
