[
   {
      "author_association" : "MEMBER",
      "body" : "Concept ACK, this is exactly what daemonwait is for.",
      "created_at" : "2022-04-14T07:50:46Z",
      "html_url" : "https://github.com/bitcoin/bitcoin/pull/24066#issuecomment-1098812276",
      "id" : 1098812276,
      "issue_url" : "https://api.github.com/repos/bitcoin/bitcoin/issues/24066",
      "node_id" : "IC_kwDOABII585Bfot0",
      "performed_via_github_app" : null,
      "reactions" : {
         "+1" : 0,
         "-1" : 0,
         "confused" : 0,
         "eyes" : 0,
         "heart" : 0,
         "hooray" : 0,
         "laugh" : 0,
         "rocket" : 0,
         "total_count" : 0,
         "url" : "https://api.github.com/repos/bitcoin/bitcoin/issues/comments/1098812276/reactions"
      },
      "updated_at" : "2022-04-14T07:50:46Z",
      "url" : "https://api.github.com/repos/bitcoin/bitcoin/issues/comments/1098812276",
      "user" : {
         "avatar_url" : "https://avatars.githubusercontent.com/u/126646?v=4",
         "events_url" : "https://api.github.com/users/laanwj/events{/privacy}",
         "followers_url" : "https://api.github.com/users/laanwj/followers",
         "following_url" : "https://api.github.com/users/laanwj/following{/other_user}",
         "gists_url" : "https://api.github.com/users/laanwj/gists{/gist_id}",
         "gravatar_id" : "",
         "html_url" : "https://github.com/laanwj",
         "id" : 126646,
         "login" : "laanwj",
         "node_id" : "MDQ6VXNlcjEyNjY0Ng==",
         "organizations_url" : "https://api.github.com/users/laanwj/orgs",
         "received_events_url" : "https://api.github.com/users/laanwj/received_events",
         "repos_url" : "https://api.github.com/users/laanwj/repos",
         "site_admin" : false,
         "starred_url" : "https://api.github.com/users/laanwj/starred{/owner}{/repo}",
         "subscriptions_url" : "https://api.github.com/users/laanwj/subscriptions",
         "type" : "User",
         "url" : "https://api.github.com/users/laanwj"
      }
   }
]
