{
   "_links" : {
      "comments" : {
         "href" : "https://api.github.com/repos/bitcoin/bitcoin/issues/25021/comments"
      },
      "commits" : {
         "href" : "https://api.github.com/repos/bitcoin/bitcoin/pulls/25021/commits"
      },
      "html" : {
         "href" : "https://github.com/bitcoin/bitcoin/pull/25021"
      },
      "issue" : {
         "href" : "https://api.github.com/repos/bitcoin/bitcoin/issues/25021"
      },
      "review_comment" : {
         "href" : "https://api.github.com/repos/bitcoin/bitcoin/pulls/comments{/number}"
      },
      "review_comments" : {
         "href" : "https://api.github.com/repos/bitcoin/bitcoin/pulls/25021/comments"
      },
      "self" : {
         "href" : "https://api.github.com/repos/bitcoin/bitcoin/pulls/25021"
      },
      "statuses" : {
         "href" : "https://api.github.com/repos/bitcoin/bitcoin/statuses/189f57bd03d484f396ffe4cc88164222c57435e2"
      }
   },
   "active_lock_reason" : null,
   "additions" : 41,
   "assignee" : null,
   "assignees" : [],
   "author_association" : "MEMBER",
   "auto_merge" : null,
   "base" : {
      "label" : "bitcoin:master",
      "ref" : "master",
      "repo" : {
         "allow_forking" : true,
         "archive_url" : "https://api.github.com/repos/bitcoin/bitcoin/{archive_format}{/ref}",
         "archived" : false,
         "assignees_url" : "https://api.github.com/repos/bitcoin/bitcoin/assignees{/user}",
         "blobs_url" : "https://api.github.com/repos/bitcoin/bitcoin/git/blobs{/sha}",
         "branches_url" : "https://api.github.com/repos/bitcoin/bitcoin/branches{/branch}",
         "clone_url" : "https://github.com/bitcoin/bitcoin.git",
         "collaborators_url" : "https://api.github.com/repos/bitcoin/bitcoin/collaborators{/collaborator}",
         "comments_url" : "https://api.github.com/repos/bitcoin/bitcoin/comments{/number}",
         "commits_url" : "https://api.github.com/repos/bitcoin/bitcoin/commits{/sha}",
         "compare_url" : "https://api.github.com/repos/bitcoin/bitcoin/compare/{base}...{head}",
         "contents_url" : "https://api.github.com/repos/bitcoin/bitcoin/contents/{+path}",
         "contributors_url" : "https://api.github.com/repos/bitcoin/bitcoin/contributors",
         "created_at" : "2010-12-19T15:16:43Z",
         "default_branch" : "master",
         "deployments_url" : "https://api.github.com/repos/bitcoin/bitcoin/deployments",
         "description" : "Bitcoin Core integration/staging tree",
         "disabled" : false,
         "downloads_url" : "https://api.github.com/repos/bitcoin/bitcoin/downloads",
         "events_url" : "https://api.github.com/repos/bitcoin/bitcoin/events",
         "fork" : false,
         "forks" : 32812,
         "forks_count" : 32812,
         "forks_url" : "https://api.github.com/repos/bitcoin/bitcoin/forks",
         "full_name" : "bitcoin/bitcoin",
         "git_commits_url" : "https://api.github.com/repos/bitcoin/bitcoin/git/commits{/sha}",
         "git_refs_url" : "https://api.github.com/repos/bitcoin/bitcoin/git/refs{/sha}",
         "git_tags_url" : "https://api.github.com/repos/bitcoin/bitcoin/git/tags{/sha}",
         "git_url" : "git://github.com/bitcoin/bitcoin.git",
         "has_downloads" : false,
         "has_issues" : true,
         "has_pages" : false,
         "has_projects" : true,
         "has_wiki" : false,
         "homepage" : "https://bitcoincore.org/en/download",
         "hooks_url" : "https://api.github.com/repos/bitcoin/bitcoin/hooks",
         "html_url" : "https://github.com/bitcoin/bitcoin",
         "id" : 1181927,
         "is_template" : false,
         "issue_comment_url" : "https://api.github.com/repos/bitcoin/bitcoin/issues/comments{/number}",
         "issue_events_url" : "https://api.github.com/repos/bitcoin/bitcoin/issues/events{/number}",
         "issues_url" : "https://api.github.com/repos/bitcoin/bitcoin/issues{/number}",
         "keys_url" : "https://api.github.com/repos/bitcoin/bitcoin/keys{/key_id}",
         "labels_url" : "https://api.github.com/repos/bitcoin/bitcoin/labels{/name}",
         "language" : "C++",
         "languages_url" : "https://api.github.com/repos/bitcoin/bitcoin/languages",
         "license" : {
            "key" : "mit",
            "name" : "MIT License",
            "node_id" : "MDc6TGljZW5zZTEz",
            "spdx_id" : "MIT",
            "url" : "https://api.github.com/licenses/mit"
         },
         "merges_url" : "https://api.github.com/repos/bitcoin/bitcoin/merges",
         "milestones_url" : "https://api.github.com/repos/bitcoin/bitcoin/milestones{/number}",
         "mirror_url" : null,
         "name" : "bitcoin",
         "node_id" : "MDEwOlJlcG9zaXRvcnkxMTgxOTI3",
         "notifications_url" : "https://api.github.com/repos/bitcoin/bitcoin/notifications{?since,all,participating}",
         "open_issues" : 892,
         "open_issues_count" : 892,
         "owner" : {
            "avatar_url" : "https://avatars.githubusercontent.com/u/528860?v=4",
            "events_url" : "https://api.github.com/users/bitcoin/events{/privacy}",
            "followers_url" : "https://api.github.com/users/bitcoin/followers",
            "following_url" : "https://api.github.com/users/bitcoin/following{/other_user}",
            "gists_url" : "https://api.github.com/users/bitcoin/gists{/gist_id}",
            "gravatar_id" : "",
            "html_url" : "https://github.com/bitcoin",
            "id" : 528860,
            "login" : "bitcoin",
            "node_id" : "MDEyOk9yZ2FuaXphdGlvbjUyODg2MA==",
            "organizations_url" : "https://api.github.com/users/bitcoin/orgs",
            "received_events_url" : "https://api.github.com/users/bitcoin/received_events",
            "repos_url" : "https://api.github.com/users/bitcoin/repos",
            "site_admin" : false,
            "starred_url" : "https://api.github.com/users/bitcoin/starred{/owner}{/repo}",
            "subscriptions_url" : "https://api.github.com/users/bitcoin/subscriptions",
            "type" : "Organization",
            "url" : "https://api.github.com/users/bitcoin"
         },
         "private" : false,
         "pulls_url" : "https://api.github.com/repos/bitcoin/bitcoin/pulls{/number}",
         "pushed_at" : "2022-08-10T15:58:54Z",
         "releases_url" : "https://api.github.com/repos/bitcoin/bitcoin/releases{/id}",
         "size" : 212446,
         "ssh_url" : "git@github.com:bitcoin/bitcoin.git",
         "stargazers_count" : 65608,
         "stargazers_url" : "https://api.github.com/repos/bitcoin/bitcoin/stargazers",
         "statuses_url" : "https://api.github.com/repos/bitcoin/bitcoin/statuses/{sha}",
         "subscribers_url" : "https://api.github.com/repos/bitcoin/bitcoin/subscribers",
         "subscription_url" : "https://api.github.com/repos/bitcoin/bitcoin/subscription",
         "svn_url" : "https://github.com/bitcoin/bitcoin",
         "tags_url" : "https://api.github.com/repos/bitcoin/bitcoin/tags",
         "teams_url" : "https://api.github.com/repos/bitcoin/bitcoin/teams",
         "topics" : [
            "bitcoin",
            "c-plus-plus",
            "cryptocurrency",
            "cryptography",
            "p2p"
         ],
         "trees_url" : "https://api.github.com/repos/bitcoin/bitcoin/git/trees{/sha}",
         "updated_at" : "2022-08-10T15:02:45Z",
         "url" : "https://api.github.com/repos/bitcoin/bitcoin",
         "visibility" : "public",
         "watchers" : 65608,
         "watchers_count" : 65608,
         "web_commit_signoff_required" : false
      },
      "sha" : "a6fc293c0a1f27ba1e573bfa16fd76d5f58988b2",
      "user" : {
         "avatar_url" : "https://avatars.githubusercontent.com/u/528860?v=4",
         "events_url" : "https://api.github.com/users/bitcoin/events{/privacy}",
         "followers_url" : "https://api.github.com/users/bitcoin/followers",
         "following_url" : "https://api.github.com/users/bitcoin/following{/other_user}",
         "gists_url" : "https://api.github.com/users/bitcoin/gists{/gist_id}",
         "gravatar_id" : "",
         "html_url" : "https://github.com/bitcoin",
         "id" : 528860,
         "login" : "bitcoin",
         "node_id" : "MDEyOk9yZ2FuaXphdGlvbjUyODg2MA==",
         "organizations_url" : "https://api.github.com/users/bitcoin/orgs",
         "received_events_url" : "https://api.github.com/users/bitcoin/received_events",
         "repos_url" : "https://api.github.com/users/bitcoin/repos",
         "site_admin" : false,
         "starred_url" : "https://api.github.com/users/bitcoin/starred{/owner}{/repo}",
         "subscriptions_url" : "https://api.github.com/users/bitcoin/subscriptions",
         "type" : "Organization",
         "url" : "https://api.github.com/users/bitcoin"
      }
   },
   "body" : "- Fix intermittent failures like https://cirrus-ci.com/task/4571677035069440 and https://cirrus-ci.com/task/6566987122868224\r\n- Document and tidy up RPC walletpassphrase MAX_SLEEP_TIME/nSleepTime\r\n- Add test logging and an assertion and use named args ",
   "changed_files" : 3,
   "closed_at" : null,
   "comments" : 39,
   "comments_url" : "https://api.github.com/repos/bitcoin/bitcoin/issues/25021/comments",
   "commits" : 3,
   "commits_url" : "https://api.github.com/repos/bitcoin/bitcoin/pulls/25021/commits",
   "created_at" : "2022-04-28T22:32:32Z",
   "deletions" : 38,
   "diff_url" : "https://github.com/bitcoin/bitcoin/pull/25021.diff",
   "draft" : false,
   "head" : {
      "label" : "jonatack:fix-intermittent-wallet_encryption-test",
      "ref" : "fix-intermittent-wallet_encryption-test",
      "repo" : {
         "allow_forking" : true,
         "archive_url" : "https://api.github.com/repos/jonatack/bitcoin/{archive_format}{/ref}",
         "archived" : false,
         "assignees_url" : "https://api.github.com/repos/jonatack/bitcoin/assignees{/user}",
         "blobs_url" : "https://api.github.com/repos/jonatack/bitcoin/git/blobs{/sha}",
         "branches_url" : "https://api.github.com/repos/jonatack/bitcoin/branches{/branch}",
         "clone_url" : "https://github.com/jonatack/bitcoin.git",
         "collaborators_url" : "https://api.github.com/repos/jonatack/bitcoin/collaborators{/collaborator}",
         "comments_url" : "https://api.github.com/repos/jonatack/bitcoin/comments{/number}",
         "commits_url" : "https://api.github.com/repos/jonatack/bitcoin/commits{/sha}",
         "compare_url" : "https://api.github.com/repos/jonatack/bitcoin/compare/{base}...{head}",
         "contents_url" : "https://api.github.com/repos/jonatack/bitcoin/contents/{+path}",
         "contributors_url" : "https://api.github.com/repos/jonatack/bitcoin/contributors",
         "created_at" : "2019-02-28T11:57:18Z",
         "default_branch" : "master",
         "deployments_url" : "https://api.github.com/repos/jonatack/bitcoin/deployments",
         "description" : "Bitcoin Core integration/staging tree",
         "disabled" : false,
         "downloads_url" : "https://api.github.com/repos/jonatack/bitcoin/downloads",
         "events_url" : "https://api.github.com/repos/jonatack/bitcoin/events",
         "fork" : true,
         "forks" : 0,
         "forks_count" : 0,
         "forks_url" : "https://api.github.com/repos/jonatack/bitcoin/forks",
         "full_name" : "jonatack/bitcoin",
         "git_commits_url" : "https://api.github.com/repos/jonatack/bitcoin/git/commits{/sha}",
         "git_refs_url" : "https://api.github.com/repos/jonatack/bitcoin/git/refs{/sha}",
         "git_tags_url" : "https://api.github.com/repos/jonatack/bitcoin/git/tags{/sha}",
         "git_url" : "git://github.com/jonatack/bitcoin.git",
         "has_downloads" : false,
         "has_issues" : false,
         "has_pages" : false,
         "has_projects" : true,
         "has_wiki" : false,
         "homepage" : "https://bitcoincore.org/en/download",
         "hooks_url" : "https://api.github.com/repos/jonatack/bitcoin/hooks",
         "html_url" : "https://github.com/jonatack/bitcoin",
         "id" : 173103842,
         "is_template" : false,
         "issue_comment_url" : "https://api.github.com/repos/jonatack/bitcoin/issues/comments{/number}",
         "issue_events_url" : "https://api.github.com/repos/jonatack/bitcoin/issues/events{/number}",
         "issues_url" : "https://api.github.com/repos/jonatack/bitcoin/issues{/number}",
         "keys_url" : "https://api.github.com/repos/jonatack/bitcoin/keys{/key_id}",
         "labels_url" : "https://api.github.com/repos/jonatack/bitcoin/labels{/name}",
         "language" : "C++",
         "languages_url" : "https://api.github.com/repos/jonatack/bitcoin/languages",
         "license" : {
            "key" : "mit",
            "name" : "MIT License",
            "node_id" : "MDc6TGljZW5zZTEz",
            "spdx_id" : "MIT",
            "url" : "https://api.github.com/licenses/mit"
         },
         "merges_url" : "https://api.github.com/repos/jonatack/bitcoin/merges",
         "milestones_url" : "https://api.github.com/repos/jonatack/bitcoin/milestones{/number}",
         "mirror_url" : null,
         "name" : "bitcoin",
         "node_id" : "MDEwOlJlcG9zaXRvcnkxNzMxMDM4NDI=",
         "notifications_url" : "https://api.github.com/repos/jonatack/bitcoin/notifications{?since,all,participating}",
         "open_issues" : 0,
         "open_issues_count" : 0,
         "owner" : {
            "avatar_url" : "https://avatars.githubusercontent.com/u/2415484?v=4",
            "events_url" : "https://api.github.com/users/jonatack/events{/privacy}",
            "followers_url" : "https://api.github.com/users/jonatack/followers",
            "following_url" : "https://api.github.com/users/jonatack/following{/other_user}",
            "gists_url" : "https://api.github.com/users/jonatack/gists{/gist_id}",
            "gravatar_id" : "",
            "html_url" : "https://github.com/jonatack",
            "id" : 2415484,
            "login" : "jonatack",
            "node_id" : "MDQ6VXNlcjI0MTU0ODQ=",
            "organizations_url" : "https://api.github.com/users/jonatack/orgs",
            "received_events_url" : "https://api.github.com/users/jonatack/received_events",
            "repos_url" : "https://api.github.com/users/jonatack/repos",
            "site_admin" : false,
            "starred_url" : "https://api.github.com/users/jonatack/starred{/owner}{/repo}",
            "subscriptions_url" : "https://api.github.com/users/jonatack/subscriptions",
            "type" : "User",
            "url" : "https://api.github.com/users/jonatack"
         },
         "private" : false,
         "pulls_url" : "https://api.github.com/repos/jonatack/bitcoin/pulls{/number}",
         "pushed_at" : "2022-08-10T15:02:56Z",
         "releases_url" : "https://api.github.com/repos/jonatack/bitcoin/releases{/id}",
         "size" : 201877,
         "ssh_url" : "git@github.com:jonatack/bitcoin.git",
         "stargazers_count" : 1,
         "stargazers_url" : "https://api.github.com/repos/jonatack/bitcoin/stargazers",
         "statuses_url" : "https://api.github.com/repos/jonatack/bitcoin/statuses/{sha}",
         "subscribers_url" : "https://api.github.com/repos/jonatack/bitcoin/subscribers",
         "subscription_url" : "https://api.github.com/repos/jonatack/bitcoin/subscription",
         "svn_url" : "https://github.com/jonatack/bitcoin",
         "tags_url" : "https://api.github.com/repos/jonatack/bitcoin/tags",
         "teams_url" : "https://api.github.com/repos/jonatack/bitcoin/teams",
         "topics" : [],
         "trees_url" : "https://api.github.com/repos/jonatack/bitcoin/git/trees{/sha}",
         "updated_at" : "2021-07-18T00:15:12Z",
         "url" : "https://api.github.com/repos/jonatack/bitcoin",
         "visibility" : "public",
         "watchers" : 1,
         "watchers_count" : 1,
         "web_commit_signoff_required" : false
      },
      "sha" : "189f57bd03d484f396ffe4cc88164222c57435e2",
      "user" : {
         "avatar_url" : "https://avatars.githubusercontent.com/u/2415484?v=4",
         "events_url" : "https://api.github.com/users/jonatack/events{/privacy}",
         "followers_url" : "https://api.github.com/users/jonatack/followers",
         "following_url" : "https://api.github.com/users/jonatack/following{/other_user}",
         "gists_url" : "https://api.github.com/users/jonatack/gists{/gist_id}",
         "gravatar_id" : "",
         "html_url" : "https://github.com/jonatack",
         "id" : 2415484,
         "login" : "jonatack",
         "node_id" : "MDQ6VXNlcjI0MTU0ODQ=",
         "organizations_url" : "https://api.github.com/users/jonatack/orgs",
         "received_events_url" : "https://api.github.com/users/jonatack/received_events",
         "repos_url" : "https://api.github.com/users/jonatack/repos",
         "site_admin" : false,
         "starred_url" : "https://api.github.com/users/jonatack/starred{/owner}{/repo}",
         "subscriptions_url" : "https://api.github.com/users/jonatack/subscriptions",
         "type" : "User",
         "url" : "https://api.github.com/users/jonatack"
      }
   },
   "html_url" : "https://github.com/bitcoin/bitcoin/pull/25021",
   "id" : 922436625,
   "issue_url" : "https://api.github.com/repos/bitcoin/bitcoin/issues/25021",
   "labels" : [
      {
         "color" : "884400",
         "default" : false,
         "description" : null,
         "id" : 234877,
         "name" : "Windows",
         "node_id" : "MDU6TGFiZWwyMzQ4Nzc=",
         "url" : "https://api.github.com/repos/bitcoin/bitcoin/labels/Windows"
      },
      {
         "color" : "d4c5f9",
         "default" : false,
         "description" : null,
         "id" : 62963516,
         "name" : "Tests",
         "node_id" : "MDU6TGFiZWw2Mjk2MzUxNg==",
         "url" : "https://api.github.com/repos/bitcoin/bitcoin/labels/Tests"
      }
   ],
   "locked" : false,
   "maintainer_can_modify" : true,
   "merge_commit_sha" : "850b5ab2c360e71c473854a690c7f2839a283f48",
   "mergeable" : true,
   "mergeable_state" : "blocked",
   "merged" : false,
   "merged_at" : null,
   "merged_by" : null,
   "milestone" : null,
   "node_id" : "PR_kwDOABII5842-0QR",
   "number" : 25021,
   "patch_url" : "https://github.com/bitcoin/bitcoin/pull/25021.patch",
   "rebaseable" : true,
   "requested_reviewers" : [],
   "requested_teams" : [],
   "review_comment_url" : "https://api.github.com/repos/bitcoin/bitcoin/pulls/comments{/number}",
   "review_comments" : 6,
   "review_comments_url" : "https://api.github.com/repos/bitcoin/bitcoin/pulls/25021/comments",
   "state" : "open",
   "statuses_url" : "https://api.github.com/repos/bitcoin/bitcoin/statuses/189f57bd03d484f396ffe4cc88164222c57435e2",
   "title" : "test: fix intermittent wallet_encryption failures on win64 task",
   "updated_at" : "2022-08-10T15:20:06Z",
   "url" : "https://api.github.com/repos/bitcoin/bitcoin/pulls/25021",
   "user" : {
      "avatar_url" : "https://avatars.githubusercontent.com/u/2415484?v=4",
      "events_url" : "https://api.github.com/users/jonatack/events{/privacy}",
      "followers_url" : "https://api.github.com/users/jonatack/followers",
      "following_url" : "https://api.github.com/users/jonatack/following{/other_user}",
      "gists_url" : "https://api.github.com/users/jonatack/gists{/gist_id}",
      "gravatar_id" : "",
      "html_url" : "https://github.com/jonatack",
      "id" : 2415484,
      "login" : "jonatack",
      "node_id" : "MDQ6VXNlcjI0MTU0ODQ=",
      "organizations_url" : "https://api.github.com/users/jonatack/orgs",
      "received_events_url" : "https://api.github.com/users/jonatack/received_events",
      "repos_url" : "https://api.github.com/users/jonatack/repos",
      "site_admin" : false,
      "starred_url" : "https://api.github.com/users/jonatack/starred{/owner}{/repo}",
      "subscriptions_url" : "https://api.github.com/users/jonatack/subscriptions",
      "type" : "User",
      "url" : "https://api.github.com/users/jonatack"
   }
}
