[
   {
      "author_association" : "CONTRIBUTOR",
      "body" : "<!--e57a25ab6845829454e8d69fc972939a-->\n\nThe following sections might be updated with supplementary metadata relevant to reviewers and maintainers.\n\n<!--174a7506f384e20aa4161008e828411d-->\n### Conflicts\nReviewers, this pull request conflicts with the following ones:\n\n* [#25704](https://github.com/bitcoin/bitcoin/pull/25704) (refactor: Remove almost all validation option globals by MarcoFalke)\n* [#25677](https://github.com/bitcoin/bitcoin/pull/25677) (refactor: make active_chain_tip a reference by aureleoules)\n* [#24567](https://github.com/bitcoin/bitcoin/pull/24567) (Enforce BIP 68 from genesis by MarcoFalke)\n* [#23897](https://github.com/bitcoin/bitcoin/pull/23897) (refactor: Move calculation logic out from `CheckSequenceLocksAtTip()` by hebasto)\n\nIf you consider this pull request important, please also help to review the conflicting pull requests. Ideally, start with the one that should be merged first.",
      "created_at" : "2022-05-06T20:21:37Z",
      "html_url" : "https://github.com/bitcoin/bitcoin/pull/25073#issuecomment-1119981797",
      "id" : 1119981797,
      "issue_url" : "https://api.github.com/repos/bitcoin/bitcoin/issues/25073",
      "node_id" : "IC_kwDOABII585CwZDl",
      "performed_via_github_app" : null,
      "reactions" : {
         "+1" : 0,
         "-1" : 0,
         "confused" : 0,
         "eyes" : 0,
         "heart" : 0,
         "hooray" : 0,
         "laugh" : 0,
         "rocket" : 0,
         "total_count" : 0,
         "url" : "https://api.github.com/repos/bitcoin/bitcoin/issues/comments/1119981797/reactions"
      },
      "updated_at" : "2022-08-05T20:22:47Z",
      "url" : "https://api.github.com/repos/bitcoin/bitcoin/issues/comments/1119981797",
      "user" : {
         "avatar_url" : "https://avatars.githubusercontent.com/u/39886733?v=4",
         "events_url" : "https://api.github.com/users/DrahtBot/events{/privacy}",
         "followers_url" : "https://api.github.com/users/DrahtBot/followers",
         "following_url" : "https://api.github.com/users/DrahtBot/following{/other_user}",
         "gists_url" : "https://api.github.com/users/DrahtBot/gists{/gist_id}",
         "gravatar_id" : "",
         "html_url" : "https://github.com/DrahtBot",
         "id" : 39886733,
         "login" : "DrahtBot",
         "node_id" : "MDQ6VXNlcjM5ODg2NzMz",
         "organizations_url" : "https://api.github.com/users/DrahtBot/orgs",
         "received_events_url" : "https://api.github.com/users/DrahtBot/received_events",
         "repos_url" : "https://api.github.com/users/DrahtBot/repos",
         "site_admin" : false,
         "starred_url" : "https://api.github.com/users/DrahtBot/starred{/owner}{/repo}",
         "subscriptions_url" : "https://api.github.com/users/DrahtBot/subscriptions",
         "type" : "User",
         "url" : "https://api.github.com/users/DrahtBot"
      }
   },
   {
      "author_association" : "MEMBER",
      "body" : "Code review ACK dddd32eedfb8fe92a83c533ebdbb3fdff510a0fb\r\n\r\nMy only criticism is on the last commit: before, it was clear that the `CreateNewBlock_validity` test was done with the main chain params, after the change it is probably still doing this but implicitly.",
      "created_at" : "2022-05-10T12:16:55Z",
      "html_url" : "https://github.com/bitcoin/bitcoin/pull/25073#issuecomment-1122313685",
      "id" : 1122313685,
      "issue_url" : "https://api.github.com/repos/bitcoin/bitcoin/issues/25073",
      "node_id" : "IC_kwDOABII585C5SXV",
      "performed_via_github_app" : null,
      "reactions" : {
         "+1" : 0,
         "-1" : 0,
         "confused" : 0,
         "eyes" : 0,
         "heart" : 0,
         "hooray" : 0,
         "laugh" : 0,
         "rocket" : 0,
         "total_count" : 0,
         "url" : "https://api.github.com/repos/bitcoin/bitcoin/issues/comments/1122313685/reactions"
      },
      "updated_at" : "2022-05-10T12:16:55Z",
      "url" : "https://api.github.com/repos/bitcoin/bitcoin/issues/comments/1122313685",
      "user" : {
         "avatar_url" : "https://avatars.githubusercontent.com/u/126646?v=4",
         "events_url" : "https://api.github.com/users/laanwj/events{/privacy}",
         "followers_url" : "https://api.github.com/users/laanwj/followers",
         "following_url" : "https://api.github.com/users/laanwj/following{/other_user}",
         "gists_url" : "https://api.github.com/users/laanwj/gists{/gist_id}",
         "gravatar_id" : "",
         "html_url" : "https://github.com/laanwj",
         "id" : 126646,
         "login" : "laanwj",
         "node_id" : "MDQ6VXNlcjEyNjY0Ng==",
         "organizations_url" : "https://api.github.com/users/laanwj/orgs",
         "received_events_url" : "https://api.github.com/users/laanwj/received_events",
         "repos_url" : "https://api.github.com/users/laanwj/repos",
         "site_admin" : false,
         "starred_url" : "https://api.github.com/users/laanwj/starred{/owner}{/repo}",
         "subscriptions_url" : "https://api.github.com/users/laanwj/subscriptions",
         "type" : "User",
         "url" : "https://api.github.com/users/laanwj"
      }
   },
   {
      "author_association" : "MEMBER",
      "body" : "Hmm. For reference, https://github.com/bitcoin/bitcoin/pull/24595/commits/38860f93b680f152fc6fc3d9ae574a4c0659e775#diff-b12066a688b85bea440eb38f079fb8ecc1984318470631bca7e3547a98effaa9 is doing the same change. It seems confusing to imply that the chainparams may differ in subsequent calls of the same function.\r\n\r\nHappy to add an assert that the \"global\" chainparams are the main params, if that helps?",
      "created_at" : "2022-05-10T12:26:54Z",
      "html_url" : "https://github.com/bitcoin/bitcoin/pull/25073#issuecomment-1122324337",
      "id" : 1122324337,
      "issue_url" : "https://api.github.com/repos/bitcoin/bitcoin/issues/25073",
      "node_id" : "IC_kwDOABII585C5U9x",
      "performed_via_github_app" : null,
      "reactions" : {
         "+1" : 0,
         "-1" : 0,
         "confused" : 0,
         "eyes" : 0,
         "heart" : 0,
         "hooray" : 0,
         "laugh" : 0,
         "rocket" : 0,
         "total_count" : 0,
         "url" : "https://api.github.com/repos/bitcoin/bitcoin/issues/comments/1122324337/reactions"
      },
      "updated_at" : "2022-05-10T12:26:54Z",
      "url" : "https://api.github.com/repos/bitcoin/bitcoin/issues/comments/1122324337",
      "user" : {
         "avatar_url" : "https://avatars.githubusercontent.com/u/6399679?v=4",
         "events_url" : "https://api.github.com/users/MarcoFalke/events{/privacy}",
         "followers_url" : "https://api.github.com/users/MarcoFalke/followers",
         "following_url" : "https://api.github.com/users/MarcoFalke/following{/other_user}",
         "gists_url" : "https://api.github.com/users/MarcoFalke/gists{/gist_id}",
         "gravatar_id" : "",
         "html_url" : "https://github.com/MarcoFalke",
         "id" : 6399679,
         "login" : "MarcoFalke",
         "node_id" : "MDQ6VXNlcjYzOTk2Nzk=",
         "organizations_url" : "https://api.github.com/users/MarcoFalke/orgs",
         "received_events_url" : "https://api.github.com/users/MarcoFalke/received_events",
         "repos_url" : "https://api.github.com/users/MarcoFalke/repos",
         "site_admin" : false,
         "starred_url" : "https://api.github.com/users/MarcoFalke/starred{/owner}{/repo}",
         "subscriptions_url" : "https://api.github.com/users/MarcoFalke/subscriptions",
         "type" : "User",
         "url" : "https://api.github.com/users/MarcoFalke"
      }
   },
   {
      "author_association" : "CONTRIBUTOR",
      "body" : "<!--cf906140f33d8803c4a75a2196329ecb-->\nð This pull request conflicts with the target branch and [needs rebase](https://github.com/bitcoin/bitcoin/blob/master/CONTRIBUTING.md#rebasing-changes).\n\n<sub>Want to unsubscribe from rebase notifications on this pull request? Just convert this pull request to a \"draft\".</sub>",
      "created_at" : "2022-05-13T07:38:24Z",
      "html_url" : "https://github.com/bitcoin/bitcoin/pull/25073#issuecomment-1125749353",
      "id" : 1125749353,
      "issue_url" : "https://api.github.com/repos/bitcoin/bitcoin/issues/25073",
      "node_id" : "IC_kwDOABII585DGZJp",
      "performed_via_github_app" : null,
      "reactions" : {
         "+1" : 0,
         "-1" : 0,
         "confused" : 0,
         "eyes" : 0,
         "heart" : 0,
         "hooray" : 0,
         "laugh" : 0,
         "rocket" : 0,
         "total_count" : 0,
         "url" : "https://api.github.com/repos/bitcoin/bitcoin/issues/comments/1125749353/reactions"
      },
      "updated_at" : "2022-05-13T07:38:24Z",
      "url" : "https://api.github.com/repos/bitcoin/bitcoin/issues/comments/1125749353",
      "user" : {
         "avatar_url" : "https://avatars.githubusercontent.com/u/39886733?v=4",
         "events_url" : "https://api.github.com/users/DrahtBot/events{/privacy}",
         "followers_url" : "https://api.github.com/users/DrahtBot/followers",
         "following_url" : "https://api.github.com/users/DrahtBot/following{/other_user}",
         "gists_url" : "https://api.github.com/users/DrahtBot/gists{/gist_id}",
         "gravatar_id" : "",
         "html_url" : "https://github.com/DrahtBot",
         "id" : 39886733,
         "login" : "DrahtBot",
         "node_id" : "MDQ6VXNlcjM5ODg2NzMz",
         "organizations_url" : "https://api.github.com/users/DrahtBot/orgs",
         "received_events_url" : "https://api.github.com/users/DrahtBot/received_events",
         "repos_url" : "https://api.github.com/users/DrahtBot/repos",
         "site_admin" : false,
         "starred_url" : "https://api.github.com/users/DrahtBot/starred{/owner}{/repo}",
         "subscriptions_url" : "https://api.github.com/users/DrahtBot/subscriptions",
         "type" : "User",
         "url" : "https://api.github.com/users/DrahtBot"
      }
   },
   {
      "author_association" : "MEMBER",
      "body" : "Rebased. Should be easy to re-ACK with `git range-diff bitcoin-core/master dddd32 11118e`",
      "created_at" : "2022-05-13T08:16:50Z",
      "html_url" : "https://github.com/bitcoin/bitcoin/pull/25073#issuecomment-1125779984",
      "id" : 1125779984,
      "issue_url" : "https://api.github.com/repos/bitcoin/bitcoin/issues/25073",
      "node_id" : "IC_kwDOABII585DGgoQ",
      "performed_via_github_app" : null,
      "reactions" : {
         "+1" : 0,
         "-1" : 0,
         "confused" : 0,
         "eyes" : 0,
         "heart" : 0,
         "hooray" : 0,
         "laugh" : 0,
         "rocket" : 0,
         "total_count" : 0,
         "url" : "https://api.github.com/repos/bitcoin/bitcoin/issues/comments/1125779984/reactions"
      },
      "updated_at" : "2022-05-13T08:16:50Z",
      "url" : "https://api.github.com/repos/bitcoin/bitcoin/issues/comments/1125779984",
      "user" : {
         "avatar_url" : "https://avatars.githubusercontent.com/u/6399679?v=4",
         "events_url" : "https://api.github.com/users/MarcoFalke/events{/privacy}",
         "followers_url" : "https://api.github.com/users/MarcoFalke/followers",
         "following_url" : "https://api.github.com/users/MarcoFalke/following{/other_user}",
         "gists_url" : "https://api.github.com/users/MarcoFalke/gists{/gist_id}",
         "gravatar_id" : "",
         "html_url" : "https://github.com/MarcoFalke",
         "id" : 6399679,
         "login" : "MarcoFalke",
         "node_id" : "MDQ6VXNlcjYzOTk2Nzk=",
         "organizations_url" : "https://api.github.com/users/MarcoFalke/orgs",
         "received_events_url" : "https://api.github.com/users/MarcoFalke/received_events",
         "repos_url" : "https://api.github.com/users/MarcoFalke/repos",
         "site_admin" : false,
         "starred_url" : "https://api.github.com/users/MarcoFalke/starred{/owner}{/repo}",
         "subscriptions_url" : "https://api.github.com/users/MarcoFalke/subscriptions",
         "type" : "User",
         "url" : "https://api.github.com/users/MarcoFalke"
      }
   },
   {
      "author_association" : "CONTRIBUTOR",
      "body" : "<!--cf906140f33d8803c4a75a2196329ecb-->\nð This pull request conflicts with the target branch and [needs rebase](https://github.com/bitcoin/bitcoin/blob/master/CONTRIBUTING.md#rebasing-changes).\n\n<sub>Want to unsubscribe from rebase notifications on this pull request? Just convert this pull request to a \"draft\".</sub>",
      "created_at" : "2022-05-20T13:39:41Z",
      "html_url" : "https://github.com/bitcoin/bitcoin/pull/25073#issuecomment-1132914332",
      "id" : 1132914332,
      "issue_url" : "https://api.github.com/repos/bitcoin/bitcoin/issues/25073",
      "node_id" : "IC_kwDOABII585Dhuac",
      "performed_via_github_app" : null,
      "reactions" : {
         "+1" : 0,
         "-1" : 0,
         "confused" : 0,
         "eyes" : 0,
         "heart" : 0,
         "hooray" : 0,
         "laugh" : 0,
         "rocket" : 0,
         "total_count" : 0,
         "url" : "https://api.github.com/repos/bitcoin/bitcoin/issues/comments/1132914332/reactions"
      },
      "updated_at" : "2022-05-20T13:39:41Z",
      "url" : "https://api.github.com/repos/bitcoin/bitcoin/issues/comments/1132914332",
      "user" : {
         "avatar_url" : "https://avatars.githubusercontent.com/u/39886733?v=4",
         "events_url" : "https://api.github.com/users/DrahtBot/events{/privacy}",
         "followers_url" : "https://api.github.com/users/DrahtBot/followers",
         "following_url" : "https://api.github.com/users/DrahtBot/following{/other_user}",
         "gists_url" : "https://api.github.com/users/DrahtBot/gists{/gist_id}",
         "gravatar_id" : "",
         "html_url" : "https://github.com/DrahtBot",
         "id" : 39886733,
         "login" : "DrahtBot",
         "node_id" : "MDQ6VXNlcjM5ODg2NzMz",
         "organizations_url" : "https://api.github.com/users/DrahtBot/orgs",
         "received_events_url" : "https://api.github.com/users/DrahtBot/received_events",
         "repos_url" : "https://api.github.com/users/DrahtBot/repos",
         "site_admin" : false,
         "starred_url" : "https://api.github.com/users/DrahtBot/starred{/owner}{/repo}",
         "subscriptions_url" : "https://api.github.com/users/DrahtBot/subscriptions",
         "type" : "User",
         "url" : "https://api.github.com/users/DrahtBot"
      }
   },
   {
      "author_association" : "MEMBER",
      "body" : "Rebased. Should still be trivial to re-ACK with `git range-diff bitcoin-core/master dddd32 fabdc1902e`.",
      "created_at" : "2022-05-27T14:31:26Z",
      "html_url" : "https://github.com/bitcoin/bitcoin/pull/25073#issuecomment-1139675724",
      "id" : 1139675724,
      "issue_url" : "https://api.github.com/repos/bitcoin/bitcoin/issues/25073",
      "node_id" : "IC_kwDOABII585D7hJM",
      "performed_via_github_app" : null,
      "reactions" : {
         "+1" : 0,
         "-1" : 0,
         "confused" : 0,
         "eyes" : 0,
         "heart" : 0,
         "hooray" : 0,
         "laugh" : 0,
         "rocket" : 0,
         "total_count" : 0,
         "url" : "https://api.github.com/repos/bitcoin/bitcoin/issues/comments/1139675724/reactions"
      },
      "updated_at" : "2022-05-27T14:31:26Z",
      "url" : "https://api.github.com/repos/bitcoin/bitcoin/issues/comments/1139675724",
      "user" : {
         "avatar_url" : "https://avatars.githubusercontent.com/u/6399679?v=4",
         "events_url" : "https://api.github.com/users/MarcoFalke/events{/privacy}",
         "followers_url" : "https://api.github.com/users/MarcoFalke/followers",
         "following_url" : "https://api.github.com/users/MarcoFalke/following{/other_user}",
         "gists_url" : "https://api.github.com/users/MarcoFalke/gists{/gist_id}",
         "gravatar_id" : "",
         "html_url" : "https://github.com/MarcoFalke",
         "id" : 6399679,
         "login" : "MarcoFalke",
         "node_id" : "MDQ6VXNlcjYzOTk2Nzk=",
         "organizations_url" : "https://api.github.com/users/MarcoFalke/orgs",
         "received_events_url" : "https://api.github.com/users/MarcoFalke/received_events",
         "repos_url" : "https://api.github.com/users/MarcoFalke/repos",
         "site_admin" : false,
         "starred_url" : "https://api.github.com/users/MarcoFalke/starred{/owner}{/repo}",
         "subscriptions_url" : "https://api.github.com/users/MarcoFalke/subscriptions",
         "type" : "User",
         "url" : "https://api.github.com/users/MarcoFalke"
      }
   },
   {
      "author_association" : "CONTRIBUTOR",
      "body" : "<!--cf906140f33d8803c4a75a2196329ecb-->\nð This pull request conflicts with the target branch and [needs rebase](https://github.com/bitcoin/bitcoin/blob/master/CONTRIBUTING.md#rebasing-changes).\n\n<sub>Want to unsubscribe from rebase notifications on this pull request? Just convert this pull request to a \"draft\".</sub>",
      "created_at" : "2022-06-15T16:23:18Z",
      "html_url" : "https://github.com/bitcoin/bitcoin/pull/25073#issuecomment-1156678994",
      "id" : 1156678994,
      "issue_url" : "https://api.github.com/repos/bitcoin/bitcoin/issues/25073",
      "node_id" : "IC_kwDOABII585E8YVS",
      "performed_via_github_app" : null,
      "reactions" : {
         "+1" : 0,
         "-1" : 0,
         "confused" : 0,
         "eyes" : 0,
         "heart" : 0,
         "hooray" : 0,
         "laugh" : 0,
         "rocket" : 0,
         "total_count" : 0,
         "url" : "https://api.github.com/repos/bitcoin/bitcoin/issues/comments/1156678994/reactions"
      },
      "updated_at" : "2022-06-15T16:23:18Z",
      "url" : "https://api.github.com/repos/bitcoin/bitcoin/issues/comments/1156678994",
      "user" : {
         "avatar_url" : "https://avatars.githubusercontent.com/u/39886733?v=4",
         "events_url" : "https://api.github.com/users/DrahtBot/events{/privacy}",
         "followers_url" : "https://api.github.com/users/DrahtBot/followers",
         "following_url" : "https://api.github.com/users/DrahtBot/following{/other_user}",
         "gists_url" : "https://api.github.com/users/DrahtBot/gists{/gist_id}",
         "gravatar_id" : "",
         "html_url" : "https://github.com/DrahtBot",
         "id" : 39886733,
         "login" : "DrahtBot",
         "node_id" : "MDQ6VXNlcjM5ODg2NzMz",
         "organizations_url" : "https://api.github.com/users/DrahtBot/orgs",
         "received_events_url" : "https://api.github.com/users/DrahtBot/received_events",
         "repos_url" : "https://api.github.com/users/DrahtBot/repos",
         "site_admin" : false,
         "starred_url" : "https://api.github.com/users/DrahtBot/starred{/owner}{/repo}",
         "subscriptions_url" : "https://api.github.com/users/DrahtBot/subscriptions",
         "type" : "User",
         "url" : "https://api.github.com/users/DrahtBot"
      }
   },
   {
      "author_association" : "MEMBER",
      "body" : "Rebased",
      "created_at" : "2022-06-17T15:47:58Z",
      "html_url" : "https://github.com/bitcoin/bitcoin/pull/25073#issuecomment-1159008930",
      "id" : 1159008930,
      "issue_url" : "https://api.github.com/repos/bitcoin/bitcoin/issues/25073",
      "node_id" : "IC_kwDOABII585FFRKi",
      "performed_via_github_app" : null,
      "reactions" : {
         "+1" : 0,
         "-1" : 0,
         "confused" : 0,
         "eyes" : 0,
         "heart" : 0,
         "hooray" : 0,
         "laugh" : 0,
         "rocket" : 0,
         "total_count" : 0,
         "url" : "https://api.github.com/repos/bitcoin/bitcoin/issues/comments/1159008930/reactions"
      },
      "updated_at" : "2022-06-17T15:47:58Z",
      "url" : "https://api.github.com/repos/bitcoin/bitcoin/issues/comments/1159008930",
      "user" : {
         "avatar_url" : "https://avatars.githubusercontent.com/u/6399679?v=4",
         "events_url" : "https://api.github.com/users/MarcoFalke/events{/privacy}",
         "followers_url" : "https://api.github.com/users/MarcoFalke/followers",
         "following_url" : "https://api.github.com/users/MarcoFalke/following{/other_user}",
         "gists_url" : "https://api.github.com/users/MarcoFalke/gists{/gist_id}",
         "gravatar_id" : "",
         "html_url" : "https://github.com/MarcoFalke",
         "id" : 6399679,
         "login" : "MarcoFalke",
         "node_id" : "MDQ6VXNlcjYzOTk2Nzk=",
         "organizations_url" : "https://api.github.com/users/MarcoFalke/orgs",
         "received_events_url" : "https://api.github.com/users/MarcoFalke/received_events",
         "repos_url" : "https://api.github.com/users/MarcoFalke/repos",
         "site_admin" : false,
         "starred_url" : "https://api.github.com/users/MarcoFalke/starred{/owner}{/repo}",
         "subscriptions_url" : "https://api.github.com/users/MarcoFalke/subscriptions",
         "type" : "User",
         "url" : "https://api.github.com/users/MarcoFalke"
      }
   },
   {
      "author_association" : "MEMBER",
      "body" : "Fixed feedback and rebased",
      "created_at" : "2022-06-22T15:59:18Z",
      "html_url" : "https://github.com/bitcoin/bitcoin/pull/25073#issuecomment-1163301977",
      "id" : 1163301977,
      "issue_url" : "https://api.github.com/repos/bitcoin/bitcoin/issues/25073",
      "node_id" : "IC_kwDOABII585FVpRZ",
      "performed_via_github_app" : null,
      "reactions" : {
         "+1" : 0,
         "-1" : 0,
         "confused" : 0,
         "eyes" : 0,
         "heart" : 0,
         "hooray" : 0,
         "laugh" : 0,
         "rocket" : 0,
         "total_count" : 0,
         "url" : "https://api.github.com/repos/bitcoin/bitcoin/issues/comments/1163301977/reactions"
      },
      "updated_at" : "2022-06-22T15:59:18Z",
      "url" : "https://api.github.com/repos/bitcoin/bitcoin/issues/comments/1163301977",
      "user" : {
         "avatar_url" : "https://avatars.githubusercontent.com/u/6399679?v=4",
         "events_url" : "https://api.github.com/users/MarcoFalke/events{/privacy}",
         "followers_url" : "https://api.github.com/users/MarcoFalke/followers",
         "following_url" : "https://api.github.com/users/MarcoFalke/following{/other_user}",
         "gists_url" : "https://api.github.com/users/MarcoFalke/gists{/gist_id}",
         "gravatar_id" : "",
         "html_url" : "https://github.com/MarcoFalke",
         "id" : 6399679,
         "login" : "MarcoFalke",
         "node_id" : "MDQ6VXNlcjYzOTk2Nzk=",
         "organizations_url" : "https://api.github.com/users/MarcoFalke/orgs",
         "received_events_url" : "https://api.github.com/users/MarcoFalke/received_events",
         "repos_url" : "https://api.github.com/users/MarcoFalke/repos",
         "site_admin" : false,
         "starred_url" : "https://api.github.com/users/MarcoFalke/starred{/owner}{/repo}",
         "subscriptions_url" : "https://api.github.com/users/MarcoFalke/subscriptions",
         "type" : "User",
         "url" : "https://api.github.com/users/MarcoFalke"
      }
   },
   {
      "author_association" : "MEMBER",
      "body" : "rebased",
      "created_at" : "2022-07-22T11:45:15Z",
      "html_url" : "https://github.com/bitcoin/bitcoin/pull/25073#issuecomment-1192488455",
      "id" : 1192488455,
      "issue_url" : "https://api.github.com/repos/bitcoin/bitcoin/issues/25073",
      "node_id" : "IC_kwDOABII585HE-4H",
      "performed_via_github_app" : null,
      "reactions" : {
         "+1" : 0,
         "-1" : 0,
         "confused" : 0,
         "eyes" : 0,
         "heart" : 0,
         "hooray" : 0,
         "laugh" : 0,
         "rocket" : 0,
         "total_count" : 0,
         "url" : "https://api.github.com/repos/bitcoin/bitcoin/issues/comments/1192488455/reactions"
      },
      "updated_at" : "2022-07-22T11:45:15Z",
      "url" : "https://api.github.com/repos/bitcoin/bitcoin/issues/comments/1192488455",
      "user" : {
         "avatar_url" : "https://avatars.githubusercontent.com/u/6399679?v=4",
         "events_url" : "https://api.github.com/users/MarcoFalke/events{/privacy}",
         "followers_url" : "https://api.github.com/users/MarcoFalke/followers",
         "following_url" : "https://api.github.com/users/MarcoFalke/following{/other_user}",
         "gists_url" : "https://api.github.com/users/MarcoFalke/gists{/gist_id}",
         "gravatar_id" : "",
         "html_url" : "https://github.com/MarcoFalke",
         "id" : 6399679,
         "login" : "MarcoFalke",
         "node_id" : "MDQ6VXNlcjYzOTk2Nzk=",
         "organizations_url" : "https://api.github.com/users/MarcoFalke/orgs",
         "received_events_url" : "https://api.github.com/users/MarcoFalke/received_events",
         "repos_url" : "https://api.github.com/users/MarcoFalke/repos",
         "site_admin" : false,
         "starred_url" : "https://api.github.com/users/MarcoFalke/starred{/owner}{/repo}",
         "subscriptions_url" : "https://api.github.com/users/MarcoFalke/subscriptions",
         "type" : "User",
         "url" : "https://api.github.com/users/MarcoFalke"
      }
   },
   {
      "author_association" : "MEMBER",
      "body" : "> Not sure if I understand why separate mempools that aren't m_node.mempool is beneficial. Seems like clearing would be sufficient, but the goal is to remove clear()?\r\n\r\nYes, that is the goal. And there should be no downside using separate mempools, since the goal of the unit tests is to run independently.",
      "created_at" : "2022-07-25T10:28:49Z",
      "html_url" : "https://github.com/bitcoin/bitcoin/pull/25073#issuecomment-1193866045",
      "id" : 1193866045,
      "issue_url" : "https://api.github.com/repos/bitcoin/bitcoin/issues/25073",
      "node_id" : "IC_kwDOABII585HKPM9",
      "performed_via_github_app" : null,
      "reactions" : {
         "+1" : 0,
         "-1" : 0,
         "confused" : 0,
         "eyes" : 0,
         "heart" : 0,
         "hooray" : 0,
         "laugh" : 0,
         "rocket" : 0,
         "total_count" : 0,
         "url" : "https://api.github.com/repos/bitcoin/bitcoin/issues/comments/1193866045/reactions"
      },
      "updated_at" : "2022-07-25T10:28:49Z",
      "url" : "https://api.github.com/repos/bitcoin/bitcoin/issues/comments/1193866045",
      "user" : {
         "avatar_url" : "https://avatars.githubusercontent.com/u/6399679?v=4",
         "events_url" : "https://api.github.com/users/MarcoFalke/events{/privacy}",
         "followers_url" : "https://api.github.com/users/MarcoFalke/followers",
         "following_url" : "https://api.github.com/users/MarcoFalke/following{/other_user}",
         "gists_url" : "https://api.github.com/users/MarcoFalke/gists{/gist_id}",
         "gravatar_id" : "",
         "html_url" : "https://github.com/MarcoFalke",
         "id" : 6399679,
         "login" : "MarcoFalke",
         "node_id" : "MDQ6VXNlcjYzOTk2Nzk=",
         "organizations_url" : "https://api.github.com/users/MarcoFalke/orgs",
         "received_events_url" : "https://api.github.com/users/MarcoFalke/received_events",
         "repos_url" : "https://api.github.com/users/MarcoFalke/repos",
         "site_admin" : false,
         "starred_url" : "https://api.github.com/users/MarcoFalke/starred{/owner}{/repo}",
         "subscriptions_url" : "https://api.github.com/users/MarcoFalke/subscriptions",
         "type" : "User",
         "url" : "https://api.github.com/users/MarcoFalke"
      }
   },
   {
      "author_association" : "CONTRIBUTOR",
      "body" : "I think one of the main things that stopped me from introducing more local mempools was that chainstate still has a mempool member, and sometimes operations that you think would operate on the local mempool would actually operate on chainstate's mempool member. It seemed like a somewhat subtle thing that might cause us to miss bugs. I don't see any calls here that would access chainstate's mempool member but this might change in the future.\r\n\r\nA few improvements for the future:\r\n1. Each block of `TestBasicMining` could be split into its own test case, since they largely don't depend on each other (that's why we call `clear`), this would also make it so that each test can use its fixture's `mempool` and eliminate the aforementioned possible local vs chainstate member mempool footgun\r\n2. Perhaps we add a `ReplaceMempool` method to `TestingSetup` to fix the `CChainState` member like we do in `DummyChainState`? Not sure...",
      "created_at" : "2022-07-25T17:56:16Z",
      "html_url" : "https://github.com/bitcoin/bitcoin/pull/25073#issuecomment-1194417234",
      "id" : 1194417234,
      "issue_url" : "https://api.github.com/repos/bitcoin/bitcoin/issues/25073",
      "node_id" : "IC_kwDOABII585HMVxS",
      "performed_via_github_app" : null,
      "reactions" : {
         "+1" : 0,
         "-1" : 0,
         "confused" : 0,
         "eyes" : 0,
         "heart" : 0,
         "hooray" : 0,
         "laugh" : 0,
         "rocket" : 0,
         "total_count" : 0,
         "url" : "https://api.github.com/repos/bitcoin/bitcoin/issues/comments/1194417234/reactions"
      },
      "updated_at" : "2022-07-25T17:56:16Z",
      "url" : "https://api.github.com/repos/bitcoin/bitcoin/issues/comments/1194417234",
      "user" : {
         "avatar_url" : "https://avatars.githubusercontent.com/u/3445290?v=4",
         "events_url" : "https://api.github.com/users/dongcarl/events{/privacy}",
         "followers_url" : "https://api.github.com/users/dongcarl/followers",
         "following_url" : "https://api.github.com/users/dongcarl/following{/other_user}",
         "gists_url" : "https://api.github.com/users/dongcarl/gists{/gist_id}",
         "gravatar_id" : "",
         "html_url" : "https://github.com/dongcarl",
         "id" : 3445290,
         "login" : "dongcarl",
         "node_id" : "MDQ6VXNlcjM0NDUyOTA=",
         "organizations_url" : "https://api.github.com/users/dongcarl/orgs",
         "received_events_url" : "https://api.github.com/users/dongcarl/received_events",
         "repos_url" : "https://api.github.com/users/dongcarl/repos",
         "site_admin" : false,
         "starred_url" : "https://api.github.com/users/dongcarl/starred{/owner}{/repo}",
         "subscriptions_url" : "https://api.github.com/users/dongcarl/subscriptions",
         "type" : "User",
         "url" : "https://api.github.com/users/dongcarl"
      }
   },
   {
      "author_association" : "MEMBER",
      "body" : "> Each block of TestBasicMining could be split into its own test case, since they largely don't depend on each other\r\n\r\nThe mempools don't depend on each other, but I think all tests share the same chainstate with the same main-chain blocks?\r\n\r\n> Perhaps we add a ReplaceMempool method to TestingSetup to fix the CChainState member like we do in DummyChainState? Not sure...\r\n\r\nGood idea. I've started something like that in the last commit: The correctness of the changes in this pull are now enforced by valgrind.\r\nHappy to move it to the test util lib if you think it is useful for other tests.",
      "created_at" : "2022-07-26T06:34:11Z",
      "html_url" : "https://github.com/bitcoin/bitcoin/pull/25073#issuecomment-1195064603",
      "id" : 1195064603,
      "issue_url" : "https://api.github.com/repos/bitcoin/bitcoin/issues/25073",
      "node_id" : "IC_kwDOABII585HOz0b",
      "performed_via_github_app" : null,
      "reactions" : {
         "+1" : 0,
         "-1" : 0,
         "confused" : 0,
         "eyes" : 0,
         "heart" : 0,
         "hooray" : 0,
         "laugh" : 0,
         "rocket" : 0,
         "total_count" : 0,
         "url" : "https://api.github.com/repos/bitcoin/bitcoin/issues/comments/1195064603/reactions"
      },
      "updated_at" : "2022-07-26T06:34:11Z",
      "url" : "https://api.github.com/repos/bitcoin/bitcoin/issues/comments/1195064603",
      "user" : {
         "avatar_url" : "https://avatars.githubusercontent.com/u/6399679?v=4",
         "events_url" : "https://api.github.com/users/MarcoFalke/events{/privacy}",
         "followers_url" : "https://api.github.com/users/MarcoFalke/followers",
         "following_url" : "https://api.github.com/users/MarcoFalke/following{/other_user}",
         "gists_url" : "https://api.github.com/users/MarcoFalke/gists{/gist_id}",
         "gravatar_id" : "",
         "html_url" : "https://github.com/MarcoFalke",
         "id" : 6399679,
         "login" : "MarcoFalke",
         "node_id" : "MDQ6VXNlcjYzOTk2Nzk=",
         "organizations_url" : "https://api.github.com/users/MarcoFalke/orgs",
         "received_events_url" : "https://api.github.com/users/MarcoFalke/received_events",
         "repos_url" : "https://api.github.com/users/MarcoFalke/repos",
         "site_admin" : false,
         "starred_url" : "https://api.github.com/users/MarcoFalke/starred{/owner}{/repo}",
         "subscriptions_url" : "https://api.github.com/users/MarcoFalke/subscriptions",
         "type" : "User",
         "url" : "https://api.github.com/users/MarcoFalke"
      }
   },
   {
      "author_association" : "CONTRIBUTOR",
      "body" : "> Good idea. I've started something like that in the last commit: The correctness of the changes in this pull are now enforced by valgrind.\r\n\r\nOh nice! I think that's good for this PR, I suppose we could do something like a `TestingSetup::ReplaceMempool(std::unique_ptr<CTxMemPool>)` in the future, but there's no rush to generalize too early on.\r\n\r\nApproach ACK!",
      "created_at" : "2022-07-26T16:10:18Z",
      "html_url" : "https://github.com/bitcoin/bitcoin/pull/25073#issuecomment-1195686094",
      "id" : 1195686094,
      "issue_url" : "https://api.github.com/repos/bitcoin/bitcoin/issues/25073",
      "node_id" : "IC_kwDOABII585HRLjO",
      "performed_via_github_app" : null,
      "reactions" : {
         "+1" : 0,
         "-1" : 0,
         "confused" : 0,
         "eyes" : 0,
         "heart" : 0,
         "hooray" : 0,
         "laugh" : 0,
         "rocket" : 0,
         "total_count" : 0,
         "url" : "https://api.github.com/repos/bitcoin/bitcoin/issues/comments/1195686094/reactions"
      },
      "updated_at" : "2022-07-26T16:10:18Z",
      "url" : "https://api.github.com/repos/bitcoin/bitcoin/issues/comments/1195686094",
      "user" : {
         "avatar_url" : "https://avatars.githubusercontent.com/u/3445290?v=4",
         "events_url" : "https://api.github.com/users/dongcarl/events{/privacy}",
         "followers_url" : "https://api.github.com/users/dongcarl/followers",
         "following_url" : "https://api.github.com/users/dongcarl/following{/other_user}",
         "gists_url" : "https://api.github.com/users/dongcarl/gists{/gist_id}",
         "gravatar_id" : "",
         "html_url" : "https://github.com/dongcarl",
         "id" : 3445290,
         "login" : "dongcarl",
         "node_id" : "MDQ6VXNlcjM0NDUyOTA=",
         "organizations_url" : "https://api.github.com/users/dongcarl/orgs",
         "received_events_url" : "https://api.github.com/users/dongcarl/received_events",
         "repos_url" : "https://api.github.com/users/dongcarl/repos",
         "site_admin" : false,
         "starred_url" : "https://api.github.com/users/dongcarl/starred{/owner}{/repo}",
         "subscriptions_url" : "https://api.github.com/users/dongcarl/subscriptions",
         "type" : "User",
         "url" : "https://api.github.com/users/dongcarl"
      }
   },
   {
      "author_association" : "CONTRIBUTOR",
      "body" : "<!--cf906140f33d8803c4a75a2196329ecb-->\nð This pull request conflicts with the target branch and [needs rebase](https://github.com/bitcoin/bitcoin/blob/master/CONTRIBUTING.md#rebasing-changes).\n\n<sub>Want to unsubscribe from rebase notifications on this pull request? Just convert this pull request to a \"draft\".</sub>",
      "created_at" : "2022-08-04T16:54:50Z",
      "html_url" : "https://github.com/bitcoin/bitcoin/pull/25073#issuecomment-1205522432",
      "id" : 1205522432,
      "issue_url" : "https://api.github.com/repos/bitcoin/bitcoin/issues/25073",
      "node_id" : "IC_kwDOABII585H2tAA",
      "performed_via_github_app" : null,
      "reactions" : {
         "+1" : 0,
         "-1" : 0,
         "confused" : 0,
         "eyes" : 0,
         "heart" : 0,
         "hooray" : 0,
         "laugh" : 0,
         "rocket" : 0,
         "total_count" : 0,
         "url" : "https://api.github.com/repos/bitcoin/bitcoin/issues/comments/1205522432/reactions"
      },
      "updated_at" : "2022-08-04T16:54:50Z",
      "url" : "https://api.github.com/repos/bitcoin/bitcoin/issues/comments/1205522432",
      "user" : {
         "avatar_url" : "https://avatars.githubusercontent.com/u/39886733?v=4",
         "events_url" : "https://api.github.com/users/DrahtBot/events{/privacy}",
         "followers_url" : "https://api.github.com/users/DrahtBot/followers",
         "following_url" : "https://api.github.com/users/DrahtBot/following{/other_user}",
         "gists_url" : "https://api.github.com/users/DrahtBot/gists{/gist_id}",
         "gravatar_id" : "",
         "html_url" : "https://github.com/DrahtBot",
         "id" : 39886733,
         "login" : "DrahtBot",
         "node_id" : "MDQ6VXNlcjM5ODg2NzMz",
         "organizations_url" : "https://api.github.com/users/DrahtBot/orgs",
         "received_events_url" : "https://api.github.com/users/DrahtBot/received_events",
         "repos_url" : "https://api.github.com/users/DrahtBot/repos",
         "site_admin" : false,
         "starred_url" : "https://api.github.com/users/DrahtBot/starred{/owner}{/repo}",
         "subscriptions_url" : "https://api.github.com/users/DrahtBot/subscriptions",
         "type" : "User",
         "url" : "https://api.github.com/users/DrahtBot"
      }
   },
   {
      "author_association" : "MEMBER",
      "body" : "Rebased",
      "created_at" : "2022-08-05T10:19:12Z",
      "html_url" : "https://github.com/bitcoin/bitcoin/pull/25073#issuecomment-1206287475",
      "id" : 1206287475,
      "issue_url" : "https://api.github.com/repos/bitcoin/bitcoin/issues/25073",
      "node_id" : "IC_kwDOABII585H5nxz",
      "performed_via_github_app" : null,
      "reactions" : {
         "+1" : 0,
         "-1" : 0,
         "confused" : 0,
         "eyes" : 0,
         "heart" : 0,
         "hooray" : 0,
         "laugh" : 0,
         "rocket" : 0,
         "total_count" : 0,
         "url" : "https://api.github.com/repos/bitcoin/bitcoin/issues/comments/1206287475/reactions"
      },
      "updated_at" : "2022-08-05T10:19:12Z",
      "url" : "https://api.github.com/repos/bitcoin/bitcoin/issues/comments/1206287475",
      "user" : {
         "avatar_url" : "https://avatars.githubusercontent.com/u/6399679?v=4",
         "events_url" : "https://api.github.com/users/MarcoFalke/events{/privacy}",
         "followers_url" : "https://api.github.com/users/MarcoFalke/followers",
         "following_url" : "https://api.github.com/users/MarcoFalke/following{/other_user}",
         "gists_url" : "https://api.github.com/users/MarcoFalke/gists{/gist_id}",
         "gravatar_id" : "",
         "html_url" : "https://github.com/MarcoFalke",
         "id" : 6399679,
         "login" : "MarcoFalke",
         "node_id" : "MDQ6VXNlcjYzOTk2Nzk=",
         "organizations_url" : "https://api.github.com/users/MarcoFalke/orgs",
         "received_events_url" : "https://api.github.com/users/MarcoFalke/received_events",
         "repos_url" : "https://api.github.com/users/MarcoFalke/repos",
         "site_admin" : false,
         "starred_url" : "https://api.github.com/users/MarcoFalke/starred{/owner}{/repo}",
         "subscriptions_url" : "https://api.github.com/users/MarcoFalke/subscriptions",
         "type" : "User",
         "url" : "https://api.github.com/users/MarcoFalke"
      }
   },
   {
      "author_association" : "CONTRIBUTOR",
      "body" : "<!--cf906140f33d8803c4a75a2196329ecb-->\nð This pull request conflicts with the target branch and [needs rebase](https://github.com/bitcoin/bitcoin/blob/master/CONTRIBUTING.md#rebasing-changes).\n\n<sub>Want to unsubscribe from rebase notifications on this pull request? Just convert this pull request to a \"draft\".</sub>",
      "created_at" : "2022-08-12T07:26:20Z",
      "html_url" : "https://github.com/bitcoin/bitcoin/pull/25073#issuecomment-1212811119",
      "id" : 1212811119,
      "issue_url" : "https://api.github.com/repos/bitcoin/bitcoin/issues/25073",
      "node_id" : "IC_kwDOABII585ISgdv",
      "performed_via_github_app" : null,
      "reactions" : {
         "+1" : 0,
         "-1" : 0,
         "confused" : 0,
         "eyes" : 0,
         "heart" : 0,
         "hooray" : 0,
         "laugh" : 0,
         "rocket" : 0,
         "total_count" : 0,
         "url" : "https://api.github.com/repos/bitcoin/bitcoin/issues/comments/1212811119/reactions"
      },
      "updated_at" : "2022-08-12T07:26:20Z",
      "url" : "https://api.github.com/repos/bitcoin/bitcoin/issues/comments/1212811119",
      "user" : {
         "avatar_url" : "https://avatars.githubusercontent.com/u/39886733?v=4",
         "events_url" : "https://api.github.com/users/DrahtBot/events{/privacy}",
         "followers_url" : "https://api.github.com/users/DrahtBot/followers",
         "following_url" : "https://api.github.com/users/DrahtBot/following{/other_user}",
         "gists_url" : "https://api.github.com/users/DrahtBot/gists{/gist_id}",
         "gravatar_id" : "",
         "html_url" : "https://github.com/DrahtBot",
         "id" : 39886733,
         "login" : "DrahtBot",
         "node_id" : "MDQ6VXNlcjM5ODg2NzMz",
         "organizations_url" : "https://api.github.com/users/DrahtBot/orgs",
         "received_events_url" : "https://api.github.com/users/DrahtBot/received_events",
         "repos_url" : "https://api.github.com/users/DrahtBot/repos",
         "site_admin" : false,
         "starred_url" : "https://api.github.com/users/DrahtBot/starred{/owner}{/repo}",
         "subscriptions_url" : "https://api.github.com/users/DrahtBot/subscriptions",
         "type" : "User",
         "url" : "https://api.github.com/users/DrahtBot"
      }
   },
   {
      "author_association" : "MEMBER",
      "body" : "rebased",
      "created_at" : "2022-08-12T09:02:28Z",
      "html_url" : "https://github.com/bitcoin/bitcoin/pull/25073#issuecomment-1212890744",
      "id" : 1212890744,
      "issue_url" : "https://api.github.com/repos/bitcoin/bitcoin/issues/25073",
      "node_id" : "IC_kwDOABII585ISz54",
      "performed_via_github_app" : null,
      "reactions" : {
         "+1" : 0,
         "-1" : 0,
         "confused" : 0,
         "eyes" : 0,
         "heart" : 0,
         "hooray" : 0,
         "laugh" : 0,
         "rocket" : 0,
         "total_count" : 0,
         "url" : "https://api.github.com/repos/bitcoin/bitcoin/issues/comments/1212890744/reactions"
      },
      "updated_at" : "2022-08-12T09:02:28Z",
      "url" : "https://api.github.com/repos/bitcoin/bitcoin/issues/comments/1212890744",
      "user" : {
         "avatar_url" : "https://avatars.githubusercontent.com/u/6399679?v=4",
         "events_url" : "https://api.github.com/users/MarcoFalke/events{/privacy}",
         "followers_url" : "https://api.github.com/users/MarcoFalke/followers",
         "following_url" : "https://api.github.com/users/MarcoFalke/following{/other_user}",
         "gists_url" : "https://api.github.com/users/MarcoFalke/gists{/gist_id}",
         "gravatar_id" : "",
         "html_url" : "https://github.com/MarcoFalke",
         "id" : 6399679,
         "login" : "MarcoFalke",
         "node_id" : "MDQ6VXNlcjYzOTk2Nzk=",
         "organizations_url" : "https://api.github.com/users/MarcoFalke/orgs",
         "received_events_url" : "https://api.github.com/users/MarcoFalke/received_events",
         "repos_url" : "https://api.github.com/users/MarcoFalke/repos",
         "site_admin" : false,
         "starred_url" : "https://api.github.com/users/MarcoFalke/starred{/owner}{/repo}",
         "subscriptions_url" : "https://api.github.com/users/MarcoFalke/subscriptions",
         "type" : "User",
         "url" : "https://api.github.com/users/MarcoFalke"
      }
   }
]
