[
   {
      "author_association" : "NONE",
      "body" : "Concept ACK  `b4db43a`\r\n\r\nTested using Fish Version 3.3.1 on FreeBSD 13.0 RELEASE \r\nI added the completion files to ~/.config/fish/completions\r\nWorked as expected and was able to autocomplete all command arguments.",
      "created_at" : "2022-03-18T21:30:33Z",
      "html_url" : "https://github.com/bitcoin/bitcoin/pull/24611#issuecomment-1072831174",
      "id" : 1072831174,
      "issue_url" : "https://api.github.com/repos/bitcoin/bitcoin/issues/24611",
      "node_id" : "IC_kwDOABII584_8hrG",
      "performed_via_github_app" : null,
      "reactions" : {
         "+1" : 0,
         "-1" : 0,
         "confused" : 0,
         "eyes" : 0,
         "heart" : 0,
         "hooray" : 0,
         "laugh" : 0,
         "rocket" : 0,
         "total_count" : 0,
         "url" : "https://api.github.com/repos/bitcoin/bitcoin/issues/comments/1072831174/reactions"
      },
      "updated_at" : "2022-03-18T21:43:23Z",
      "url" : "https://api.github.com/repos/bitcoin/bitcoin/issues/comments/1072831174",
      "user" : {
         "avatar_url" : "https://avatars.githubusercontent.com/u/20520421?v=4",
         "events_url" : "https://api.github.com/users/jessebarton/events{/privacy}",
         "followers_url" : "https://api.github.com/users/jessebarton/followers",
         "following_url" : "https://api.github.com/users/jessebarton/following{/other_user}",
         "gists_url" : "https://api.github.com/users/jessebarton/gists{/gist_id}",
         "gravatar_id" : "",
         "html_url" : "https://github.com/jessebarton",
         "id" : 20520421,
         "login" : "jessebarton",
         "node_id" : "MDQ6VXNlcjIwNTIwNDIx",
         "organizations_url" : "https://api.github.com/users/jessebarton/orgs",
         "received_events_url" : "https://api.github.com/users/jessebarton/received_events",
         "repos_url" : "https://api.github.com/users/jessebarton/repos",
         "site_admin" : false,
         "starred_url" : "https://api.github.com/users/jessebarton/starred{/owner}{/repo}",
         "subscriptions_url" : "https://api.github.com/users/jessebarton/subscriptions",
         "type" : "User",
         "url" : "https://api.github.com/users/jessebarton"
      }
   },
   {
      "author_association" : "NONE",
      "body" : "I agree. `contrib/completion/{bash,fish}` makes the most sense to me.",
      "created_at" : "2022-03-19T05:01:56Z",
      "html_url" : "https://github.com/bitcoin/bitcoin/pull/24611#issuecomment-1072941774",
      "id" : 1072941774,
      "issue_url" : "https://api.github.com/repos/bitcoin/bitcoin/issues/24611",
      "node_id" : "IC_kwDOABII584_88rO",
      "performed_via_github_app" : null,
      "reactions" : {
         "+1" : 0,
         "-1" : 0,
         "confused" : 0,
         "eyes" : 0,
         "heart" : 0,
         "hooray" : 0,
         "laugh" : 0,
         "rocket" : 0,
         "total_count" : 0,
         "url" : "https://api.github.com/repos/bitcoin/bitcoin/issues/comments/1072941774/reactions"
      },
      "updated_at" : "2022-03-19T05:21:28Z",
      "url" : "https://api.github.com/repos/bitcoin/bitcoin/issues/comments/1072941774",
      "user" : {
         "avatar_url" : "https://avatars.githubusercontent.com/u/20520421?v=4",
         "events_url" : "https://api.github.com/users/jessebarton/events{/privacy}",
         "followers_url" : "https://api.github.com/users/jessebarton/followers",
         "following_url" : "https://api.github.com/users/jessebarton/following{/other_user}",
         "gists_url" : "https://api.github.com/users/jessebarton/gists{/gist_id}",
         "gravatar_id" : "",
         "html_url" : "https://github.com/jessebarton",
         "id" : 20520421,
         "login" : "jessebarton",
         "node_id" : "MDQ6VXNlcjIwNTIwNDIx",
         "organizations_url" : "https://api.github.com/users/jessebarton/orgs",
         "received_events_url" : "https://api.github.com/users/jessebarton/received_events",
         "repos_url" : "https://api.github.com/users/jessebarton/repos",
         "site_admin" : false,
         "starred_url" : "https://api.github.com/users/jessebarton/starred{/owner}{/repo}",
         "subscriptions_url" : "https://api.github.com/users/jessebarton/subscriptions",
         "type" : "User",
         "url" : "https://api.github.com/users/jessebarton"
      }
   },
   {
      "author_association" : "CONTRIBUTOR",
      "body" : "> I realise we don't have this for the existing bash-completion scripts, but I think we should probably have these in a new `contrib/fish-completion` subdirectory (or perhaps `contrib/completion/{bash,fish}` and move the bash-completion too)\n\nAlso agree with this.\n\nUnless there are any strong objections I will retouch with completions in subfolders.",
      "created_at" : "2022-03-19T16:55:52Z",
      "html_url" : "https://github.com/bitcoin/bitcoin/pull/24611#issuecomment-1073043629",
      "id" : 1073043629,
      "issue_url" : "https://api.github.com/repos/bitcoin/bitcoin/issues/24611",
      "node_id" : "IC_kwDOABII584_9Vit",
      "performed_via_github_app" : null,
      "reactions" : {
         "+1" : 0,
         "-1" : 0,
         "confused" : 0,
         "eyes" : 0,
         "heart" : 0,
         "hooray" : 0,
         "laugh" : 0,
         "rocket" : 0,
         "total_count" : 0,
         "url" : "https://api.github.com/repos/bitcoin/bitcoin/issues/comments/1073043629/reactions"
      },
      "updated_at" : "2022-03-19T16:55:52Z",
      "url" : "https://api.github.com/repos/bitcoin/bitcoin/issues/comments/1073043629",
      "user" : {
         "avatar_url" : "https://avatars.githubusercontent.com/u/6606587?v=4",
         "events_url" : "https://api.github.com/users/willcl-ark/events{/privacy}",
         "followers_url" : "https://api.github.com/users/willcl-ark/followers",
         "following_url" : "https://api.github.com/users/willcl-ark/following{/other_user}",
         "gists_url" : "https://api.github.com/users/willcl-ark/gists{/gist_id}",
         "gravatar_id" : "",
         "html_url" : "https://github.com/willcl-ark",
         "id" : 6606587,
         "login" : "willcl-ark",
         "node_id" : "MDQ6VXNlcjY2MDY1ODc=",
         "organizations_url" : "https://api.github.com/users/willcl-ark/orgs",
         "received_events_url" : "https://api.github.com/users/willcl-ark/received_events",
         "repos_url" : "https://api.github.com/users/willcl-ark/repos",
         "site_admin" : false,
         "starred_url" : "https://api.github.com/users/willcl-ark/starred{/owner}{/repo}",
         "subscriptions_url" : "https://api.github.com/users/willcl-ark/subscriptions",
         "type" : "User",
         "url" : "https://api.github.com/users/willcl-ark"
      }
   },
   {
      "author_association" : "MEMBER",
      "body" : "> Unless there are any strong objections I will retouch with completions in subfolders.\r\n\r\nI think that's fine to do.\r\n\r\n> As the completions are auto-generated they should only require as much maintenance as the bash equivalents, which is to say very little!\r\n\r\nThat's good at least.\r\n\r\nIs there any reason you've excluded the other utilities?\r\n\r\nYou could add yourself to the REVIEWERS file for `contrib/completion/*`.",
      "created_at" : "2022-03-21T11:56:54Z",
      "html_url" : "https://github.com/bitcoin/bitcoin/pull/24611#issuecomment-1073806231",
      "id" : 1073806231,
      "issue_url" : "https://api.github.com/repos/bitcoin/bitcoin/issues/24611",
      "node_id" : "IC_kwDOABII585AAPuX",
      "performed_via_github_app" : null,
      "reactions" : {
         "+1" : 0,
         "-1" : 0,
         "confused" : 0,
         "eyes" : 0,
         "heart" : 0,
         "hooray" : 0,
         "laugh" : 0,
         "rocket" : 0,
         "total_count" : 0,
         "url" : "https://api.github.com/repos/bitcoin/bitcoin/issues/comments/1073806231/reactions"
      },
      "updated_at" : "2022-03-21T11:56:54Z",
      "url" : "https://api.github.com/repos/bitcoin/bitcoin/issues/comments/1073806231",
      "user" : {
         "avatar_url" : "https://avatars.githubusercontent.com/u/863730?v=4",
         "events_url" : "https://api.github.com/users/fanquake/events{/privacy}",
         "followers_url" : "https://api.github.com/users/fanquake/followers",
         "following_url" : "https://api.github.com/users/fanquake/following{/other_user}",
         "gists_url" : "https://api.github.com/users/fanquake/gists{/gist_id}",
         "gravatar_id" : "",
         "html_url" : "https://github.com/fanquake",
         "id" : 863730,
         "login" : "fanquake",
         "node_id" : "MDQ6VXNlcjg2MzczMA==",
         "organizations_url" : "https://api.github.com/users/fanquake/orgs",
         "received_events_url" : "https://api.github.com/users/fanquake/received_events",
         "repos_url" : "https://api.github.com/users/fanquake/repos",
         "site_admin" : false,
         "starred_url" : "https://api.github.com/users/fanquake/starred{/owner}{/repo}",
         "subscriptions_url" : "https://api.github.com/users/fanquake/subscriptions",
         "type" : "User",
         "url" : "https://api.github.com/users/fanquake"
      }
   },
   {
      "author_association" : "CONTRIBUTOR",
      "body" : "> I think that's fine to do.\r\n\r\nGreat I will re-arrange like this then.\r\n\r\n> Is there any reason you've excluded the other utilities?\r\n\r\nWhich utilities to do you mean in this context? I included `bitcoind`, `bitcoin-cli` and `bitcoin-tx` here.\r\n\r\n> You could add yourself to the REVIEWERS file for `contrib/completion/*`.\r\n\r\nSure, ok\r\n",
      "created_at" : "2022-03-21T12:27:37Z",
      "html_url" : "https://github.com/bitcoin/bitcoin/pull/24611#issuecomment-1073831717",
      "id" : 1073831717,
      "issue_url" : "https://api.github.com/repos/bitcoin/bitcoin/issues/24611",
      "node_id" : "IC_kwDOABII585AAV8l",
      "performed_via_github_app" : null,
      "reactions" : {
         "+1" : 0,
         "-1" : 0,
         "confused" : 0,
         "eyes" : 0,
         "heart" : 0,
         "hooray" : 0,
         "laugh" : 0,
         "rocket" : 0,
         "total_count" : 0,
         "url" : "https://api.github.com/repos/bitcoin/bitcoin/issues/comments/1073831717/reactions"
      },
      "updated_at" : "2022-03-21T12:27:37Z",
      "url" : "https://api.github.com/repos/bitcoin/bitcoin/issues/comments/1073831717",
      "user" : {
         "avatar_url" : "https://avatars.githubusercontent.com/u/6606587?v=4",
         "events_url" : "https://api.github.com/users/willcl-ark/events{/privacy}",
         "followers_url" : "https://api.github.com/users/willcl-ark/followers",
         "following_url" : "https://api.github.com/users/willcl-ark/following{/other_user}",
         "gists_url" : "https://api.github.com/users/willcl-ark/gists{/gist_id}",
         "gravatar_id" : "",
         "html_url" : "https://github.com/willcl-ark",
         "id" : 6606587,
         "login" : "willcl-ark",
         "node_id" : "MDQ6VXNlcjY2MDY1ODc=",
         "organizations_url" : "https://api.github.com/users/willcl-ark/orgs",
         "received_events_url" : "https://api.github.com/users/willcl-ark/received_events",
         "repos_url" : "https://api.github.com/users/willcl-ark/repos",
         "site_admin" : false,
         "starred_url" : "https://api.github.com/users/willcl-ark/starred{/owner}{/repo}",
         "subscriptions_url" : "https://api.github.com/users/willcl-ark/subscriptions",
         "type" : "User",
         "url" : "https://api.github.com/users/willcl-ark"
      }
   },
   {
      "author_association" : "MEMBER",
      "body" : "> Which utilities to do you mean in this context? I included bitcoind, bitcoin-cli and bitcoin-tx here.\r\n\r\nWe also have `bitcoin-wallet`, `bitcoin-util`.",
      "created_at" : "2022-03-21T13:58:58Z",
      "html_url" : "https://github.com/bitcoin/bitcoin/pull/24611#issuecomment-1073932127",
      "id" : 1073932127,
      "issue_url" : "https://api.github.com/repos/bitcoin/bitcoin/issues/24611",
      "node_id" : "IC_kwDOABII585AAudf",
      "performed_via_github_app" : null,
      "reactions" : {
         "+1" : 0,
         "-1" : 0,
         "confused" : 0,
         "eyes" : 0,
         "heart" : 0,
         "hooray" : 0,
         "laugh" : 0,
         "rocket" : 0,
         "total_count" : 0,
         "url" : "https://api.github.com/repos/bitcoin/bitcoin/issues/comments/1073932127/reactions"
      },
      "updated_at" : "2022-03-21T13:58:58Z",
      "url" : "https://api.github.com/repos/bitcoin/bitcoin/issues/comments/1073932127",
      "user" : {
         "avatar_url" : "https://avatars.githubusercontent.com/u/863730?v=4",
         "events_url" : "https://api.github.com/users/fanquake/events{/privacy}",
         "followers_url" : "https://api.github.com/users/fanquake/followers",
         "following_url" : "https://api.github.com/users/fanquake/following{/other_user}",
         "gists_url" : "https://api.github.com/users/fanquake/gists{/gist_id}",
         "gravatar_id" : "",
         "html_url" : "https://github.com/fanquake",
         "id" : 863730,
         "login" : "fanquake",
         "node_id" : "MDQ6VXNlcjg2MzczMA==",
         "organizations_url" : "https://api.github.com/users/fanquake/orgs",
         "received_events_url" : "https://api.github.com/users/fanquake/received_events",
         "repos_url" : "https://api.github.com/users/fanquake/repos",
         "site_admin" : false,
         "starred_url" : "https://api.github.com/users/fanquake/starred{/owner}{/repo}",
         "subscriptions_url" : "https://api.github.com/users/fanquake/subscriptions",
         "type" : "User",
         "url" : "https://api.github.com/users/fanquake"
      }
   },
   {
      "author_association" : "CONTRIBUTOR",
      "body" : "> > Which utilities to do you mean in this context? I included bitcoind, bitcoin-cli and bitcoin-tx here.\r\n> \r\n> We also have `bitcoin-wallet`, `bitcoin-util`.\r\n\r\nAh right. I can certainly add those. I was just starting by essentially mirroring what we have in bash, but very happy to give fish superior completion support :)\r\n\r\nI will add it into the fish completions commit.",
      "created_at" : "2022-03-21T15:21:53Z",
      "html_url" : "https://github.com/bitcoin/bitcoin/pull/24611#issuecomment-1074034177",
      "id" : 1074034177,
      "issue_url" : "https://api.github.com/repos/bitcoin/bitcoin/issues/24611",
      "node_id" : "IC_kwDOABII585ABHYB",
      "performed_via_github_app" : null,
      "reactions" : {
         "+1" : 0,
         "-1" : 0,
         "confused" : 0,
         "eyes" : 0,
         "heart" : 0,
         "hooray" : 0,
         "laugh" : 1,
         "rocket" : 0,
         "total_count" : 1,
         "url" : "https://api.github.com/repos/bitcoin/bitcoin/issues/comments/1074034177/reactions"
      },
      "updated_at" : "2022-03-21T15:21:53Z",
      "url" : "https://api.github.com/repos/bitcoin/bitcoin/issues/comments/1074034177",
      "user" : {
         "avatar_url" : "https://avatars.githubusercontent.com/u/6606587?v=4",
         "events_url" : "https://api.github.com/users/willcl-ark/events{/privacy}",
         "followers_url" : "https://api.github.com/users/willcl-ark/followers",
         "following_url" : "https://api.github.com/users/willcl-ark/following{/other_user}",
         "gists_url" : "https://api.github.com/users/willcl-ark/gists{/gist_id}",
         "gravatar_id" : "",
         "html_url" : "https://github.com/willcl-ark",
         "id" : 6606587,
         "login" : "willcl-ark",
         "node_id" : "MDQ6VXNlcjY2MDY1ODc=",
         "organizations_url" : "https://api.github.com/users/willcl-ark/orgs",
         "received_events_url" : "https://api.github.com/users/willcl-ark/received_events",
         "repos_url" : "https://api.github.com/users/willcl-ark/repos",
         "site_admin" : false,
         "starred_url" : "https://api.github.com/users/willcl-ark/starred{/owner}{/repo}",
         "subscriptions_url" : "https://api.github.com/users/willcl-ark/subscriptions",
         "type" : "User",
         "url" : "https://api.github.com/users/willcl-ark"
      }
   },
   {
      "author_association" : "MEMBER",
      "body" : "Concept ACK, and agree the new directory structure is better.\r\n\r\nEdit: might want to add a small mention to `contrib/README.md` of the completions directory.",
      "created_at" : "2022-03-31T17:27:32Z",
      "html_url" : "https://github.com/bitcoin/bitcoin/pull/24611#issuecomment-1084897374",
      "id" : 1084897374,
      "issue_url" : "https://api.github.com/repos/bitcoin/bitcoin/issues/24611",
      "node_id" : "IC_kwDOABII585Aqjhe",
      "performed_via_github_app" : null,
      "reactions" : {
         "+1" : 0,
         "-1" : 0,
         "confused" : 0,
         "eyes" : 0,
         "heart" : 0,
         "hooray" : 0,
         "laugh" : 0,
         "rocket" : 0,
         "total_count" : 0,
         "url" : "https://api.github.com/repos/bitcoin/bitcoin/issues/comments/1084897374/reactions"
      },
      "updated_at" : "2022-03-31T17:28:47Z",
      "url" : "https://api.github.com/repos/bitcoin/bitcoin/issues/comments/1084897374",
      "user" : {
         "avatar_url" : "https://avatars.githubusercontent.com/u/126646?v=4",
         "events_url" : "https://api.github.com/users/laanwj/events{/privacy}",
         "followers_url" : "https://api.github.com/users/laanwj/followers",
         "following_url" : "https://api.github.com/users/laanwj/following{/other_user}",
         "gists_url" : "https://api.github.com/users/laanwj/gists{/gist_id}",
         "gravatar_id" : "",
         "html_url" : "https://github.com/laanwj",
         "id" : 126646,
         "login" : "laanwj",
         "node_id" : "MDQ6VXNlcjEyNjY0Ng==",
         "organizations_url" : "https://api.github.com/users/laanwj/orgs",
         "received_events_url" : "https://api.github.com/users/laanwj/received_events",
         "repos_url" : "https://api.github.com/users/laanwj/repos",
         "site_admin" : false,
         "starred_url" : "https://api.github.com/users/laanwj/starred{/owner}{/repo}",
         "subscriptions_url" : "https://api.github.com/users/laanwj/subscriptions",
         "type" : "User",
         "url" : "https://api.github.com/users/laanwj"
      }
   },
   {
      "author_association" : "MEMBER",
      "body" : "Concept ACK\r\n\r\npaging @willcl-ark; this needs updating, and I want to get fishy ð",
      "created_at" : "2022-04-04T08:53:57Z",
      "html_url" : "https://github.com/bitcoin/bitcoin/pull/24611#issuecomment-1087289384",
      "id" : 1087289384,
      "issue_url" : "https://api.github.com/repos/bitcoin/bitcoin/issues/24611",
      "node_id" : "IC_kwDOABII585Azrgo",
      "performed_via_github_app" : null,
      "reactions" : {
         "+1" : 0,
         "-1" : 0,
         "confused" : 0,
         "eyes" : 0,
         "heart" : 0,
         "hooray" : 0,
         "laugh" : 0,
         "rocket" : 0,
         "total_count" : 0,
         "url" : "https://api.github.com/repos/bitcoin/bitcoin/issues/comments/1087289384/reactions"
      },
      "updated_at" : "2022-04-04T08:53:57Z",
      "url" : "https://api.github.com/repos/bitcoin/bitcoin/issues/comments/1087289384",
      "user" : {
         "avatar_url" : "https://avatars.githubusercontent.com/u/23396902?v=4",
         "events_url" : "https://api.github.com/users/jarolrod/events{/privacy}",
         "followers_url" : "https://api.github.com/users/jarolrod/followers",
         "following_url" : "https://api.github.com/users/jarolrod/following{/other_user}",
         "gists_url" : "https://api.github.com/users/jarolrod/gists{/gist_id}",
         "gravatar_id" : "",
         "html_url" : "https://github.com/jarolrod",
         "id" : 23396902,
         "login" : "jarolrod",
         "node_id" : "MDQ6VXNlcjIzMzk2OTAy",
         "organizations_url" : "https://api.github.com/users/jarolrod/orgs",
         "received_events_url" : "https://api.github.com/users/jarolrod/received_events",
         "repos_url" : "https://api.github.com/users/jarolrod/repos",
         "site_admin" : false,
         "starred_url" : "https://api.github.com/users/jarolrod/starred{/owner}{/repo}",
         "subscriptions_url" : "https://api.github.com/users/jarolrod/subscriptions",
         "type" : "User",
         "url" : "https://api.github.com/users/jarolrod"
      }
   },
   {
      "author_association" : "CONTRIBUTOR",
      "body" : "> Concept ACK\n> \n> \n> \n> paging @willcl-ark; this needs updating, and I want to get fishy ð\n\nPing received! I'll update and finish this ASAP.",
      "created_at" : "2022-04-04T08:54:59Z",
      "html_url" : "https://github.com/bitcoin/bitcoin/pull/24611#issuecomment-1087290339",
      "id" : 1087290339,
      "issue_url" : "https://api.github.com/repos/bitcoin/bitcoin/issues/24611",
      "node_id" : "IC_kwDOABII585Azrvj",
      "performed_via_github_app" : null,
      "reactions" : {
         "+1" : 0,
         "-1" : 0,
         "confused" : 0,
         "eyes" : 0,
         "heart" : 0,
         "hooray" : 0,
         "laugh" : 0,
         "rocket" : 1,
         "total_count" : 1,
         "url" : "https://api.github.com/repos/bitcoin/bitcoin/issues/comments/1087290339/reactions"
      },
      "updated_at" : "2022-04-04T08:54:59Z",
      "url" : "https://api.github.com/repos/bitcoin/bitcoin/issues/comments/1087290339",
      "user" : {
         "avatar_url" : "https://avatars.githubusercontent.com/u/6606587?v=4",
         "events_url" : "https://api.github.com/users/willcl-ark/events{/privacy}",
         "followers_url" : "https://api.github.com/users/willcl-ark/followers",
         "following_url" : "https://api.github.com/users/willcl-ark/following{/other_user}",
         "gists_url" : "https://api.github.com/users/willcl-ark/gists{/gist_id}",
         "gravatar_id" : "",
         "html_url" : "https://github.com/willcl-ark",
         "id" : 6606587,
         "login" : "willcl-ark",
         "node_id" : "MDQ6VXNlcjY2MDY1ODc=",
         "organizations_url" : "https://api.github.com/users/willcl-ark/orgs",
         "received_events_url" : "https://api.github.com/users/willcl-ark/received_events",
         "repos_url" : "https://api.github.com/users/willcl-ark/repos",
         "site_admin" : false,
         "starred_url" : "https://api.github.com/users/willcl-ark/starred{/owner}{/repo}",
         "subscriptions_url" : "https://api.github.com/users/willcl-ark/subscriptions",
         "type" : "User",
         "url" : "https://api.github.com/users/willcl-ark"
      }
   },
   {
      "author_association" : "CONTRIBUTOR",
      "body" : "Finally updated, sorry about the delay.\r\n\r\n* Simplified all completions to simply provide commands and options (no path completions, which is kind of a shame as they are nice in fish, but they populated the top-level completion list making it longer by the number of files and directories in $CWD, which was annoying).\r\n* added the missing utilities\r\n* Added a note in contrib/README.md",
      "created_at" : "2022-07-05T10:45:49Z",
      "html_url" : "https://github.com/bitcoin/bitcoin/pull/24611#issuecomment-1174914048",
      "id" : 1174914048,
      "issue_url" : "https://api.github.com/repos/bitcoin/bitcoin/issues/24611",
      "node_id" : "IC_kwDOABII585GB8QA",
      "performed_via_github_app" : null,
      "reactions" : {
         "+1" : 0,
         "-1" : 0,
         "confused" : 0,
         "eyes" : 0,
         "heart" : 0,
         "hooray" : 0,
         "laugh" : 0,
         "rocket" : 0,
         "total_count" : 0,
         "url" : "https://api.github.com/repos/bitcoin/bitcoin/issues/comments/1174914048/reactions"
      },
      "updated_at" : "2022-07-05T10:45:49Z",
      "url" : "https://api.github.com/repos/bitcoin/bitcoin/issues/comments/1174914048",
      "user" : {
         "avatar_url" : "https://avatars.githubusercontent.com/u/6606587?v=4",
         "events_url" : "https://api.github.com/users/willcl-ark/events{/privacy}",
         "followers_url" : "https://api.github.com/users/willcl-ark/followers",
         "following_url" : "https://api.github.com/users/willcl-ark/following{/other_user}",
         "gists_url" : "https://api.github.com/users/willcl-ark/gists{/gist_id}",
         "gravatar_id" : "",
         "html_url" : "https://github.com/willcl-ark",
         "id" : 6606587,
         "login" : "willcl-ark",
         "node_id" : "MDQ6VXNlcjY2MDY1ODc=",
         "organizations_url" : "https://api.github.com/users/willcl-ark/orgs",
         "received_events_url" : "https://api.github.com/users/willcl-ark/received_events",
         "repos_url" : "https://api.github.com/users/willcl-ark/repos",
         "site_admin" : false,
         "starred_url" : "https://api.github.com/users/willcl-ark/starred{/owner}{/repo}",
         "subscriptions_url" : "https://api.github.com/users/willcl-ark/subscriptions",
         "type" : "User",
         "url" : "https://api.github.com/users/willcl-ark"
      }
   },
   {
      "author_association" : "CONTRIBUTOR",
      "body" : "<!--e57a25ab6845829454e8d69fc972939a-->\n\nThe following sections might be updated with supplementary metadata relevant to reviewers and maintainers.\n\n<!--174a7506f384e20aa4161008e828411d-->\n### Conflicts\nNo conflicts as of last run.",
      "created_at" : "2022-07-14T23:24:45Z",
      "html_url" : "https://github.com/bitcoin/bitcoin/pull/24611#issuecomment-1185020742",
      "id" : 1185020742,
      "issue_url" : "https://api.github.com/repos/bitcoin/bitcoin/issues/24611",
      "node_id" : "IC_kwDOABII585GoftG",
      "performed_via_github_app" : null,
      "reactions" : {
         "+1" : 0,
         "-1" : 0,
         "confused" : 0,
         "eyes" : 0,
         "heart" : 0,
         "hooray" : 0,
         "laugh" : 0,
         "rocket" : 0,
         "total_count" : 0,
         "url" : "https://api.github.com/repos/bitcoin/bitcoin/issues/comments/1185020742/reactions"
      },
      "updated_at" : "2022-07-16T06:34:33Z",
      "url" : "https://api.github.com/repos/bitcoin/bitcoin/issues/comments/1185020742",
      "user" : {
         "avatar_url" : "https://avatars.githubusercontent.com/u/39886733?v=4",
         "events_url" : "https://api.github.com/users/DrahtBot/events{/privacy}",
         "followers_url" : "https://api.github.com/users/DrahtBot/followers",
         "following_url" : "https://api.github.com/users/DrahtBot/following{/other_user}",
         "gists_url" : "https://api.github.com/users/DrahtBot/gists{/gist_id}",
         "gravatar_id" : "",
         "html_url" : "https://github.com/DrahtBot",
         "id" : 39886733,
         "login" : "DrahtBot",
         "node_id" : "MDQ6VXNlcjM5ODg2NzMz",
         "organizations_url" : "https://api.github.com/users/DrahtBot/orgs",
         "received_events_url" : "https://api.github.com/users/DrahtBot/received_events",
         "repos_url" : "https://api.github.com/users/DrahtBot/repos",
         "site_admin" : false,
         "starred_url" : "https://api.github.com/users/DrahtBot/starred{/owner}{/repo}",
         "subscriptions_url" : "https://api.github.com/users/DrahtBot/subscriptions",
         "type" : "User",
         "url" : "https://api.github.com/users/DrahtBot"
      }
   },
   {
      "author_association" : "CONTRIBUTOR",
      "body" : "Dropped the REVIEWERS commit as the document looks to be imminently removed",
      "created_at" : "2022-07-15T10:23:36Z",
      "html_url" : "https://github.com/bitcoin/bitcoin/pull/24611#issuecomment-1185404460",
      "id" : 1185404460,
      "issue_url" : "https://api.github.com/repos/bitcoin/bitcoin/issues/24611",
      "node_id" : "IC_kwDOABII585Gp9Ys",
      "performed_via_github_app" : null,
      "reactions" : {
         "+1" : 0,
         "-1" : 0,
         "confused" : 0,
         "eyes" : 0,
         "heart" : 0,
         "hooray" : 0,
         "laugh" : 0,
         "rocket" : 0,
         "total_count" : 0,
         "url" : "https://api.github.com/repos/bitcoin/bitcoin/issues/comments/1185404460/reactions"
      },
      "updated_at" : "2022-07-15T10:23:36Z",
      "url" : "https://api.github.com/repos/bitcoin/bitcoin/issues/comments/1185404460",
      "user" : {
         "avatar_url" : "https://avatars.githubusercontent.com/u/6606587?v=4",
         "events_url" : "https://api.github.com/users/willcl-ark/events{/privacy}",
         "followers_url" : "https://api.github.com/users/willcl-ark/followers",
         "following_url" : "https://api.github.com/users/willcl-ark/following{/other_user}",
         "gists_url" : "https://api.github.com/users/willcl-ark/gists{/gist_id}",
         "gravatar_id" : "",
         "html_url" : "https://github.com/willcl-ark",
         "id" : 6606587,
         "login" : "willcl-ark",
         "node_id" : "MDQ6VXNlcjY2MDY1ODc=",
         "organizations_url" : "https://api.github.com/users/willcl-ark/orgs",
         "received_events_url" : "https://api.github.com/users/willcl-ark/received_events",
         "repos_url" : "https://api.github.com/users/willcl-ark/repos",
         "site_admin" : false,
         "starred_url" : "https://api.github.com/users/willcl-ark/starred{/owner}{/repo}",
         "subscriptions_url" : "https://api.github.com/users/willcl-ark/subscriptions",
         "type" : "User",
         "url" : "https://api.github.com/users/willcl-ark"
      }
   },
   {
      "author_association" : "CONTRIBUTOR",
      "body" : "while testing, i noticed that the bash completions allow you to do `bitcoin-cli help <tab>` and get completions, which is very helpful. doesn't seem to work with the fish completions but im guessing it's a fairly easy fix? ",
      "created_at" : "2022-07-19T17:44:53Z",
      "html_url" : "https://github.com/bitcoin/bitcoin/pull/24611#issuecomment-1189378561",
      "id" : 1189378561,
      "issue_url" : "https://api.github.com/repos/bitcoin/bitcoin/issues/24611",
      "node_id" : "IC_kwDOABII585G5HoB",
      "performed_via_github_app" : null,
      "reactions" : {
         "+1" : 0,
         "-1" : 0,
         "confused" : 0,
         "eyes" : 0,
         "heart" : 0,
         "hooray" : 0,
         "laugh" : 0,
         "rocket" : 0,
         "total_count" : 0,
         "url" : "https://api.github.com/repos/bitcoin/bitcoin/issues/comments/1189378561/reactions"
      },
      "updated_at" : "2022-07-19T17:44:53Z",
      "url" : "https://api.github.com/repos/bitcoin/bitcoin/issues/comments/1189378561",
      "user" : {
         "avatar_url" : "https://avatars.githubusercontent.com/u/7444140?v=4",
         "events_url" : "https://api.github.com/users/josibake/events{/privacy}",
         "followers_url" : "https://api.github.com/users/josibake/followers",
         "following_url" : "https://api.github.com/users/josibake/following{/other_user}",
         "gists_url" : "https://api.github.com/users/josibake/gists{/gist_id}",
         "gravatar_id" : "",
         "html_url" : "https://github.com/josibake",
         "id" : 7444140,
         "login" : "josibake",
         "node_id" : "MDQ6VXNlcjc0NDQxNDA=",
         "organizations_url" : "https://api.github.com/users/josibake/orgs",
         "received_events_url" : "https://api.github.com/users/josibake/received_events",
         "repos_url" : "https://api.github.com/users/josibake/repos",
         "site_admin" : false,
         "starred_url" : "https://api.github.com/users/josibake/starred{/owner}{/repo}",
         "subscriptions_url" : "https://api.github.com/users/josibake/subscriptions",
         "type" : "User",
         "url" : "https://api.github.com/users/josibake"
      }
   },
   {
      "author_association" : "CONTRIBUTOR",
      "body" : "> while testing, i noticed that the bash completions allow you to do `bitcoin-cli help <tab>` and get completions, which is very helpful. doesn't seem to work with the fish completions but im guessing it's a fairly easy fix? \n\nThanks for the nudge.\n\nYes this should simply require adding `help` as a subcommand, which I shall try shortly.",
      "created_at" : "2022-07-19T17:57:33Z",
      "html_url" : "https://github.com/bitcoin/bitcoin/pull/24611#issuecomment-1189389652",
      "id" : 1189389652,
      "issue_url" : "https://api.github.com/repos/bitcoin/bitcoin/issues/24611",
      "node_id" : "IC_kwDOABII585G5KVU",
      "performed_via_github_app" : null,
      "reactions" : {
         "+1" : 0,
         "-1" : 0,
         "confused" : 0,
         "eyes" : 0,
         "heart" : 0,
         "hooray" : 0,
         "laugh" : 0,
         "rocket" : 0,
         "total_count" : 0,
         "url" : "https://api.github.com/repos/bitcoin/bitcoin/issues/comments/1189389652/reactions"
      },
      "updated_at" : "2022-07-19T17:57:33Z",
      "url" : "https://api.github.com/repos/bitcoin/bitcoin/issues/comments/1189389652",
      "user" : {
         "avatar_url" : "https://avatars.githubusercontent.com/u/6606587?v=4",
         "events_url" : "https://api.github.com/users/willcl-ark/events{/privacy}",
         "followers_url" : "https://api.github.com/users/willcl-ark/followers",
         "following_url" : "https://api.github.com/users/willcl-ark/following{/other_user}",
         "gists_url" : "https://api.github.com/users/willcl-ark/gists{/gist_id}",
         "gravatar_id" : "",
         "html_url" : "https://github.com/willcl-ark",
         "id" : 6606587,
         "login" : "willcl-ark",
         "node_id" : "MDQ6VXNlcjY2MDY1ODc=",
         "organizations_url" : "https://api.github.com/users/willcl-ark/orgs",
         "received_events_url" : "https://api.github.com/users/willcl-ark/received_events",
         "repos_url" : "https://api.github.com/users/willcl-ark/repos",
         "site_admin" : false,
         "starred_url" : "https://api.github.com/users/willcl-ark/starred{/owner}{/repo}",
         "subscriptions_url" : "https://api.github.com/users/willcl-ark/subscriptions",
         "type" : "User",
         "url" : "https://api.github.com/users/willcl-ark"
      }
   },
   {
      "author_association" : "CONTRIBUTOR",
      "body" : "Now added an exclusion for `bitcoin-cli help <tab>` in db85a5214894e813d4d7aad3dcf28dc19c2aa293 so that it shows completions.",
      "created_at" : "2022-07-19T19:52:50Z",
      "html_url" : "https://github.com/bitcoin/bitcoin/pull/24611#issuecomment-1189490697",
      "id" : 1189490697,
      "issue_url" : "https://api.github.com/repos/bitcoin/bitcoin/issues/24611",
      "node_id" : "IC_kwDOABII585G5jAJ",
      "performed_via_github_app" : null,
      "reactions" : {
         "+1" : 0,
         "-1" : 0,
         "confused" : 0,
         "eyes" : 0,
         "heart" : 0,
         "hooray" : 0,
         "laugh" : 0,
         "rocket" : 0,
         "total_count" : 0,
         "url" : "https://api.github.com/repos/bitcoin/bitcoin/issues/comments/1189490697/reactions"
      },
      "updated_at" : "2022-07-19T19:52:50Z",
      "url" : "https://api.github.com/repos/bitcoin/bitcoin/issues/comments/1189490697",
      "user" : {
         "avatar_url" : "https://avatars.githubusercontent.com/u/6606587?v=4",
         "events_url" : "https://api.github.com/users/willcl-ark/events{/privacy}",
         "followers_url" : "https://api.github.com/users/willcl-ark/followers",
         "following_url" : "https://api.github.com/users/willcl-ark/following{/other_user}",
         "gists_url" : "https://api.github.com/users/willcl-ark/gists{/gist_id}",
         "gravatar_id" : "",
         "html_url" : "https://github.com/willcl-ark",
         "id" : 6606587,
         "login" : "willcl-ark",
         "node_id" : "MDQ6VXNlcjY2MDY1ODc=",
         "organizations_url" : "https://api.github.com/users/willcl-ark/orgs",
         "received_events_url" : "https://api.github.com/users/willcl-ark/received_events",
         "repos_url" : "https://api.github.com/users/willcl-ark/repos",
         "site_admin" : false,
         "starred_url" : "https://api.github.com/users/willcl-ark/starred{/owner}{/repo}",
         "subscriptions_url" : "https://api.github.com/users/willcl-ark/subscriptions",
         "type" : "User",
         "url" : "https://api.github.com/users/willcl-ark"
      }
   },
   {
      "author_association" : "CONTRIBUTOR",
      "body" : "ACK https://github.com/bitcoin/bitcoin/pull/24611/commits/db85a5214894e813d4d7aad3dcf28dc19c2aa293\r\n\r\ntested by adding files to `~/.config/fish/completions/` and trying `bitcoin-cli <tab>` and `bitcoin-cli help <tab>`. works great, thanks for adding these! using `bitcoin-cli help <tab>` is a really great way to quickly check the docs on commands, making `bitcoin-cli` much more usable",
      "created_at" : "2022-07-20T07:51:17Z",
      "html_url" : "https://github.com/bitcoin/bitcoin/pull/24611#issuecomment-1189946736",
      "id" : 1189946736,
      "issue_url" : "https://api.github.com/repos/bitcoin/bitcoin/issues/24611",
      "node_id" : "IC_kwDOABII585G7SVw",
      "performed_via_github_app" : null,
      "reactions" : {
         "+1" : 0,
         "-1" : 0,
         "confused" : 0,
         "eyes" : 0,
         "heart" : 0,
         "hooray" : 0,
         "laugh" : 0,
         "rocket" : 0,
         "total_count" : 0,
         "url" : "https://api.github.com/repos/bitcoin/bitcoin/issues/comments/1189946736/reactions"
      },
      "updated_at" : "2022-07-20T07:51:17Z",
      "url" : "https://api.github.com/repos/bitcoin/bitcoin/issues/comments/1189946736",
      "user" : {
         "avatar_url" : "https://avatars.githubusercontent.com/u/7444140?v=4",
         "events_url" : "https://api.github.com/users/josibake/events{/privacy}",
         "followers_url" : "https://api.github.com/users/josibake/followers",
         "following_url" : "https://api.github.com/users/josibake/following{/other_user}",
         "gists_url" : "https://api.github.com/users/josibake/gists{/gist_id}",
         "gravatar_id" : "",
         "html_url" : "https://github.com/josibake",
         "id" : 7444140,
         "login" : "josibake",
         "node_id" : "MDQ6VXNlcjc0NDQxNDA=",
         "organizations_url" : "https://api.github.com/users/josibake/orgs",
         "received_events_url" : "https://api.github.com/users/josibake/received_events",
         "repos_url" : "https://api.github.com/users/josibake/repos",
         "site_admin" : false,
         "starred_url" : "https://api.github.com/users/josibake/starred{/owner}{/repo}",
         "subscriptions_url" : "https://api.github.com/users/josibake/subscriptions",
         "type" : "User",
         "url" : "https://api.github.com/users/josibake"
      }
   }
]
