{
   "active_lock_reason" : null,
   "assignee" : null,
   "assignees" : [],
   "author_association" : "MEMBER",
   "body" : "Often I'd like to do some quick benchmarks on a slower platform (e.g. RISC-V, ARM32). Various `Wallet*` benchmarks are extremely slow even on state of the art hardware. I think an option to skip slow benchmarks would be useful.\r\n\r\nIt might be possible with a `-filter=` expression, I'm not sure.",
   "closed_at" : null,
   "closed_by" : null,
   "comments" : 0,
   "comments_url" : "https://api.github.com/repos/bitcoin/bitcoin/issues/25377/comments",
   "created_at" : "2022-06-15T08:54:03Z",
   "events_url" : "https://api.github.com/repos/bitcoin/bitcoin/issues/25377/events",
   "html_url" : "https://github.com/bitcoin/bitcoin/issues/25377",
   "id" : 1271897705,
   "labels" : [
      {
         "color" : "7cf575",
         "default" : false,
         "description" : null,
         "id" : 64583,
         "name" : "Feature",
         "node_id" : "MDU6TGFiZWw2NDU4Mw==",
         "url" : "https://api.github.com/repos/bitcoin/bitcoin/labels/Feature"
      },
      {
         "color" : "d4c5f9",
         "default" : false,
         "description" : null,
         "id" : 62963516,
         "name" : "Tests",
         "node_id" : "MDU6TGFiZWw2Mjk2MzUxNg==",
         "url" : "https://api.github.com/repos/bitcoin/bitcoin/labels/Tests"
      }
   ],
   "labels_url" : "https://api.github.com/repos/bitcoin/bitcoin/issues/25377/labels{/name}",
   "locked" : false,
   "milestone" : null,
   "node_id" : "I_kwDOABII585Lz55p",
   "number" : 25377,
   "performed_via_github_app" : null,
   "reactions" : {
      "+1" : 0,
      "-1" : 0,
      "confused" : 0,
      "eyes" : 0,
      "heart" : 0,
      "hooray" : 0,
      "laugh" : 0,
      "rocket" : 0,
      "total_count" : 0,
      "url" : "https://api.github.com/repos/bitcoin/bitcoin/issues/25377/reactions"
   },
   "repository_url" : "https://api.github.com/repos/bitcoin/bitcoin",
   "state" : "open",
   "state_reason" : null,
   "timeline_url" : "https://api.github.com/repos/bitcoin/bitcoin/issues/25377/timeline",
   "title" : "benchmarks: \"skip slow benchmarks\" option?",
   "updated_at" : "2022-06-15T08:54:03Z",
   "url" : "https://api.github.com/repos/bitcoin/bitcoin/issues/25377",
   "user" : {
      "avatar_url" : "https://avatars.githubusercontent.com/u/126646?v=4",
      "events_url" : "https://api.github.com/users/laanwj/events{/privacy}",
      "followers_url" : "https://api.github.com/users/laanwj/followers",
      "following_url" : "https://api.github.com/users/laanwj/following{/other_user}",
      "gists_url" : "https://api.github.com/users/laanwj/gists{/gist_id}",
      "gravatar_id" : "",
      "html_url" : "https://github.com/laanwj",
      "id" : 126646,
      "login" : "laanwj",
      "node_id" : "MDQ6VXNlcjEyNjY0Ng==",
      "organizations_url" : "https://api.github.com/users/laanwj/orgs",
      "received_events_url" : "https://api.github.com/users/laanwj/received_events",
      "repos_url" : "https://api.github.com/users/laanwj/repos",
      "site_admin" : false,
      "starred_url" : "https://api.github.com/users/laanwj/starred{/owner}{/repo}",
      "subscriptions_url" : "https://api.github.com/users/laanwj/subscriptions",
      "type" : "User",
      "url" : "https://api.github.com/users/laanwj"
   }
}
