[
   {
      "_links" : {
         "html" : {
            "href" : "https://github.com/bitcoin/bitcoin/pull/22049#discussion_r638239413"
         },
         "pull_request" : {
            "href" : "https://api.github.com/repos/bitcoin/bitcoin/pulls/22049"
         },
         "self" : {
            "href" : "https://api.github.com/repos/bitcoin/bitcoin/pulls/comments/638239413"
         }
      },
      "author_association" : "MEMBER",
      "body" : "In 6086c58d27146d500b7ff8de89a5279a6f88457d \"rpc: allow specifying min chain depth for inputs in fund calls\"\r\n\r\n```suggestion\r\n        self.log.info(\"Crafting tx using an unconfirmed input\")\r\n```\r\n\r\nHere and elsewhere in this file too.",
      "commit_id" : "6086c58d27146d500b7ff8de89a5279a6f88457d",
      "created_at" : "2021-05-24T20:04:07Z",
      "diff_hunk" : "@@ -969,6 +970,53 @@ def test_include_unsafe(self):\n         signedtx = wallet.signrawtransactionwithwallet(fundedtx['hex'])\n         wallet.sendrawtransaction(signedtx['hex'])\n \n+    def test_inputs_min_chain_depth(self):\n+        unconfirmedAddress = self.nodes[0].getnewaddress()\n+        targetAddress = self.nodes[2].getnewaddress()\n+        unconfirmedTxid = self.nodes[0].sendtoaddress(unconfirmedAddress, 1)\n+\n+        utxo1 = self.nodes[0].listunspent(0, 1, [unconfirmedAddress])[0]\n+        assert unconfirmedTxid == utxo1['txid']\n+\n+        self.log.info(\"Crafting PSBT using an unconfirmed input\")",
      "html_url" : "https://github.com/bitcoin/bitcoin/pull/22049#discussion_r638239413",
      "id" : 638239413,
      "line" : 981,
      "node_id" : "MDI0OlB1bGxSZXF1ZXN0UmV2aWV3Q29tbWVudDYzODIzOTQxMw==",
      "original_commit_id" : "6086c58d27146d500b7ff8de89a5279a6f88457d",
      "original_line" : 981,
      "original_position" : 20,
      "original_start_line" : null,
      "path" : "test/functional/rpc_fundrawtransaction.py",
      "position" : 20,
      "pull_request_review_id" : 667127883,
      "pull_request_url" : "https://api.github.com/repos/bitcoin/bitcoin/pulls/22049",
      "side" : "RIGHT",
      "start_line" : null,
      "start_side" : null,
      "updated_at" : "2021-05-24T20:06:57Z",
      "url" : "https://api.github.com/repos/bitcoin/bitcoin/pulls/comments/638239413",
      "user" : {
         "avatar_url" : "https://avatars.githubusercontent.com/u/3782274?v=4",
         "events_url" : "https://api.github.com/users/achow101/events{/privacy}",
         "followers_url" : "https://api.github.com/users/achow101/followers",
         "following_url" : "https://api.github.com/users/achow101/following{/other_user}",
         "gists_url" : "https://api.github.com/users/achow101/gists{/gist_id}",
         "gravatar_id" : "",
         "html_url" : "https://github.com/achow101",
         "id" : 3782274,
         "login" : "achow101",
         "node_id" : "MDQ6VXNlcjM3ODIyNzQ=",
         "organizations_url" : "https://api.github.com/users/achow101/orgs",
         "received_events_url" : "https://api.github.com/users/achow101/received_events",
         "repos_url" : "https://api.github.com/users/achow101/repos",
         "site_admin" : false,
         "starred_url" : "https://api.github.com/users/achow101/starred{/owner}{/repo}",
         "subscriptions_url" : "https://api.github.com/users/achow101/subscriptions",
         "type" : "User",
         "url" : "https://api.github.com/users/achow101"
      }
   },
   {
      "_links" : {
         "html" : {
            "href" : "https://github.com/bitcoin/bitcoin/pull/22049#discussion_r638240818"
         },
         "pull_request" : {
            "href" : "https://api.github.com/repos/bitcoin/bitcoin/pulls/22049"
         },
         "self" : {
            "href" : "https://api.github.com/repos/bitcoin/bitcoin/pulls/comments/638240818"
         }
      },
      "author_association" : "MEMBER",
      "body" : "IMO should be `minconf`, see `listunspent` RPC.",
      "commit_id" : "6086c58d27146d500b7ff8de89a5279a6f88457d",
      "created_at" : "2021-05-24T20:06:54Z",
      "diff_hunk" : "@@ -3215,6 +3224,7 @@ static RPCHelpMan fundrawtransaction()\n                             {\"include_unsafe\", RPCArg::Type::BOOL, RPCArg::Default{false}, \"Include inputs that are not safe to spend (unconfirmed transactions from outside keys and unconfirmed replacement transactions).\\n\"\n                                                           \"Warning: the resulting transaction may become invalid if one of the unsafe inputs disappears.\\n\"\n                                                           \"If that happens, you will need to fund the transaction with different inputs and republish it.\"},\n+                            {\"inputs_min_depth\", RPCArg::Type::NUM, RPCArg::Default{0}, \"If add_inputs is specified, require inputs with at least this chain depth.\"},",
      "html_url" : "https://github.com/bitcoin/bitcoin/pull/22049#discussion_r638240818",
      "id" : 638240818,
      "line" : 3227,
      "node_id" : "MDI0OlB1bGxSZXF1ZXN0UmV2aWV3Q29tbWVudDYzODI0MDgxOA==",
      "original_commit_id" : "6086c58d27146d500b7ff8de89a5279a6f88457d",
      "original_line" : 3227,
      "original_position" : 27,
      "original_start_line" : null,
      "path" : "src/wallet/rpcwallet.cpp",
      "position" : 27,
      "pull_request_review_id" : 667129742,
      "pull_request_url" : "https://api.github.com/repos/bitcoin/bitcoin/pulls/22049",
      "side" : "RIGHT",
      "start_line" : null,
      "start_side" : null,
      "updated_at" : "2021-05-24T20:07:19Z",
      "url" : "https://api.github.com/repos/bitcoin/bitcoin/pulls/comments/638240818",
      "user" : {
         "avatar_url" : "https://avatars.githubusercontent.com/u/3534524?v=4",
         "events_url" : "https://api.github.com/users/promag/events{/privacy}",
         "followers_url" : "https://api.github.com/users/promag/followers",
         "following_url" : "https://api.github.com/users/promag/following{/other_user}",
         "gists_url" : "https://api.github.com/users/promag/gists{/gist_id}",
         "gravatar_id" : "",
         "html_url" : "https://github.com/promag",
         "id" : 3534524,
         "login" : "promag",
         "node_id" : "MDQ6VXNlcjM1MzQ1MjQ=",
         "organizations_url" : "https://api.github.com/users/promag/orgs",
         "received_events_url" : "https://api.github.com/users/promag/received_events",
         "repos_url" : "https://api.github.com/users/promag/repos",
         "site_admin" : false,
         "starred_url" : "https://api.github.com/users/promag/starred{/owner}{/repo}",
         "subscriptions_url" : "https://api.github.com/users/promag/subscriptions",
         "type" : "User",
         "url" : "https://api.github.com/users/promag"
      }
   },
   {
      "author_association" : "NONE",
      "body" : "> Seems reasonable, although the use case for this is not immediately obvious to me.\r\n\r\nThe use case is for applications that are using RBF for something else than bumping fee (as implemented by `bumpfee` RPC). RBF requires new inputs added to a replacement to be confirmed. The functional tests are modeled after one of the use cases: increasing the value of an output beyond the current funding of the TX.\r\n\r\n> Perhaps it would also be useful to add `inputs_max_depth` too?\r\n\r\nWill do!",
      "created_at" : "2021-05-24T20:14:31Z",
      "html_url" : "https://github.com/bitcoin/bitcoin/pull/22049#issuecomment-847306032",
      "id" : 847306032,
      "issue_url" : "https://api.github.com/repos/bitcoin/bitcoin/issues/22049",
      "node_id" : "MDEyOklzc3VlQ29tbWVudDg0NzMwNjAzMg==",
      "performed_via_github_app" : null,
      "updated_at" : "2021-05-24T20:14:31Z",
      "url" : "https://api.github.com/repos/bitcoin/bitcoin/issues/comments/847306032",
      "user" : {
         "avatar_url" : "https://avatars.githubusercontent.com/u/202728?v=4",
         "events_url" : "https://api.github.com/users/champo/events{/privacy}",
         "followers_url" : "https://api.github.com/users/champo/followers",
         "following_url" : "https://api.github.com/users/champo/following{/other_user}",
         "gists_url" : "https://api.github.com/users/champo/gists{/gist_id}",
         "gravatar_id" : "",
         "html_url" : "https://github.com/champo",
         "id" : 202728,
         "login" : "champo",
         "node_id" : "MDQ6VXNlcjIwMjcyOA==",
         "organizations_url" : "https://api.github.com/users/champo/orgs",
         "received_events_url" : "https://api.github.com/users/champo/received_events",
         "repos_url" : "https://api.github.com/users/champo/repos",
         "site_admin" : false,
         "starred_url" : "https://api.github.com/users/champo/starred{/owner}{/repo}",
         "subscriptions_url" : "https://api.github.com/users/champo/subscriptions",
         "type" : "User",
         "url" : "https://api.github.com/users/champo"
      }
   },
   {
      "author_association" : "CONTRIBUTOR",
      "body" : "<!--e57a25ab6845829454e8d69fc972939a-->\n\nThe following sections might be updated with supplementary metadata relevant to reviewers and maintainers.\n\n<!--174a7506f384e20aa4161008e828411d-->\n### Conflicts\nReviewers, this pull request conflicts with the following ones:\n\n* [#22686](https://github.com/bitcoin/bitcoin/pull/22686) (wallet: Use GetSelectionAmount in ApproximateBestSubset by achow101)\n* [#17211](https://github.com/bitcoin/bitcoin/pull/17211) (Allow fundrawtransaction and walletcreatefundedpsbt to take external inputs by achow101)\n\nIf you consider this pull request important, please also help to review the conflicting pull requests. Ideally, start with the one that should be merged first.",
      "created_at" : "2021-05-24T21:53:38Z",
      "html_url" : "https://github.com/bitcoin/bitcoin/pull/22049#issuecomment-847360343",
      "id" : 847360343,
      "issue_url" : "https://api.github.com/repos/bitcoin/bitcoin/issues/22049",
      "node_id" : "MDEyOklzc3VlQ29tbWVudDg0NzM2MDM0Mw==",
      "performed_via_github_app" : null,
      "updated_at" : "2021-08-12T22:17:54Z",
      "url" : "https://api.github.com/repos/bitcoin/bitcoin/issues/comments/847360343",
      "user" : {
         "avatar_url" : "https://avatars.githubusercontent.com/u/39886733?v=4",
         "events_url" : "https://api.github.com/users/DrahtBot/events{/privacy}",
         "followers_url" : "https://api.github.com/users/DrahtBot/followers",
         "following_url" : "https://api.github.com/users/DrahtBot/following{/other_user}",
         "gists_url" : "https://api.github.com/users/DrahtBot/gists{/gist_id}",
         "gravatar_id" : "",
         "html_url" : "https://github.com/DrahtBot",
         "id" : 39886733,
         "login" : "DrahtBot",
         "node_id" : "MDQ6VXNlcjM5ODg2NzMz",
         "organizations_url" : "https://api.github.com/users/DrahtBot/orgs",
         "received_events_url" : "https://api.github.com/users/DrahtBot/received_events",
         "repos_url" : "https://api.github.com/users/DrahtBot/repos",
         "site_admin" : false,
         "starred_url" : "https://api.github.com/users/DrahtBot/starred{/owner}{/repo}",
         "subscriptions_url" : "https://api.github.com/users/DrahtBot/subscriptions",
         "type" : "User",
         "url" : "https://api.github.com/users/DrahtBot"
      }
   },
   {
      "author_association" : "NONE",
      "body" : "Thanks for the quick look guys! I've updated the changset with your feedback. I'm not sure what the ettiquete is here regarding squashing mid-review, so I opted to add new commits. LMK if this is not what you expect.",
      "created_at" : "2021-05-24T22:13:55Z",
      "html_url" : "https://github.com/bitcoin/bitcoin/pull/22049#issuecomment-847386545",
      "id" : 847386545,
      "issue_url" : "https://api.github.com/repos/bitcoin/bitcoin/issues/22049",
      "node_id" : "MDEyOklzc3VlQ29tbWVudDg0NzM4NjU0NQ==",
      "performed_via_github_app" : null,
      "updated_at" : "2021-05-24T22:13:55Z",
      "url" : "https://api.github.com/repos/bitcoin/bitcoin/issues/comments/847386545",
      "user" : {
         "avatar_url" : "https://avatars.githubusercontent.com/u/202728?v=4",
         "events_url" : "https://api.github.com/users/champo/events{/privacy}",
         "followers_url" : "https://api.github.com/users/champo/followers",
         "following_url" : "https://api.github.com/users/champo/following{/other_user}",
         "gists_url" : "https://api.github.com/users/champo/gists{/gist_id}",
         "gravatar_id" : "",
         "html_url" : "https://github.com/champo",
         "id" : 202728,
         "login" : "champo",
         "node_id" : "MDQ6VXNlcjIwMjcyOA==",
         "organizations_url" : "https://api.github.com/users/champo/orgs",
         "received_events_url" : "https://api.github.com/users/champo/received_events",
         "repos_url" : "https://api.github.com/users/champo/repos",
         "site_admin" : false,
         "starred_url" : "https://api.github.com/users/champo/starred{/owner}{/repo}",
         "subscriptions_url" : "https://api.github.com/users/champo/subscriptions",
         "type" : "User",
         "url" : "https://api.github.com/users/champo"
      }
   },
   {
      "_links" : {
         "html" : {
            "href" : "https://github.com/bitcoin/bitcoin/pull/22049#discussion_r638343065"
         },
         "pull_request" : {
            "href" : "https://api.github.com/repos/bitcoin/bitcoin/pulls/22049"
         },
         "self" : {
            "href" : "https://api.github.com/repos/bitcoin/bitcoin/pulls/comments/638343065"
         }
      },
      "author_association" : "MEMBER",
      "body" : "It's singular:\r\nhttps://github.com/bitcoin/bitcoin/blob/b295395664bd37e26d168c329f238237b34aef8c/src/wallet/rpcwallet.cpp#L2844-L2845",
      "commit_id" : "290f9dad447256bd97e50f243e70b8a06bc7123c",
      "created_at" : "2021-05-24T22:59:08Z",
      "diff_hunk" : "@@ -4043,6 +4063,8 @@ static RPCHelpMan send()\n                     {\"include_unsafe\", RPCArg::Type::BOOL, RPCArg::Default{false}, \"Include inputs that are not safe to spend (unconfirmed transactions from outside keys and unconfirmed replacement transactions).\\n\"\n                                                           \"Warning: the resulting transaction may become invalid if one of the unsafe inputs disappears.\\n\"\n                                                           \"If that happens, you will need to fund the transaction with different inputs and republish it.\"},\n+                    {\"minconfs\", RPCArg::Type::NUM, RPCArg::Default{0}, \"If add_inputs is specified, require inputs with at least this confirmations.\"},",
      "html_url" : "https://github.com/bitcoin/bitcoin/pull/22049#discussion_r638343065",
      "id" : 638343065,
      "line" : 4066,
      "node_id" : "MDI0OlB1bGxSZXF1ZXN0UmV2aWV3Q29tbWVudDYzODM0MzA2NQ==",
      "original_commit_id" : "290f9dad447256bd97e50f243e70b8a06bc7123c",
      "original_line" : 4066,
      "original_position" : 45,
      "original_start_line" : null,
      "path" : "src/wallet/rpcwallet.cpp",
      "position" : 45,
      "pull_request_review_id" : 667259205,
      "pull_request_url" : "https://api.github.com/repos/bitcoin/bitcoin/pulls/22049",
      "side" : "RIGHT",
      "start_line" : null,
      "start_side" : null,
      "updated_at" : "2021-05-24T22:59:08Z",
      "url" : "https://api.github.com/repos/bitcoin/bitcoin/pulls/comments/638343065",
      "user" : {
         "avatar_url" : "https://avatars.githubusercontent.com/u/3534524?v=4",
         "events_url" : "https://api.github.com/users/promag/events{/privacy}",
         "followers_url" : "https://api.github.com/users/promag/followers",
         "following_url" : "https://api.github.com/users/promag/following{/other_user}",
         "gists_url" : "https://api.github.com/users/promag/gists{/gist_id}",
         "gravatar_id" : "",
         "html_url" : "https://github.com/promag",
         "id" : 3534524,
         "login" : "promag",
         "node_id" : "MDQ6VXNlcjM1MzQ1MjQ=",
         "organizations_url" : "https://api.github.com/users/promag/orgs",
         "received_events_url" : "https://api.github.com/users/promag/received_events",
         "repos_url" : "https://api.github.com/users/promag/repos",
         "site_admin" : false,
         "starred_url" : "https://api.github.com/users/promag/starred{/owner}{/repo}",
         "subscriptions_url" : "https://api.github.com/users/promag/subscriptions",
         "type" : "User",
         "url" : "https://api.github.com/users/promag"
      }
   },
   {
      "author_association" : "MEMBER",
      "body" : "Duplicate of #14641 ?",
      "created_at" : "2021-06-25T04:32:21Z",
      "html_url" : "https://github.com/bitcoin/bitcoin/pull/22049#issuecomment-868196150",
      "id" : 868196150,
      "issue_url" : "https://api.github.com/repos/bitcoin/bitcoin/issues/22049",
      "node_id" : "MDEyOklzc3VlQ29tbWVudDg2ODE5NjE1MA==",
      "performed_via_github_app" : null,
      "updated_at" : "2021-06-25T04:32:21Z",
      "url" : "https://api.github.com/repos/bitcoin/bitcoin/issues/comments/868196150",
      "user" : {
         "avatar_url" : "https://avatars.githubusercontent.com/u/1095675?v=4",
         "events_url" : "https://api.github.com/users/luke-jr/events{/privacy}",
         "followers_url" : "https://api.github.com/users/luke-jr/followers",
         "following_url" : "https://api.github.com/users/luke-jr/following{/other_user}",
         "gists_url" : "https://api.github.com/users/luke-jr/gists{/gist_id}",
         "gravatar_id" : "",
         "html_url" : "https://github.com/luke-jr",
         "id" : 1095675,
         "login" : "luke-jr",
         "node_id" : "MDQ6VXNlcjEwOTU2NzU=",
         "organizations_url" : "https://api.github.com/users/luke-jr/orgs",
         "received_events_url" : "https://api.github.com/users/luke-jr/received_events",
         "repos_url" : "https://api.github.com/users/luke-jr/repos",
         "site_admin" : false,
         "starred_url" : "https://api.github.com/users/luke-jr/starred{/owner}{/repo}",
         "subscriptions_url" : "https://api.github.com/users/luke-jr/subscriptions",
         "type" : "User",
         "url" : "https://api.github.com/users/luke-jr"
      }
   },
   {
      "author_association" : "CONTRIBUTOR",
      "body" : "<!--cf906140f33d8803c4a75a2196329ecb-->\nð This pull request conflicts with the target branch and [needs rebase](https://github.com/bitcoin/bitcoin/blob/master/CONTRIBUTING.md#rebasing-changes).\n\n<sub>Want to unsubscribe from rebase notifications on this pull request? Just convert this pull request to a \"draft\".</sub>",
      "created_at" : "2021-08-16T08:26:49Z",
      "html_url" : "https://github.com/bitcoin/bitcoin/pull/22049#issuecomment-899323350",
      "id" : 899323350,
      "issue_url" : "https://api.github.com/repos/bitcoin/bitcoin/issues/22049",
      "node_id" : "IC_kwDOABII5841mpXW",
      "performed_via_github_app" : null,
      "updated_at" : "2021-08-16T08:26:49Z",
      "url" : "https://api.github.com/repos/bitcoin/bitcoin/issues/comments/899323350",
      "user" : {
         "avatar_url" : "https://avatars.githubusercontent.com/u/39886733?v=4",
         "events_url" : "https://api.github.com/users/DrahtBot/events{/privacy}",
         "followers_url" : "https://api.github.com/users/DrahtBot/followers",
         "following_url" : "https://api.github.com/users/DrahtBot/following{/other_user}",
         "gists_url" : "https://api.github.com/users/DrahtBot/gists{/gist_id}",
         "gravatar_id" : "",
         "html_url" : "https://github.com/DrahtBot",
         "id" : 39886733,
         "login" : "DrahtBot",
         "node_id" : "MDQ6VXNlcjM5ODg2NzMz",
         "organizations_url" : "https://api.github.com/users/DrahtBot/orgs",
         "received_events_url" : "https://api.github.com/users/DrahtBot/received_events",
         "repos_url" : "https://api.github.com/users/DrahtBot/repos",
         "site_admin" : false,
         "starred_url" : "https://api.github.com/users/DrahtBot/starred{/owner}{/repo}",
         "subscriptions_url" : "https://api.github.com/users/DrahtBot/subscriptions",
         "type" : "User",
         "url" : "https://api.github.com/users/DrahtBot"
      }
   },
   {
      "author_association" : "CONTRIBUTOR",
      "body" : "<!--13523179cfe9479db18ec6c5d236f789-->There hasn't been much activity lately and the patch still needs rebase. What is the status here?\n\n* Is it still relevant? â¡ï¸ Please solve the conflicts to make it ready for review and to ensure the CI passes.\n* Is it no longer relevant? â¡ï¸ Please close.\n* Did the author lose interest or time to work on this? â¡ï¸ Please close it and mark it 'Up for grabs' with the label, so that it can be picked up in the future.\n",
      "created_at" : "2021-12-22T12:28:48Z",
      "html_url" : "https://github.com/bitcoin/bitcoin/pull/22049#issuecomment-999541237",
      "id" : 999541237,
      "issue_url" : "https://api.github.com/repos/bitcoin/bitcoin/issues/22049",
      "node_id" : "IC_kwDOABII5847k8n1",
      "performed_via_github_app" : null,
      "reactions" : {
         "+1" : 0,
         "-1" : 0,
         "confused" : 0,
         "eyes" : 0,
         "heart" : 0,
         "hooray" : 0,
         "laugh" : 0,
         "rocket" : 0,
         "total_count" : 0,
         "url" : "https://api.github.com/repos/bitcoin/bitcoin/issues/comments/999541237/reactions"
      },
      "updated_at" : "2021-12-22T12:28:48Z",
      "url" : "https://api.github.com/repos/bitcoin/bitcoin/issues/comments/999541237",
      "user" : {
         "avatar_url" : "https://avatars.githubusercontent.com/u/39886733?v=4",
         "events_url" : "https://api.github.com/users/DrahtBot/events{/privacy}",
         "followers_url" : "https://api.github.com/users/DrahtBot/followers",
         "following_url" : "https://api.github.com/users/DrahtBot/following{/other_user}",
         "gists_url" : "https://api.github.com/users/DrahtBot/gists{/gist_id}",
         "gravatar_id" : "",
         "html_url" : "https://github.com/DrahtBot",
         "id" : 39886733,
         "login" : "DrahtBot",
         "node_id" : "MDQ6VXNlcjM5ODg2NzMz",
         "organizations_url" : "https://api.github.com/users/DrahtBot/orgs",
         "received_events_url" : "https://api.github.com/users/DrahtBot/received_events",
         "repos_url" : "https://api.github.com/users/DrahtBot/repos",
         "site_admin" : false,
         "starred_url" : "https://api.github.com/users/DrahtBot/starred{/owner}{/repo}",
         "subscriptions_url" : "https://api.github.com/users/DrahtBot/subscriptions",
         "type" : "User",
         "url" : "https://api.github.com/users/DrahtBot"
      }
   },
   {
      "author_association" : "MEMBER",
      "body" : "Rebased & squashed here: https://github.com/bitcoin/bitcoin/compare/master...luke-jr:rpc_fundtx_minmaxconf",
      "created_at" : "2022-02-28T23:08:42Z",
      "html_url" : "https://github.com/bitcoin/bitcoin/pull/22049#issuecomment-1054792488",
      "id" : 1054792488,
      "issue_url" : "https://api.github.com/repos/bitcoin/bitcoin/issues/22049",
      "node_id" : "IC_kwDOABII584-3tso",
      "performed_via_github_app" : null,
      "reactions" : {
         "+1" : 0,
         "-1" : 0,
         "confused" : 0,
         "eyes" : 0,
         "heart" : 0,
         "hooray" : 0,
         "laugh" : 0,
         "rocket" : 0,
         "total_count" : 0,
         "url" : "https://api.github.com/repos/bitcoin/bitcoin/issues/comments/1054792488/reactions"
      },
      "updated_at" : "2022-02-28T23:08:42Z",
      "url" : "https://api.github.com/repos/bitcoin/bitcoin/issues/comments/1054792488",
      "user" : {
         "avatar_url" : "https://avatars.githubusercontent.com/u/1095675?v=4",
         "events_url" : "https://api.github.com/users/luke-jr/events{/privacy}",
         "followers_url" : "https://api.github.com/users/luke-jr/followers",
         "following_url" : "https://api.github.com/users/luke-jr/following{/other_user}",
         "gists_url" : "https://api.github.com/users/luke-jr/gists{/gist_id}",
         "gravatar_id" : "",
         "html_url" : "https://github.com/luke-jr",
         "id" : 1095675,
         "login" : "luke-jr",
         "node_id" : "MDQ6VXNlcjEwOTU2NzU=",
         "organizations_url" : "https://api.github.com/users/luke-jr/orgs",
         "received_events_url" : "https://api.github.com/users/luke-jr/received_events",
         "repos_url" : "https://api.github.com/users/luke-jr/repos",
         "site_admin" : false,
         "starred_url" : "https://api.github.com/users/luke-jr/starred{/owner}{/repo}",
         "subscriptions_url" : "https://api.github.com/users/luke-jr/subscriptions",
         "type" : "User",
         "url" : "https://api.github.com/users/luke-jr"
      }
   },
   {
      "author_association" : "MEMBER",
      "body" : "Code review ACK. Needs rebase though.\r\n\r\nIt looks like some commits can be squashed? E.g. the scripted-diff commit seems to only change code that was introduced in this same PR.",
      "created_at" : "2022-06-22T10:00:30Z",
      "html_url" : "https://github.com/bitcoin/bitcoin/pull/22049#issuecomment-1162899405",
      "id" : 1162899405,
      "issue_url" : "https://api.github.com/repos/bitcoin/bitcoin/issues/22049",
      "node_id" : "IC_kwDOABII585FUG_N",
      "performed_via_github_app" : null,
      "reactions" : {
         "+1" : 0,
         "-1" : 0,
         "confused" : 0,
         "eyes" : 0,
         "heart" : 0,
         "hooray" : 0,
         "laugh" : 0,
         "rocket" : 0,
         "total_count" : 0,
         "url" : "https://api.github.com/repos/bitcoin/bitcoin/issues/comments/1162899405/reactions"
      },
      "updated_at" : "2022-06-22T10:00:30Z",
      "url" : "https://api.github.com/repos/bitcoin/bitcoin/issues/comments/1162899405",
      "user" : {
         "avatar_url" : "https://avatars.githubusercontent.com/u/126646?v=4",
         "events_url" : "https://api.github.com/users/laanwj/events{/privacy}",
         "followers_url" : "https://api.github.com/users/laanwj/followers",
         "following_url" : "https://api.github.com/users/laanwj/following{/other_user}",
         "gists_url" : "https://api.github.com/users/laanwj/gists{/gist_id}",
         "gravatar_id" : "",
         "html_url" : "https://github.com/laanwj",
         "id" : 126646,
         "login" : "laanwj",
         "node_id" : "MDQ6VXNlcjEyNjY0Ng==",
         "organizations_url" : "https://api.github.com/users/laanwj/orgs",
         "received_events_url" : "https://api.github.com/users/laanwj/received_events",
         "repos_url" : "https://api.github.com/users/laanwj/repos",
         "site_admin" : false,
         "starred_url" : "https://api.github.com/users/laanwj/starred{/owner}{/repo}",
         "subscriptions_url" : "https://api.github.com/users/laanwj/subscriptions",
         "type" : "User",
         "url" : "https://api.github.com/users/laanwj"
      }
   },
   {
      "author_association" : "MEMBER",
      "body" : "@champo would you like to follow up here?",
      "created_at" : "2022-08-15T21:21:22Z",
      "html_url" : "https://github.com/bitcoin/bitcoin/pull/22049#issuecomment-1215844098",
      "id" : 1215844098,
      "issue_url" : "https://api.github.com/repos/bitcoin/bitcoin/issues/22049",
      "node_id" : "IC_kwDOABII585IeE8C",
      "performed_via_github_app" : null,
      "reactions" : {
         "+1" : 0,
         "-1" : 0,
         "confused" : 0,
         "eyes" : 0,
         "heart" : 0,
         "hooray" : 0,
         "laugh" : 0,
         "rocket" : 0,
         "total_count" : 0,
         "url" : "https://api.github.com/repos/bitcoin/bitcoin/issues/comments/1215844098/reactions"
      },
      "updated_at" : "2022-08-15T21:21:22Z",
      "url" : "https://api.github.com/repos/bitcoin/bitcoin/issues/comments/1215844098",
      "user" : {
         "avatar_url" : "https://avatars.githubusercontent.com/u/863730?v=4",
         "events_url" : "https://api.github.com/users/fanquake/events{/privacy}",
         "followers_url" : "https://api.github.com/users/fanquake/followers",
         "following_url" : "https://api.github.com/users/fanquake/following{/other_user}",
         "gists_url" : "https://api.github.com/users/fanquake/gists{/gist_id}",
         "gravatar_id" : "",
         "html_url" : "https://github.com/fanquake",
         "id" : 863730,
         "login" : "fanquake",
         "node_id" : "MDQ6VXNlcjg2MzczMA==",
         "organizations_url" : "https://api.github.com/users/fanquake/orgs",
         "received_events_url" : "https://api.github.com/users/fanquake/received_events",
         "repos_url" : "https://api.github.com/users/fanquake/repos",
         "site_admin" : false,
         "starred_url" : "https://api.github.com/users/fanquake/starred{/owner}{/repo}",
         "subscriptions_url" : "https://api.github.com/users/fanquake/subscriptions",
         "type" : "User",
         "url" : "https://api.github.com/users/fanquake"
      }
   }
]
