{
   "_links" : {
      "comments" : {
         "href" : "https://api.github.com/repos/bitcoin/bitcoin/issues/24950/comments"
      },
      "commits" : {
         "href" : "https://api.github.com/repos/bitcoin/bitcoin/pulls/24950/commits"
      },
      "html" : {
         "href" : "https://github.com/bitcoin/bitcoin/pull/24950"
      },
      "issue" : {
         "href" : "https://api.github.com/repos/bitcoin/bitcoin/issues/24950"
      },
      "review_comment" : {
         "href" : "https://api.github.com/repos/bitcoin/bitcoin/pulls/comments{/number}"
      },
      "review_comments" : {
         "href" : "https://api.github.com/repos/bitcoin/bitcoin/pulls/24950/comments"
      },
      "self" : {
         "href" : "https://api.github.com/repos/bitcoin/bitcoin/pulls/24950"
      },
      "statuses" : {
         "href" : "https://api.github.com/repos/bitcoin/bitcoin/statuses/8c5e5edc7fec9cd41c944a6e46ad7e58b0bcc3bb"
      }
   },
   "active_lock_reason" : null,
   "additions" : 14,
   "assignee" : null,
   "assignees" : [],
   "author_association" : "NONE",
   "auto_merge" : null,
   "base" : {
      "label" : "bitcoin:master",
      "ref" : "master",
      "repo" : {
         "allow_forking" : true,
         "archive_url" : "https://api.github.com/repos/bitcoin/bitcoin/{archive_format}{/ref}",
         "archived" : false,
         "assignees_url" : "https://api.github.com/repos/bitcoin/bitcoin/assignees{/user}",
         "blobs_url" : "https://api.github.com/repos/bitcoin/bitcoin/git/blobs{/sha}",
         "branches_url" : "https://api.github.com/repos/bitcoin/bitcoin/branches{/branch}",
         "clone_url" : "https://github.com/bitcoin/bitcoin.git",
         "collaborators_url" : "https://api.github.com/repos/bitcoin/bitcoin/collaborators{/collaborator}",
         "comments_url" : "https://api.github.com/repos/bitcoin/bitcoin/comments{/number}",
         "commits_url" : "https://api.github.com/repos/bitcoin/bitcoin/commits{/sha}",
         "compare_url" : "https://api.github.com/repos/bitcoin/bitcoin/compare/{base}...{head}",
         "contents_url" : "https://api.github.com/repos/bitcoin/bitcoin/contents/{+path}",
         "contributors_url" : "https://api.github.com/repos/bitcoin/bitcoin/contributors",
         "created_at" : "2010-12-19T15:16:43Z",
         "default_branch" : "master",
         "deployments_url" : "https://api.github.com/repos/bitcoin/bitcoin/deployments",
         "description" : "Bitcoin Core integration/staging tree",
         "disabled" : false,
         "downloads_url" : "https://api.github.com/repos/bitcoin/bitcoin/downloads",
         "events_url" : "https://api.github.com/repos/bitcoin/bitcoin/events",
         "fork" : false,
         "forks" : 32220,
         "forks_count" : 32220,
         "forks_url" : "https://api.github.com/repos/bitcoin/bitcoin/forks",
         "full_name" : "bitcoin/bitcoin",
         "git_commits_url" : "https://api.github.com/repos/bitcoin/bitcoin/git/commits{/sha}",
         "git_refs_url" : "https://api.github.com/repos/bitcoin/bitcoin/git/refs{/sha}",
         "git_tags_url" : "https://api.github.com/repos/bitcoin/bitcoin/git/tags{/sha}",
         "git_url" : "git://github.com/bitcoin/bitcoin.git",
         "has_downloads" : false,
         "has_issues" : true,
         "has_pages" : false,
         "has_projects" : true,
         "has_wiki" : false,
         "homepage" : "https://bitcoincore.org/en/download",
         "hooks_url" : "https://api.github.com/repos/bitcoin/bitcoin/hooks",
         "html_url" : "https://github.com/bitcoin/bitcoin",
         "id" : 1181927,
         "is_template" : false,
         "issue_comment_url" : "https://api.github.com/repos/bitcoin/bitcoin/issues/comments{/number}",
         "issue_events_url" : "https://api.github.com/repos/bitcoin/bitcoin/issues/events{/number}",
         "issues_url" : "https://api.github.com/repos/bitcoin/bitcoin/issues{/number}",
         "keys_url" : "https://api.github.com/repos/bitcoin/bitcoin/keys{/key_id}",
         "labels_url" : "https://api.github.com/repos/bitcoin/bitcoin/labels{/name}",
         "language" : "C++",
         "languages_url" : "https://api.github.com/repos/bitcoin/bitcoin/languages",
         "license" : {
            "key" : "mit",
            "name" : "MIT License",
            "node_id" : "MDc6TGljZW5zZTEz",
            "spdx_id" : "MIT",
            "url" : "https://api.github.com/licenses/mit"
         },
         "merges_url" : "https://api.github.com/repos/bitcoin/bitcoin/merges",
         "milestones_url" : "https://api.github.com/repos/bitcoin/bitcoin/milestones{/number}",
         "mirror_url" : null,
         "name" : "bitcoin",
         "node_id" : "MDEwOlJlcG9zaXRvcnkxMTgxOTI3",
         "notifications_url" : "https://api.github.com/repos/bitcoin/bitcoin/notifications{?since,all,participating}",
         "open_issues" : 1005,
         "open_issues_count" : 1005,
         "owner" : {
            "avatar_url" : "https://avatars.githubusercontent.com/u/528860?v=4",
            "events_url" : "https://api.github.com/users/bitcoin/events{/privacy}",
            "followers_url" : "https://api.github.com/users/bitcoin/followers",
            "following_url" : "https://api.github.com/users/bitcoin/following{/other_user}",
            "gists_url" : "https://api.github.com/users/bitcoin/gists{/gist_id}",
            "gravatar_id" : "",
            "html_url" : "https://github.com/bitcoin",
            "id" : 528860,
            "login" : "bitcoin",
            "node_id" : "MDEyOk9yZ2FuaXphdGlvbjUyODg2MA==",
            "organizations_url" : "https://api.github.com/users/bitcoin/orgs",
            "received_events_url" : "https://api.github.com/users/bitcoin/received_events",
            "repos_url" : "https://api.github.com/users/bitcoin/repos",
            "site_admin" : false,
            "starred_url" : "https://api.github.com/users/bitcoin/starred{/owner}{/repo}",
            "subscriptions_url" : "https://api.github.com/users/bitcoin/subscriptions",
            "type" : "Organization",
            "url" : "https://api.github.com/users/bitcoin"
         },
         "private" : false,
         "pulls_url" : "https://api.github.com/repos/bitcoin/bitcoin/pulls{/number}",
         "pushed_at" : "2022-04-22T23:27:52Z",
         "releases_url" : "https://api.github.com/repos/bitcoin/bitcoin/releases{/id}",
         "size" : 207006,
         "ssh_url" : "git@github.com:bitcoin/bitcoin.git",
         "stargazers_count" : 63500,
         "stargazers_url" : "https://api.github.com/repos/bitcoin/bitcoin/stargazers",
         "statuses_url" : "https://api.github.com/repos/bitcoin/bitcoin/statuses/{sha}",
         "subscribers_url" : "https://api.github.com/repos/bitcoin/bitcoin/subscribers",
         "subscription_url" : "https://api.github.com/repos/bitcoin/bitcoin/subscription",
         "svn_url" : "https://github.com/bitcoin/bitcoin",
         "tags_url" : "https://api.github.com/repos/bitcoin/bitcoin/tags",
         "teams_url" : "https://api.github.com/repos/bitcoin/bitcoin/teams",
         "topics" : [
            "bitcoin",
            "c-plus-plus",
            "cryptocurrency",
            "cryptography",
            "p2p"
         ],
         "trees_url" : "https://api.github.com/repos/bitcoin/bitcoin/git/trees{/sha}",
         "updated_at" : "2022-04-22T23:13:59Z",
         "url" : "https://api.github.com/repos/bitcoin/bitcoin",
         "visibility" : "public",
         "watchers" : 63500,
         "watchers_count" : 63500
      },
      "sha" : "be7a5f2fc400e7a3ef72dedbdcf49dd6c96d4f9e",
      "user" : {
         "avatar_url" : "https://avatars.githubusercontent.com/u/528860?v=4",
         "events_url" : "https://api.github.com/users/bitcoin/events{/privacy}",
         "followers_url" : "https://api.github.com/users/bitcoin/followers",
         "following_url" : "https://api.github.com/users/bitcoin/following{/other_user}",
         "gists_url" : "https://api.github.com/users/bitcoin/gists{/gist_id}",
         "gravatar_id" : "",
         "html_url" : "https://github.com/bitcoin",
         "id" : 528860,
         "login" : "bitcoin",
         "node_id" : "MDEyOk9yZ2FuaXphdGlvbjUyODg2MA==",
         "organizations_url" : "https://api.github.com/users/bitcoin/orgs",
         "received_events_url" : "https://api.github.com/users/bitcoin/received_events",
         "repos_url" : "https://api.github.com/users/bitcoin/repos",
         "site_admin" : false,
         "starred_url" : "https://api.github.com/users/bitcoin/starred{/owner}{/repo}",
         "subscriptions_url" : "https://api.github.com/users/bitcoin/subscriptions",
         "type" : "Organization",
         "url" : "https://api.github.com/users/bitcoin"
      }
   },
   "body" : "This PR adds a new config option \"shrinkdebugfilesize=<n>\" which accepts an integer specifying the file size of the debug log in megabytes. This option can be specified alongside \"shrinkdebugfile=1\" (which is the default) and when shrinking the debug log, it will now shrink it to the size specified.\r\n\r\nThe default size for debug.log shrinking is still 10 MB.\r\n\r\nI was working on a tool to analyze IBD times and my log kept shrinking if I wanted to change settings or needed to reboot for some reason. This was causing lost data and I didn't want to let the log grow forever by setting shrinkdebugfile=0. That way I could leave it on passively and do post-analysis.",
   "changed_files" : 3,
   "closed_at" : null,
   "comments" : 0,
   "comments_url" : "https://api.github.com/repos/bitcoin/bitcoin/issues/24950/comments",
   "commits" : 2,
   "commits_url" : "https://api.github.com/repos/bitcoin/bitcoin/pulls/24950/commits",
   "created_at" : "2022-04-22T23:27:52Z",
   "deletions" : 8,
   "diff_url" : "https://github.com/bitcoin/bitcoin/pull/24950.diff",
   "draft" : false,
   "head" : {
      "label" : "tehelsper:master",
      "ref" : "master",
      "repo" : {
         "allow_forking" : true,
         "archive_url" : "https://api.github.com/repos/tehelsper/bitcoin/{archive_format}{/ref}",
         "archived" : false,
         "assignees_url" : "https://api.github.com/repos/tehelsper/bitcoin/assignees{/user}",
         "blobs_url" : "https://api.github.com/repos/tehelsper/bitcoin/git/blobs{/sha}",
         "branches_url" : "https://api.github.com/repos/tehelsper/bitcoin/branches{/branch}",
         "clone_url" : "https://github.com/tehelsper/bitcoin.git",
         "collaborators_url" : "https://api.github.com/repos/tehelsper/bitcoin/collaborators{/collaborator}",
         "comments_url" : "https://api.github.com/repos/tehelsper/bitcoin/comments{/number}",
         "commits_url" : "https://api.github.com/repos/tehelsper/bitcoin/commits{/sha}",
         "compare_url" : "https://api.github.com/repos/tehelsper/bitcoin/compare/{base}...{head}",
         "contents_url" : "https://api.github.com/repos/tehelsper/bitcoin/contents/{+path}",
         "contributors_url" : "https://api.github.com/repos/tehelsper/bitcoin/contributors",
         "created_at" : "2022-04-18T22:47:42Z",
         "default_branch" : "master",
         "deployments_url" : "https://api.github.com/repos/tehelsper/bitcoin/deployments",
         "description" : "Bitcoin Core integration/staging tree",
         "disabled" : false,
         "downloads_url" : "https://api.github.com/repos/tehelsper/bitcoin/downloads",
         "events_url" : "https://api.github.com/repos/tehelsper/bitcoin/events",
         "fork" : true,
         "forks" : 0,
         "forks_count" : 0,
         "forks_url" : "https://api.github.com/repos/tehelsper/bitcoin/forks",
         "full_name" : "tehelsper/bitcoin",
         "git_commits_url" : "https://api.github.com/repos/tehelsper/bitcoin/git/commits{/sha}",
         "git_refs_url" : "https://api.github.com/repos/tehelsper/bitcoin/git/refs{/sha}",
         "git_tags_url" : "https://api.github.com/repos/tehelsper/bitcoin/git/tags{/sha}",
         "git_url" : "git://github.com/tehelsper/bitcoin.git",
         "has_downloads" : false,
         "has_issues" : false,
         "has_pages" : false,
         "has_projects" : true,
         "has_wiki" : false,
         "homepage" : "https://bitcoincore.org/en/download",
         "hooks_url" : "https://api.github.com/repos/tehelsper/bitcoin/hooks",
         "html_url" : "https://github.com/tehelsper/bitcoin",
         "id" : 483020136,
         "is_template" : false,
         "issue_comment_url" : "https://api.github.com/repos/tehelsper/bitcoin/issues/comments{/number}",
         "issue_events_url" : "https://api.github.com/repos/tehelsper/bitcoin/issues/events{/number}",
         "issues_url" : "https://api.github.com/repos/tehelsper/bitcoin/issues{/number}",
         "keys_url" : "https://api.github.com/repos/tehelsper/bitcoin/keys{/key_id}",
         "labels_url" : "https://api.github.com/repos/tehelsper/bitcoin/labels{/name}",
         "language" : "C++",
         "languages_url" : "https://api.github.com/repos/tehelsper/bitcoin/languages",
         "license" : {
            "key" : "mit",
            "name" : "MIT License",
            "node_id" : "MDc6TGljZW5zZTEz",
            "spdx_id" : "MIT",
            "url" : "https://api.github.com/licenses/mit"
         },
         "merges_url" : "https://api.github.com/repos/tehelsper/bitcoin/merges",
         "milestones_url" : "https://api.github.com/repos/tehelsper/bitcoin/milestones{/number}",
         "mirror_url" : null,
         "name" : "bitcoin",
         "node_id" : "R_kgDOHMpNaA",
         "notifications_url" : "https://api.github.com/repos/tehelsper/bitcoin/notifications{?since,all,participating}",
         "open_issues" : 0,
         "open_issues_count" : 0,
         "owner" : {
            "avatar_url" : "https://avatars.githubusercontent.com/u/5722611?v=4",
            "events_url" : "https://api.github.com/users/tehelsper/events{/privacy}",
            "followers_url" : "https://api.github.com/users/tehelsper/followers",
            "following_url" : "https://api.github.com/users/tehelsper/following{/other_user}",
            "gists_url" : "https://api.github.com/users/tehelsper/gists{/gist_id}",
            "gravatar_id" : "",
            "html_url" : "https://github.com/tehelsper",
            "id" : 5722611,
            "login" : "tehelsper",
            "node_id" : "MDQ6VXNlcjU3MjI2MTE=",
            "organizations_url" : "https://api.github.com/users/tehelsper/orgs",
            "received_events_url" : "https://api.github.com/users/tehelsper/received_events",
            "repos_url" : "https://api.github.com/users/tehelsper/repos",
            "site_admin" : false,
            "starred_url" : "https://api.github.com/users/tehelsper/starred{/owner}{/repo}",
            "subscriptions_url" : "https://api.github.com/users/tehelsper/subscriptions",
            "type" : "User",
            "url" : "https://api.github.com/users/tehelsper"
         },
         "private" : false,
         "pulls_url" : "https://api.github.com/repos/tehelsper/bitcoin/pulls{/number}",
         "pushed_at" : "2022-04-22T23:23:30Z",
         "releases_url" : "https://api.github.com/repos/tehelsper/bitcoin/releases{/id}",
         "size" : 206757,
         "ssh_url" : "git@github.com:tehelsper/bitcoin.git",
         "stargazers_count" : 0,
         "stargazers_url" : "https://api.github.com/repos/tehelsper/bitcoin/stargazers",
         "statuses_url" : "https://api.github.com/repos/tehelsper/bitcoin/statuses/{sha}",
         "subscribers_url" : "https://api.github.com/repos/tehelsper/bitcoin/subscribers",
         "subscription_url" : "https://api.github.com/repos/tehelsper/bitcoin/subscription",
         "svn_url" : "https://github.com/tehelsper/bitcoin",
         "tags_url" : "https://api.github.com/repos/tehelsper/bitcoin/tags",
         "teams_url" : "https://api.github.com/repos/tehelsper/bitcoin/teams",
         "topics" : [],
         "trees_url" : "https://api.github.com/repos/tehelsper/bitcoin/git/trees{/sha}",
         "updated_at" : "2022-04-22T23:23:58Z",
         "url" : "https://api.github.com/repos/tehelsper/bitcoin",
         "visibility" : "public",
         "watchers" : 0,
         "watchers_count" : 0
      },
      "sha" : "8c5e5edc7fec9cd41c944a6e46ad7e58b0bcc3bb",
      "user" : {
         "avatar_url" : "https://avatars.githubusercontent.com/u/5722611?v=4",
         "events_url" : "https://api.github.com/users/tehelsper/events{/privacy}",
         "followers_url" : "https://api.github.com/users/tehelsper/followers",
         "following_url" : "https://api.github.com/users/tehelsper/following{/other_user}",
         "gists_url" : "https://api.github.com/users/tehelsper/gists{/gist_id}",
         "gravatar_id" : "",
         "html_url" : "https://github.com/tehelsper",
         "id" : 5722611,
         "login" : "tehelsper",
         "node_id" : "MDQ6VXNlcjU3MjI2MTE=",
         "organizations_url" : "https://api.github.com/users/tehelsper/orgs",
         "received_events_url" : "https://api.github.com/users/tehelsper/received_events",
         "repos_url" : "https://api.github.com/users/tehelsper/repos",
         "site_admin" : false,
         "starred_url" : "https://api.github.com/users/tehelsper/starred{/owner}{/repo}",
         "subscriptions_url" : "https://api.github.com/users/tehelsper/subscriptions",
         "type" : "User",
         "url" : "https://api.github.com/users/tehelsper"
      }
   },
   "html_url" : "https://github.com/bitcoin/bitcoin/pull/24950",
   "id" : 916968384,
   "issue_url" : "https://api.github.com/repos/bitcoin/bitcoin/issues/24950",
   "labels" : [],
   "locked" : false,
   "maintainer_can_modify" : true,
   "merge_commit_sha" : "f5fe44bcdf4cb1f879d324e992af9c810c06d005",
   "mergeable" : true,
   "mergeable_state" : "blocked",
   "merged" : false,
   "merged_at" : null,
   "merged_by" : null,
   "milestone" : null,
   "node_id" : "PR_kwDOABII5842p9PA",
   "number" : 24950,
   "patch_url" : "https://github.com/bitcoin/bitcoin/pull/24950.patch",
   "rebaseable" : true,
   "requested_reviewers" : [],
   "requested_teams" : [],
   "review_comment_url" : "https://api.github.com/repos/bitcoin/bitcoin/pulls/comments{/number}",
   "review_comments" : 0,
   "review_comments_url" : "https://api.github.com/repos/bitcoin/bitcoin/pulls/24950/comments",
   "state" : "open",
   "statuses_url" : "https://api.github.com/repos/bitcoin/bitcoin/statuses/8c5e5edc7fec9cd41c944a6e46ad7e58b0bcc3bb",
   "title" : "Add config option to set max debug log size",
   "updated_at" : "2022-04-22T23:27:52Z",
   "url" : "https://api.github.com/repos/bitcoin/bitcoin/pulls/24950",
   "user" : {
      "avatar_url" : "https://avatars.githubusercontent.com/u/5722611?v=4",
      "events_url" : "https://api.github.com/users/tehelsper/events{/privacy}",
      "followers_url" : "https://api.github.com/users/tehelsper/followers",
      "following_url" : "https://api.github.com/users/tehelsper/following{/other_user}",
      "gists_url" : "https://api.github.com/users/tehelsper/gists{/gist_id}",
      "gravatar_id" : "",
      "html_url" : "https://github.com/tehelsper",
      "id" : 5722611,
      "login" : "tehelsper",
      "node_id" : "MDQ6VXNlcjU3MjI2MTE=",
      "organizations_url" : "https://api.github.com/users/tehelsper/orgs",
      "received_events_url" : "https://api.github.com/users/tehelsper/received_events",
      "repos_url" : "https://api.github.com/users/tehelsper/repos",
      "site_admin" : false,
      "starred_url" : "https://api.github.com/users/tehelsper/starred{/owner}{/repo}",
      "subscriptions_url" : "https://api.github.com/users/tehelsper/subscriptions",
      "type" : "User",
      "url" : "https://api.github.com/users/tehelsper"
   }
}
