{
   "_links" : {
      "comments" : {
         "href" : "https://api.github.com/repos/bitcoin/bitcoin/issues/24972/comments"
      },
      "commits" : {
         "href" : "https://api.github.com/repos/bitcoin/bitcoin/pulls/24972/commits"
      },
      "html" : {
         "href" : "https://github.com/bitcoin/bitcoin/pull/24972"
      },
      "issue" : {
         "href" : "https://api.github.com/repos/bitcoin/bitcoin/issues/24972"
      },
      "review_comment" : {
         "href" : "https://api.github.com/repos/bitcoin/bitcoin/pulls/comments{/number}"
      },
      "review_comments" : {
         "href" : "https://api.github.com/repos/bitcoin/bitcoin/pulls/24972/comments"
      },
      "self" : {
         "href" : "https://api.github.com/repos/bitcoin/bitcoin/pulls/24972"
      },
      "statuses" : {
         "href" : "https://api.github.com/repos/bitcoin/bitcoin/statuses/c91fc29e0d17ba662b07b1ad19a190c1ea6c94e3"
      }
   },
   "active_lock_reason" : null,
   "additions" : 6,
   "assignee" : null,
   "assignees" : [],
   "author_association" : "MEMBER",
   "auto_merge" : null,
   "base" : {
      "label" : "bitcoin:master",
      "ref" : "master",
      "repo" : {
         "allow_forking" : true,
         "archive_url" : "https://api.github.com/repos/bitcoin/bitcoin/{archive_format}{/ref}",
         "archived" : false,
         "assignees_url" : "https://api.github.com/repos/bitcoin/bitcoin/assignees{/user}",
         "blobs_url" : "https://api.github.com/repos/bitcoin/bitcoin/git/blobs{/sha}",
         "branches_url" : "https://api.github.com/repos/bitcoin/bitcoin/branches{/branch}",
         "clone_url" : "https://github.com/bitcoin/bitcoin.git",
         "collaborators_url" : "https://api.github.com/repos/bitcoin/bitcoin/collaborators{/collaborator}",
         "comments_url" : "https://api.github.com/repos/bitcoin/bitcoin/comments{/number}",
         "commits_url" : "https://api.github.com/repos/bitcoin/bitcoin/commits{/sha}",
         "compare_url" : "https://api.github.com/repos/bitcoin/bitcoin/compare/{base}...{head}",
         "contents_url" : "https://api.github.com/repos/bitcoin/bitcoin/contents/{+path}",
         "contributors_url" : "https://api.github.com/repos/bitcoin/bitcoin/contributors",
         "created_at" : "2010-12-19T15:16:43Z",
         "default_branch" : "master",
         "deployments_url" : "https://api.github.com/repos/bitcoin/bitcoin/deployments",
         "description" : "Bitcoin Core integration/staging tree",
         "disabled" : false,
         "downloads_url" : "https://api.github.com/repos/bitcoin/bitcoin/downloads",
         "events_url" : "https://api.github.com/repos/bitcoin/bitcoin/events",
         "fork" : false,
         "forks" : 32235,
         "forks_count" : 32235,
         "forks_url" : "https://api.github.com/repos/bitcoin/bitcoin/forks",
         "full_name" : "bitcoin/bitcoin",
         "git_commits_url" : "https://api.github.com/repos/bitcoin/bitcoin/git/commits{/sha}",
         "git_refs_url" : "https://api.github.com/repos/bitcoin/bitcoin/git/refs{/sha}",
         "git_tags_url" : "https://api.github.com/repos/bitcoin/bitcoin/git/tags{/sha}",
         "git_url" : "git://github.com/bitcoin/bitcoin.git",
         "has_downloads" : false,
         "has_issues" : true,
         "has_pages" : false,
         "has_projects" : true,
         "has_wiki" : false,
         "homepage" : "https://bitcoincore.org/en/download",
         "hooks_url" : "https://api.github.com/repos/bitcoin/bitcoin/hooks",
         "html_url" : "https://github.com/bitcoin/bitcoin",
         "id" : 1181927,
         "is_template" : false,
         "issue_comment_url" : "https://api.github.com/repos/bitcoin/bitcoin/issues/comments{/number}",
         "issue_events_url" : "https://api.github.com/repos/bitcoin/bitcoin/issues/events{/number}",
         "issues_url" : "https://api.github.com/repos/bitcoin/bitcoin/issues{/number}",
         "keys_url" : "https://api.github.com/repos/bitcoin/bitcoin/keys{/key_id}",
         "labels_url" : "https://api.github.com/repos/bitcoin/bitcoin/labels{/name}",
         "language" : "C++",
         "languages_url" : "https://api.github.com/repos/bitcoin/bitcoin/languages",
         "license" : {
            "key" : "mit",
            "name" : "MIT License",
            "node_id" : "MDc6TGljZW5zZTEz",
            "spdx_id" : "MIT",
            "url" : "https://api.github.com/licenses/mit"
         },
         "merges_url" : "https://api.github.com/repos/bitcoin/bitcoin/merges",
         "milestones_url" : "https://api.github.com/repos/bitcoin/bitcoin/milestones{/number}",
         "mirror_url" : null,
         "name" : "bitcoin",
         "node_id" : "MDEwOlJlcG9zaXRvcnkxMTgxOTI3",
         "notifications_url" : "https://api.github.com/repos/bitcoin/bitcoin/notifications{?since,all,participating}",
         "open_issues" : 1015,
         "open_issues_count" : 1015,
         "owner" : {
            "avatar_url" : "https://avatars.githubusercontent.com/u/528860?v=4",
            "events_url" : "https://api.github.com/users/bitcoin/events{/privacy}",
            "followers_url" : "https://api.github.com/users/bitcoin/followers",
            "following_url" : "https://api.github.com/users/bitcoin/following{/other_user}",
            "gists_url" : "https://api.github.com/users/bitcoin/gists{/gist_id}",
            "gravatar_id" : "",
            "html_url" : "https://github.com/bitcoin",
            "id" : 528860,
            "login" : "bitcoin",
            "node_id" : "MDEyOk9yZ2FuaXphdGlvbjUyODg2MA==",
            "organizations_url" : "https://api.github.com/users/bitcoin/orgs",
            "received_events_url" : "https://api.github.com/users/bitcoin/received_events",
            "repos_url" : "https://api.github.com/users/bitcoin/repos",
            "site_admin" : false,
            "starred_url" : "https://api.github.com/users/bitcoin/starred{/owner}{/repo}",
            "subscriptions_url" : "https://api.github.com/users/bitcoin/subscriptions",
            "type" : "Organization",
            "url" : "https://api.github.com/users/bitcoin"
         },
         "private" : false,
         "pulls_url" : "https://api.github.com/repos/bitcoin/bitcoin/pulls{/number}",
         "pushed_at" : "2022-04-25T13:59:23Z",
         "releases_url" : "https://api.github.com/repos/bitcoin/bitcoin/releases{/id}",
         "size" : 207041,
         "ssh_url" : "git@github.com:bitcoin/bitcoin.git",
         "stargazers_count" : 63546,
         "stargazers_url" : "https://api.github.com/repos/bitcoin/bitcoin/stargazers",
         "statuses_url" : "https://api.github.com/repos/bitcoin/bitcoin/statuses/{sha}",
         "subscribers_url" : "https://api.github.com/repos/bitcoin/bitcoin/subscribers",
         "subscription_url" : "https://api.github.com/repos/bitcoin/bitcoin/subscription",
         "svn_url" : "https://github.com/bitcoin/bitcoin",
         "tags_url" : "https://api.github.com/repos/bitcoin/bitcoin/tags",
         "teams_url" : "https://api.github.com/repos/bitcoin/bitcoin/teams",
         "topics" : [
            "bitcoin",
            "c-plus-plus",
            "cryptocurrency",
            "cryptography",
            "p2p"
         ],
         "trees_url" : "https://api.github.com/repos/bitcoin/bitcoin/git/trees{/sha}",
         "updated_at" : "2022-04-25T12:09:02Z",
         "url" : "https://api.github.com/repos/bitcoin/bitcoin",
         "visibility" : "public",
         "watchers" : 63546,
         "watchers_count" : 63546
      },
      "sha" : "10a626a1d6776447525f50d3e1a97b3c5bbad7d6",
      "user" : {
         "avatar_url" : "https://avatars.githubusercontent.com/u/528860?v=4",
         "events_url" : "https://api.github.com/users/bitcoin/events{/privacy}",
         "followers_url" : "https://api.github.com/users/bitcoin/followers",
         "following_url" : "https://api.github.com/users/bitcoin/following{/other_user}",
         "gists_url" : "https://api.github.com/users/bitcoin/gists{/gist_id}",
         "gravatar_id" : "",
         "html_url" : "https://github.com/bitcoin",
         "id" : 528860,
         "login" : "bitcoin",
         "node_id" : "MDEyOk9yZ2FuaXphdGlvbjUyODg2MA==",
         "organizations_url" : "https://api.github.com/users/bitcoin/orgs",
         "received_events_url" : "https://api.github.com/users/bitcoin/received_events",
         "repos_url" : "https://api.github.com/users/bitcoin/repos",
         "site_admin" : false,
         "starred_url" : "https://api.github.com/users/bitcoin/starred{/owner}{/repo}",
         "subscriptions_url" : "https://api.github.com/users/bitcoin/subscriptions",
         "type" : "Organization",
         "url" : "https://api.github.com/users/bitcoin"
      }
   },
   "body" : "Although bitcoin/bitcoin#22646 was a great change, it [broke](https://github.com/bitcoin/bitcoin/pull/22646#issuecomment-974780821) Windows builds with `DEBUG=1`:\r\n```\r\n$ make -C depends HOST=x86_64-w64-mingw32 DEBUG=1 NO_QT=1 NO_ZMQ=1 NO_WALLET=1 NO_UPNP=1 NO_NATPMP=1\r\n$ ./autogen.sh\r\n$ ./configure CONFIG_SITE=$PWD/depends/x86_64-w64-mingw32/share/config.site --without-libs\r\n$ make clean\r\n$ make\r\n...\r\n  CXXLD    bitcoind.exe\r\n/usr/bin/x86_64-w64-mingw32-ld: ./.libs/libunivalue.a(libunivalue_la-univalue.o):univalue.cpp:(.text+0x7d1): undefined reference to `__imp_pthread_mutex_lock'\r\n/usr/bin/x86_64-w64-mingw32-ld: ./.libs/libunivalue.a(libunivalue_la-univalue.o):univalue.cpp:(.text+0x7d8): undefined reference to `__imp_pthread_mutex_unlock'\r\n...\r\n```\r\n\r\nPlease note that the `--without-libs` configuration option, therefore, this bug differs from bitcoin/bitcoin#19772.\r\n\r\nUnfortunately, this is another evidence of the tough relationship between Libtool and cross-compiler for MinGW-w64. Other workarounds see [here](https://github.com/bitcoin/bitcoin/blob/10a626a1d6776447525f50d3e1a97b3c5bbad7d6/configure.ac#L61-L68) and [here](https://github.com/bitcoin/bitcoin/blob/10a626a1d6776447525f50d3e1a97b3c5bbad7d6/configure.ac#L690-L692).\r\n\r\nThis PR avoids using Libtool for the `libunivalue` library at all. After bitcoin/bitcoin#22646 the `libunivalue` library been built not using its own build system. In such a context it will never be a shared library. Therefore, no need to use Libtool, and the `libunivalue` library could be a non-Libtool convenience library.\r\n\r\nBtw, I strongly believe such an approach could also solve bitcoin/bitcoin#19772.\r\n\r\n---\r\n\r\nFWIW, while working on this PR I found a more concise fix:\r\n```diff\r\n--- a/src/Makefile.univalue.include\r\n+++ b/src/Makefile.univalue.include\r\n@@ -4,3 +4,6 @@ LIBUNIVALUE = libunivalue.la\r\n noinst_LTLIBRARIES += $(LIBUNIVALUE)\r\n libunivalue_la_SOURCES = $(UNIVALUE_LIB_SOURCES_INT) $(UNIVALUE_DIST_HEADERS_INT) $(UNIVALUE_LIB_HEADERS_INT) $(UNIVALUE_TEST_FILES_INT)\r\n libunivalue_la_CPPFLAGS = $(AM_CPPFLAGS) -I$(srcdir)/$(UNIVALUE_INCLUDE_DIR_INT)\r\n+if TARGET_WINDOWS\r\n+libunivalue_la_LDFLAGS = -static\r\n+endif\r\n```\r\n",
   "changed_files" : 2,
   "closed_at" : null,
   "comments" : 3,
   "comments_url" : "https://api.github.com/repos/bitcoin/bitcoin/issues/24972/comments",
   "commits" : 1,
   "commits_url" : "https://api.github.com/repos/bitcoin/bitcoin/pulls/24972/commits",
   "created_at" : "2022-04-25T12:13:08Z",
   "deletions" : 5,
   "diff_url" : "https://github.com/bitcoin/bitcoin/pull/24972.diff",
   "draft" : false,
   "head" : {
      "label" : "hebasto:220425-no-libtool",
      "ref" : "220425-no-libtool",
      "repo" : {
         "allow_forking" : true,
         "archive_url" : "https://api.github.com/repos/hebasto/bitcoin/{archive_format}{/ref}",
         "archived" : false,
         "assignees_url" : "https://api.github.com/repos/hebasto/bitcoin/assignees{/user}",
         "blobs_url" : "https://api.github.com/repos/hebasto/bitcoin/git/blobs{/sha}",
         "branches_url" : "https://api.github.com/repos/hebasto/bitcoin/branches{/branch}",
         "clone_url" : "https://github.com/hebasto/bitcoin.git",
         "collaborators_url" : "https://api.github.com/repos/hebasto/bitcoin/collaborators{/collaborator}",
         "comments_url" : "https://api.github.com/repos/hebasto/bitcoin/comments{/number}",
         "commits_url" : "https://api.github.com/repos/hebasto/bitcoin/commits{/sha}",
         "compare_url" : "https://api.github.com/repos/hebasto/bitcoin/compare/{base}...{head}",
         "contents_url" : "https://api.github.com/repos/hebasto/bitcoin/contents/{+path}",
         "contributors_url" : "https://api.github.com/repos/hebasto/bitcoin/contributors",
         "created_at" : "2018-08-01T21:59:57Z",
         "default_branch" : "master",
         "deployments_url" : "https://api.github.com/repos/hebasto/bitcoin/deployments",
         "description" : "Bitcoin Core integration/staging tree",
         "disabled" : false,
         "downloads_url" : "https://api.github.com/repos/hebasto/bitcoin/downloads",
         "events_url" : "https://api.github.com/repos/hebasto/bitcoin/events",
         "fork" : true,
         "forks" : 2,
         "forks_count" : 2,
         "forks_url" : "https://api.github.com/repos/hebasto/bitcoin/forks",
         "full_name" : "hebasto/bitcoin",
         "git_commits_url" : "https://api.github.com/repos/hebasto/bitcoin/git/commits{/sha}",
         "git_refs_url" : "https://api.github.com/repos/hebasto/bitcoin/git/refs{/sha}",
         "git_tags_url" : "https://api.github.com/repos/hebasto/bitcoin/git/tags{/sha}",
         "git_url" : "git://github.com/hebasto/bitcoin.git",
         "has_downloads" : false,
         "has_issues" : false,
         "has_pages" : false,
         "has_projects" : false,
         "has_wiki" : false,
         "homepage" : "https://bitcoincore.org/en/download",
         "hooks_url" : "https://api.github.com/repos/hebasto/bitcoin/hooks",
         "html_url" : "https://github.com/hebasto/bitcoin",
         "id" : 143212778,
         "is_template" : false,
         "issue_comment_url" : "https://api.github.com/repos/hebasto/bitcoin/issues/comments{/number}",
         "issue_events_url" : "https://api.github.com/repos/hebasto/bitcoin/issues/events{/number}",
         "issues_url" : "https://api.github.com/repos/hebasto/bitcoin/issues{/number}",
         "keys_url" : "https://api.github.com/repos/hebasto/bitcoin/keys{/key_id}",
         "labels_url" : "https://api.github.com/repos/hebasto/bitcoin/labels{/name}",
         "language" : "C++",
         "languages_url" : "https://api.github.com/repos/hebasto/bitcoin/languages",
         "license" : {
            "key" : "mit",
            "name" : "MIT License",
            "node_id" : "MDc6TGljZW5zZTEz",
            "spdx_id" : "MIT",
            "url" : "https://api.github.com/licenses/mit"
         },
         "merges_url" : "https://api.github.com/repos/hebasto/bitcoin/merges",
         "milestones_url" : "https://api.github.com/repos/hebasto/bitcoin/milestones{/number}",
         "mirror_url" : null,
         "name" : "bitcoin",
         "node_id" : "MDEwOlJlcG9zaXRvcnkxNDMyMTI3Nzg=",
         "notifications_url" : "https://api.github.com/repos/hebasto/bitcoin/notifications{?since,all,participating}",
         "open_issues" : 0,
         "open_issues_count" : 0,
         "owner" : {
            "avatar_url" : "https://avatars.githubusercontent.com/u/32963518?v=4",
            "events_url" : "https://api.github.com/users/hebasto/events{/privacy}",
            "followers_url" : "https://api.github.com/users/hebasto/followers",
            "following_url" : "https://api.github.com/users/hebasto/following{/other_user}",
            "gists_url" : "https://api.github.com/users/hebasto/gists{/gist_id}",
            "gravatar_id" : "",
            "html_url" : "https://github.com/hebasto",
            "id" : 32963518,
            "login" : "hebasto",
            "node_id" : "MDQ6VXNlcjMyOTYzNTE4",
            "organizations_url" : "https://api.github.com/users/hebasto/orgs",
            "received_events_url" : "https://api.github.com/users/hebasto/received_events",
            "repos_url" : "https://api.github.com/users/hebasto/repos",
            "site_admin" : false,
            "starred_url" : "https://api.github.com/users/hebasto/starred{/owner}{/repo}",
            "subscriptions_url" : "https://api.github.com/users/hebasto/subscriptions",
            "type" : "User",
            "url" : "https://api.github.com/users/hebasto"
         },
         "private" : false,
         "pulls_url" : "https://api.github.com/repos/hebasto/bitcoin/pulls{/number}",
         "pushed_at" : "2022-04-25T11:15:58Z",
         "releases_url" : "https://api.github.com/repos/hebasto/bitcoin/releases{/id}",
         "size" : 213497,
         "ssh_url" : "git@github.com:hebasto/bitcoin.git",
         "stargazers_count" : 9,
         "stargazers_url" : "https://api.github.com/repos/hebasto/bitcoin/stargazers",
         "statuses_url" : "https://api.github.com/repos/hebasto/bitcoin/statuses/{sha}",
         "subscribers_url" : "https://api.github.com/repos/hebasto/bitcoin/subscribers",
         "subscription_url" : "https://api.github.com/repos/hebasto/bitcoin/subscription",
         "svn_url" : "https://github.com/hebasto/bitcoin",
         "tags_url" : "https://api.github.com/repos/hebasto/bitcoin/tags",
         "teams_url" : "https://api.github.com/repos/hebasto/bitcoin/teams",
         "topics" : [
            "bitcoin-core"
         ],
         "trees_url" : "https://api.github.com/repos/hebasto/bitcoin/git/trees{/sha}",
         "updated_at" : "2022-04-04T07:25:03Z",
         "url" : "https://api.github.com/repos/hebasto/bitcoin",
         "visibility" : "public",
         "watchers" : 9,
         "watchers_count" : 9
      },
      "sha" : "c91fc29e0d17ba662b07b1ad19a190c1ea6c94e3",
      "user" : {
         "avatar_url" : "https://avatars.githubusercontent.com/u/32963518?v=4",
         "events_url" : "https://api.github.com/users/hebasto/events{/privacy}",
         "followers_url" : "https://api.github.com/users/hebasto/followers",
         "following_url" : "https://api.github.com/users/hebasto/following{/other_user}",
         "gists_url" : "https://api.github.com/users/hebasto/gists{/gist_id}",
         "gravatar_id" : "",
         "html_url" : "https://github.com/hebasto",
         "id" : 32963518,
         "login" : "hebasto",
         "node_id" : "MDQ6VXNlcjMyOTYzNTE4",
         "organizations_url" : "https://api.github.com/users/hebasto/orgs",
         "received_events_url" : "https://api.github.com/users/hebasto/received_events",
         "repos_url" : "https://api.github.com/users/hebasto/repos",
         "site_admin" : false,
         "starred_url" : "https://api.github.com/users/hebasto/starred{/owner}{/repo}",
         "subscriptions_url" : "https://api.github.com/users/hebasto/subscriptions",
         "type" : "User",
         "url" : "https://api.github.com/users/hebasto"
      }
   },
   "html_url" : "https://github.com/bitcoin/bitcoin/pull/24972",
   "id" : 918075745,
   "issue_url" : "https://api.github.com/repos/bitcoin/bitcoin/issues/24972",
   "labels" : [
      {
         "color" : "bfd4f2",
         "default" : false,
         "description" : "",
         "id" : 1947349437,
         "name" : "DrahtBot Guix build requested",
         "node_id" : "MDU6TGFiZWwxOTQ3MzQ5NDM3",
         "url" : "https://api.github.com/repos/bitcoin/bitcoin/labels/DrahtBot%20Guix%20build%20requested"
      }
   ],
   "locked" : false,
   "maintainer_can_modify" : true,
   "merge_commit_sha" : "a038df465de190bfdd3df675296d6c22255ef1e1",
   "mergeable" : true,
   "mergeable_state" : "blocked",
   "merged" : false,
   "merged_at" : null,
   "merged_by" : null,
   "milestone" : null,
   "node_id" : "PR_kwDOABII5842uLlh",
   "number" : 24972,
   "patch_url" : "https://github.com/bitcoin/bitcoin/pull/24972.patch",
   "rebaseable" : true,
   "requested_reviewers" : [],
   "requested_teams" : [],
   "review_comment_url" : "https://api.github.com/repos/bitcoin/bitcoin/pulls/comments{/number}",
   "review_comments" : 0,
   "review_comments_url" : "https://api.github.com/repos/bitcoin/bitcoin/pulls/24972/comments",
   "state" : "open",
   "statuses_url" : "https://api.github.com/repos/bitcoin/bitcoin/statuses/c91fc29e0d17ba662b07b1ad19a190c1ea6c94e3",
   "title" : "build: Make `libunivalue` a non-Libtool convenience library",
   "updated_at" : "2022-04-25T13:09:53Z",
   "url" : "https://api.github.com/repos/bitcoin/bitcoin/pulls/24972",
   "user" : {
      "avatar_url" : "https://avatars.githubusercontent.com/u/32963518?v=4",
      "events_url" : "https://api.github.com/users/hebasto/events{/privacy}",
      "followers_url" : "https://api.github.com/users/hebasto/followers",
      "following_url" : "https://api.github.com/users/hebasto/following{/other_user}",
      "gists_url" : "https://api.github.com/users/hebasto/gists{/gist_id}",
      "gravatar_id" : "",
      "html_url" : "https://github.com/hebasto",
      "id" : 32963518,
      "login" : "hebasto",
      "node_id" : "MDQ6VXNlcjMyOTYzNTE4",
      "organizations_url" : "https://api.github.com/users/hebasto/orgs",
      "received_events_url" : "https://api.github.com/users/hebasto/received_events",
      "repos_url" : "https://api.github.com/users/hebasto/repos",
      "site_admin" : false,
      "starred_url" : "https://api.github.com/users/hebasto/starred{/owner}{/repo}",
      "subscriptions_url" : "https://api.github.com/users/hebasto/subscriptions",
      "type" : "User",
      "url" : "https://api.github.com/users/hebasto"
   }
}
