{
   "active_lock_reason" : null,
   "assignee" : null,
   "assignees" : [],
   "author_association" : "CONTRIBUTOR",
   "body" : "In v22, using the options: -onlynet=onion -onlynet=ipv4 -onlynet=ipv6, combined with the options -torcontrol= (etc) functioned and bitcoind correctly pulled the onion socks address via a probe to tor. In v23, that combination of options no longer functions and -onion= is required.\r\n\r\n** expected **\r\n\r\nUsing -onlynet=onion (and ipv4 and ipv6) if -torcontrol= is specified should still work.\r\n\r\n**Actual behavior**\r\n\r\nbitcoind refuses to start up due to commitid e53a8505db preventing it from doing so in init.cpp.\r\n\r\n**To reproduce**\r\n\r\nRun as per above.\r\n\r\n**System information**\r\n\r\nSources built from fcf6c8f4eb217763545ede1766831a6b93f583bd (tag v23.0 as of this writing I .. think?)\r\n\r\nError message in debug.log is:\r\n\r\nError: Outbound connections restricted to Tor (-onlynet=onion) but the proxy for reaching the Tor network is not provided\r\n(no -proxy= and no -onion= given) or it is explicitly forbidden (-onion=0)\r\nShutdown: In progress...\r\nscheduler thread exit\r\nShutdown: done\r\n",
   "closed_at" : null,
   "closed_by" : null,
   "comments" : 0,
   "comments_url" : "https://api.github.com/repos/bitcoin/bitcoin/issues/24980/comments",
   "created_at" : "2022-04-25T18:12:35Z",
   "events_url" : "https://api.github.com/repos/bitcoin/bitcoin/issues/24980/events",
   "html_url" : "https://github.com/bitcoin/bitcoin/issues/24980",
   "id" : 1214866388,
   "labels" : [
      {
         "color" : "FBBAAB",
         "default" : false,
         "description" : null,
         "id" : 64585,
         "name" : "Bug",
         "node_id" : "MDU6TGFiZWw2NDU4NQ==",
         "url" : "https://api.github.com/repos/bitcoin/bitcoin/labels/Bug"
      }
   ],
   "labels_url" : "https://api.github.com/repos/bitcoin/bitcoin/issues/24980/labels{/name}",
   "locked" : false,
   "milestone" : null,
   "node_id" : "I_kwDOABII585IaWPU",
   "number" : 24980,
   "performed_via_github_app" : null,
   "reactions" : {
      "+1" : 0,
      "-1" : 0,
      "confused" : 0,
      "eyes" : 0,
      "heart" : 0,
      "hooray" : 0,
      "laugh" : 0,
      "rocket" : 0,
      "total_count" : 0,
      "url" : "https://api.github.com/repos/bitcoin/bitcoin/issues/24980/reactions"
   },
   "repository_url" : "https://api.github.com/repos/bitcoin/bitcoin",
   "state" : "open",
   "timeline_url" : "https://api.github.com/repos/bitcoin/bitcoin/issues/24980/timeline",
   "title" : "-onlynet=onion plus -onlynet=ipv4/etc, without -onion=, in spite of -torcontrol= specified, incorrectly kills startup",
   "updated_at" : "2022-04-25T18:12:35Z",
   "url" : "https://api.github.com/repos/bitcoin/bitcoin/issues/24980",
   "user" : {
      "avatar_url" : "https://avatars.githubusercontent.com/u/607777?v=4",
      "events_url" : "https://api.github.com/users/midnightmagic/events{/privacy}",
      "followers_url" : "https://api.github.com/users/midnightmagic/followers",
      "following_url" : "https://api.github.com/users/midnightmagic/following{/other_user}",
      "gists_url" : "https://api.github.com/users/midnightmagic/gists{/gist_id}",
      "gravatar_id" : "",
      "html_url" : "https://github.com/midnightmagic",
      "id" : 607777,
      "login" : "midnightmagic",
      "node_id" : "MDQ6VXNlcjYwNzc3Nw==",
      "organizations_url" : "https://api.github.com/users/midnightmagic/orgs",
      "received_events_url" : "https://api.github.com/users/midnightmagic/received_events",
      "repos_url" : "https://api.github.com/users/midnightmagic/repos",
      "site_admin" : false,
      "starred_url" : "https://api.github.com/users/midnightmagic/starred{/owner}{/repo}",
      "subscriptions_url" : "https://api.github.com/users/midnightmagic/subscriptions",
      "type" : "User",
      "url" : "https://api.github.com/users/midnightmagic"
   }
}
