[
   {
      "author_association" : "CONTRIBUTOR",
      "body" : "@shaavan @w0xlt: Thanks for your feedback, I agree that adding thread safety assertions and annotations is a good idea. Added a commit doing that -- note though that the `LOCKS_EXCLUDED` annotation is only possible for one method (`PeerManagerImpl::ProcessMessages`), as for the other (`CConnman::SocketHandlerConnected`) the elements that cointain the loop are in a list rather than a direct parameter that can be accessed.",
      "created_at" : "2022-01-22T20:54:40Z",
      "html_url" : "https://github.com/bitcoin/bitcoin/pull/24122#issuecomment-1019356374",
      "id" : 1019356374,
      "issue_url" : "https://api.github.com/repos/bitcoin/bitcoin/issues/24122",
      "node_id" : "IC_kwDOABII5848wiTW",
      "performed_via_github_app" : null,
      "reactions" : {
         "+1" : 0,
         "-1" : 0,
         "confused" : 0,
         "eyes" : 0,
         "heart" : 0,
         "hooray" : 0,
         "laugh" : 0,
         "rocket" : 0,
         "total_count" : 0,
         "url" : "https://api.github.com/repos/bitcoin/bitcoin/issues/comments/1019356374/reactions"
      },
      "updated_at" : "2022-01-22T20:54:40Z",
      "url" : "https://api.github.com/repos/bitcoin/bitcoin/issues/comments/1019356374",
      "user" : {
         "avatar_url" : "https://avatars.githubusercontent.com/u/91535?v=4",
         "events_url" : "https://api.github.com/users/theStack/events{/privacy}",
         "followers_url" : "https://api.github.com/users/theStack/followers",
         "following_url" : "https://api.github.com/users/theStack/following{/other_user}",
         "gists_url" : "https://api.github.com/users/theStack/gists{/gist_id}",
         "gravatar_id" : "",
         "html_url" : "https://github.com/theStack",
         "id" : 91535,
         "login" : "theStack",
         "node_id" : "MDQ6VXNlcjkxNTM1",
         "organizations_url" : "https://api.github.com/users/theStack/orgs",
         "received_events_url" : "https://api.github.com/users/theStack/received_events",
         "repos_url" : "https://api.github.com/users/theStack/repos",
         "site_admin" : false,
         "starred_url" : "https://api.github.com/users/theStack/starred{/owner}{/repo}",
         "subscriptions_url" : "https://api.github.com/users/theStack/subscriptions",
         "type" : "User",
         "url" : "https://api.github.com/users/theStack"
      }
   },
   {
      "author_association" : "CONTRIBUTOR",
      "body" : "<!--e57a25ab6845829454e8d69fc972939a-->\n\nThe following sections might be updated with supplementary metadata relevant to reviewers and maintainers.\n\n<!--174a7506f384e20aa4161008e828411d-->\n### Conflicts\nReviewers, this pull request conflicts with the following ones:\n\n* [#25109](https://github.com/bitcoin/bitcoin/pull/25109) (Strengthen AssertLockNotHeld assertions by ajtowns)\n* [#24931](https://github.com/bitcoin/bitcoin/pull/24931) (Strengthen thread safety assertions by ajtowns)\n* [#24474](https://github.com/bitcoin/bitcoin/pull/24474) (Additional thread safety annotations for CNode/Peer by ajtowns)\n* [#21527](https://github.com/bitcoin/bitcoin/pull/21527) (net_processing: lock clean up by ajtowns)\n\nIf you consider this pull request important, please also help to review the conflicting pull requests. Ideally, start with the one that should be merged first.",
      "created_at" : "2022-01-23T09:11:00Z",
      "html_url" : "https://github.com/bitcoin/bitcoin/pull/24122#issuecomment-1019443432",
      "id" : 1019443432,
      "issue_url" : "https://api.github.com/repos/bitcoin/bitcoin/issues/24122",
      "node_id" : "IC_kwDOABII5848w3jo",
      "performed_via_github_app" : null,
      "reactions" : {
         "+1" : 0,
         "-1" : 0,
         "confused" : 0,
         "eyes" : 0,
         "heart" : 0,
         "hooray" : 0,
         "laugh" : 0,
         "rocket" : 0,
         "total_count" : 0,
         "url" : "https://api.github.com/repos/bitcoin/bitcoin/issues/comments/1019443432/reactions"
      },
      "updated_at" : "2022-05-12T23:17:21Z",
      "url" : "https://api.github.com/repos/bitcoin/bitcoin/issues/comments/1019443432",
      "user" : {
         "avatar_url" : "https://avatars.githubusercontent.com/u/39886733?v=4",
         "events_url" : "https://api.github.com/users/DrahtBot/events{/privacy}",
         "followers_url" : "https://api.github.com/users/DrahtBot/followers",
         "following_url" : "https://api.github.com/users/DrahtBot/following{/other_user}",
         "gists_url" : "https://api.github.com/users/DrahtBot/gists{/gist_id}",
         "gravatar_id" : "",
         "html_url" : "https://github.com/DrahtBot",
         "id" : 39886733,
         "login" : "DrahtBot",
         "node_id" : "MDQ6VXNlcjM5ODg2NzMz",
         "organizations_url" : "https://api.github.com/users/DrahtBot/orgs",
         "received_events_url" : "https://api.github.com/users/DrahtBot/received_events",
         "repos_url" : "https://api.github.com/users/DrahtBot/repos",
         "site_admin" : false,
         "starred_url" : "https://api.github.com/users/DrahtBot/starred{/owner}{/repo}",
         "subscriptions_url" : "https://api.github.com/users/DrahtBot/subscriptions",
         "type" : "User",
         "url" : "https://api.github.com/users/DrahtBot"
      }
   },
   {
      "_links" : {
         "html" : {
            "href" : "https://github.com/bitcoin/bitcoin/pull/24122#discussion_r790283504"
         },
         "pull_request" : {
            "href" : "https://api.github.com/repos/bitcoin/bitcoin/pulls/24122"
         },
         "self" : {
            "href" : "https://api.github.com/repos/bitcoin/bitcoin/pulls/comments/790283504"
         }
      },
      "author_association" : "CONTRIBUTOR",
      "body" : "Can we add `AssertLockNotHeld` above this line?\r\n\r\n```suggestion\r\n            AssertLockNotHeld(node.m_process_msgs_mutex);\r\n            LOCK(node.m_process_msgs_mutex);\r\n```",
      "commit_id" : "9add3f9c3486284bea6f91061a561c475ff4666a",
      "created_at" : "2022-01-23T14:21:41Z",
      "diff_hunk" : "@@ -22,8 +22,8 @@ void ConnmanTestMsg::NodeReceiveMsgBytes(CNode& node, Span<const uint8_t> msg_by\n             nSizeAdded += it->m_raw_message_size;\n         }\n         {\n-            LOCK(node.cs_vProcessMsg);\n-            node.vProcessMsg.splice(node.vProcessMsg.end(), node.vRecvMsg, node.vRecvMsg.begin(), it);\n+            LOCK(node.m_process_msgs_mutex);",
      "html_url" : "https://github.com/bitcoin/bitcoin/pull/24122#discussion_r790283504",
      "id" : 790283504,
      "line" : 25,
      "node_id" : "PRRC_kwDOABII584vGsTw",
      "original_commit_id" : "9add3f9c3486284bea6f91061a561c475ff4666a",
      "original_line" : 25,
      "original_position" : 6,
      "original_start_line" : null,
      "path" : "src/test/util/net.cpp",
      "position" : 6,
      "pull_request_review_id" : 860329104,
      "pull_request_url" : "https://api.github.com/repos/bitcoin/bitcoin/pulls/24122",
      "reactions" : {
         "+1" : 0,
         "-1" : 0,
         "confused" : 0,
         "eyes" : 0,
         "heart" : 0,
         "hooray" : 0,
         "laugh" : 0,
         "rocket" : 0,
         "total_count" : 0,
         "url" : "https://api.github.com/repos/bitcoin/bitcoin/pulls/comments/790283504/reactions"
      },
      "side" : "RIGHT",
      "start_line" : null,
      "start_side" : null,
      "updated_at" : "2022-01-23T14:22:01Z",
      "url" : "https://api.github.com/repos/bitcoin/bitcoin/pulls/comments/790283504",
      "user" : {
         "avatar_url" : "https://avatars.githubusercontent.com/u/85434418?v=4",
         "events_url" : "https://api.github.com/users/shaavan/events{/privacy}",
         "followers_url" : "https://api.github.com/users/shaavan/followers",
         "following_url" : "https://api.github.com/users/shaavan/following{/other_user}",
         "gists_url" : "https://api.github.com/users/shaavan/gists{/gist_id}",
         "gravatar_id" : "",
         "html_url" : "https://github.com/shaavan",
         "id" : 85434418,
         "login" : "shaavan",
         "node_id" : "MDQ6VXNlcjg1NDM0NDE4",
         "organizations_url" : "https://api.github.com/users/shaavan/orgs",
         "received_events_url" : "https://api.github.com/users/shaavan/received_events",
         "repos_url" : "https://api.github.com/users/shaavan/repos",
         "site_admin" : false,
         "starred_url" : "https://api.github.com/users/shaavan/starred{/owner}{/repo}",
         "subscriptions_url" : "https://api.github.com/users/shaavan/subscriptions",
         "type" : "User",
         "url" : "https://api.github.com/users/shaavan"
      }
   },
   {
      "_links" : {
         "html" : {
            "href" : "https://github.com/bitcoin/bitcoin/pull/24122#discussion_r790758256"
         },
         "pull_request" : {
            "href" : "https://api.github.com/repos/bitcoin/bitcoin/pulls/24122"
         },
         "self" : {
            "href" : "https://api.github.com/repos/bitcoin/bitcoin/pulls/comments/790758256"
         }
      },
      "author_association" : "CONTRIBUTOR",
      "body" : "Good catch, done! Also added the thread safety annotation to the corresponding method `ConnmanTestMsg::NodeReceiveMsgBytes`.",
      "commit_id" : "9c0b2687ca0f7b6698e12caee35ddfcb5f8d0370",
      "created_at" : "2022-01-24T13:46:39Z",
      "diff_hunk" : "@@ -22,8 +22,8 @@ void ConnmanTestMsg::NodeReceiveMsgBytes(CNode& node, Span<const uint8_t> msg_by\n             nSizeAdded += it->m_raw_message_size;\n         }\n         {\n-            LOCK(node.cs_vProcessMsg);\n-            node.vProcessMsg.splice(node.vProcessMsg.end(), node.vRecvMsg, node.vRecvMsg.begin(), it);\n+            LOCK(node.m_process_msgs_mutex);",
      "html_url" : "https://github.com/bitcoin/bitcoin/pull/24122#discussion_r790758256",
      "id" : 790758256,
      "in_reply_to_id" : 790283504,
      "line" : 26,
      "node_id" : "PRRC_kwDOABII584vIgNw",
      "original_commit_id" : "9add3f9c3486284bea6f91061a561c475ff4666a",
      "original_line" : 26,
      "original_position" : 6,
      "original_start_line" : null,
      "path" : "src/test/util/net.cpp",
      "position" : 7,
      "pull_request_review_id" : 860980110,
      "pull_request_url" : "https://api.github.com/repos/bitcoin/bitcoin/pulls/24122",
      "reactions" : {
         "+1" : 0,
         "-1" : 0,
         "confused" : 0,
         "eyes" : 0,
         "heart" : 0,
         "hooray" : 0,
         "laugh" : 0,
         "rocket" : 0,
         "total_count" : 0,
         "url" : "https://api.github.com/repos/bitcoin/bitcoin/pulls/comments/790758256/reactions"
      },
      "side" : "RIGHT",
      "start_line" : null,
      "start_side" : null,
      "updated_at" : "2022-01-24T13:46:39Z",
      "url" : "https://api.github.com/repos/bitcoin/bitcoin/pulls/comments/790758256",
      "user" : {
         "avatar_url" : "https://avatars.githubusercontent.com/u/91535?v=4",
         "events_url" : "https://api.github.com/users/theStack/events{/privacy}",
         "followers_url" : "https://api.github.com/users/theStack/followers",
         "following_url" : "https://api.github.com/users/theStack/following{/other_user}",
         "gists_url" : "https://api.github.com/users/theStack/gists{/gist_id}",
         "gravatar_id" : "",
         "html_url" : "https://github.com/theStack",
         "id" : 91535,
         "login" : "theStack",
         "node_id" : "MDQ6VXNlcjkxNTM1",
         "organizations_url" : "https://api.github.com/users/theStack/orgs",
         "received_events_url" : "https://api.github.com/users/theStack/received_events",
         "repos_url" : "https://api.github.com/users/theStack/repos",
         "site_admin" : false,
         "starred_url" : "https://api.github.com/users/theStack/starred{/owner}{/repo}",
         "subscriptions_url" : "https://api.github.com/users/theStack/subscriptions",
         "type" : "User",
         "url" : "https://api.github.com/users/theStack"
      }
   },
   {
      "author_association" : "CONTRIBUTOR",
      "body" : "<!--cf906140f33d8803c4a75a2196329ecb-->\nð This pull request conflicts with the target branch and [needs rebase](https://github.com/bitcoin/bitcoin/blob/master/CONTRIBUTING.md#rebasing-changes).\n\n<sub>Want to unsubscribe from rebase notifications on this pull request? Just convert this pull request to a \"draft\".</sub>",
      "created_at" : "2022-05-16T13:05:57Z",
      "html_url" : "https://github.com/bitcoin/bitcoin/pull/24122#issuecomment-1127648499",
      "id" : 1127648499,
      "issue_url" : "https://api.github.com/repos/bitcoin/bitcoin/issues/24122",
      "node_id" : "IC_kwDOABII585DNozz",
      "performed_via_github_app" : null,
      "reactions" : {
         "+1" : 0,
         "-1" : 0,
         "confused" : 0,
         "eyes" : 0,
         "heart" : 0,
         "hooray" : 0,
         "laugh" : 0,
         "rocket" : 0,
         "total_count" : 0,
         "url" : "https://api.github.com/repos/bitcoin/bitcoin/issues/comments/1127648499/reactions"
      },
      "updated_at" : "2022-05-16T13:05:57Z",
      "url" : "https://api.github.com/repos/bitcoin/bitcoin/issues/comments/1127648499",
      "user" : {
         "avatar_url" : "https://avatars.githubusercontent.com/u/39886733?v=4",
         "events_url" : "https://api.github.com/users/DrahtBot/events{/privacy}",
         "followers_url" : "https://api.github.com/users/DrahtBot/followers",
         "following_url" : "https://api.github.com/users/DrahtBot/following{/other_user}",
         "gists_url" : "https://api.github.com/users/DrahtBot/gists{/gist_id}",
         "gravatar_id" : "",
         "html_url" : "https://github.com/DrahtBot",
         "id" : 39886733,
         "login" : "DrahtBot",
         "node_id" : "MDQ6VXNlcjM5ODg2NzMz",
         "organizations_url" : "https://api.github.com/users/DrahtBot/orgs",
         "received_events_url" : "https://api.github.com/users/DrahtBot/received_events",
         "repos_url" : "https://api.github.com/users/DrahtBot/repos",
         "site_admin" : false,
         "starred_url" : "https://api.github.com/users/DrahtBot/starred{/owner}{/repo}",
         "subscriptions_url" : "https://api.github.com/users/DrahtBot/subscriptions",
         "type" : "User",
         "url" : "https://api.github.com/users/DrahtBot"
      }
   },
   {
      "author_association" : "CONTRIBUTOR",
      "body" : "<!--13523179cfe9479db18ec6c5d236f789-->There hasn't been much activity lately and the patch still needs rebase. What is the status here?\n\n* Is it still relevant? â¡ï¸ Please solve the conflicts to make it ready for review and to ensure the CI passes.\n* Is it no longer relevant? â¡ï¸ Please close.\n* Did the author lose interest or time to work on this? â¡ï¸ Please close it and mark it 'Up for grabs' with the label, so that it can be picked up in the future.\n",
      "created_at" : "2022-08-01T10:51:04Z",
      "html_url" : "https://github.com/bitcoin/bitcoin/pull/24122#issuecomment-1201037289",
      "id" : 1201037289,
      "issue_url" : "https://api.github.com/repos/bitcoin/bitcoin/issues/24122",
      "node_id" : "IC_kwDOABII585Hll_p",
      "performed_via_github_app" : null,
      "reactions" : {
         "+1" : 0,
         "-1" : 0,
         "confused" : 0,
         "eyes" : 0,
         "heart" : 0,
         "hooray" : 0,
         "laugh" : 0,
         "rocket" : 0,
         "total_count" : 0,
         "url" : "https://api.github.com/repos/bitcoin/bitcoin/issues/comments/1201037289/reactions"
      },
      "updated_at" : "2022-08-01T10:51:04Z",
      "url" : "https://api.github.com/repos/bitcoin/bitcoin/issues/comments/1201037289",
      "user" : {
         "avatar_url" : "https://avatars.githubusercontent.com/u/39886733?v=4",
         "events_url" : "https://api.github.com/users/DrahtBot/events{/privacy}",
         "followers_url" : "https://api.github.com/users/DrahtBot/followers",
         "following_url" : "https://api.github.com/users/DrahtBot/following{/other_user}",
         "gists_url" : "https://api.github.com/users/DrahtBot/gists{/gist_id}",
         "gravatar_id" : "",
         "html_url" : "https://github.com/DrahtBot",
         "id" : 39886733,
         "login" : "DrahtBot",
         "node_id" : "MDQ6VXNlcjM5ODg2NzMz",
         "organizations_url" : "https://api.github.com/users/DrahtBot/orgs",
         "received_events_url" : "https://api.github.com/users/DrahtBot/received_events",
         "repos_url" : "https://api.github.com/users/DrahtBot/repos",
         "site_admin" : false,
         "starred_url" : "https://api.github.com/users/DrahtBot/starred{/owner}{/repo}",
         "subscriptions_url" : "https://api.github.com/users/DrahtBot/subscriptions",
         "type" : "User",
         "url" : "https://api.github.com/users/DrahtBot"
      }
   }
]
