{
   "_links" : {
      "comments" : {
         "href" : "https://api.github.com/repos/bitcoin/bitcoin/issues/25243/comments"
      },
      "commits" : {
         "href" : "https://api.github.com/repos/bitcoin/bitcoin/pulls/25243/commits"
      },
      "html" : {
         "href" : "https://github.com/bitcoin/bitcoin/pull/25243"
      },
      "issue" : {
         "href" : "https://api.github.com/repos/bitcoin/bitcoin/issues/25243"
      },
      "review_comment" : {
         "href" : "https://api.github.com/repos/bitcoin/bitcoin/pulls/comments{/number}"
      },
      "review_comments" : {
         "href" : "https://api.github.com/repos/bitcoin/bitcoin/pulls/25243/comments"
      },
      "self" : {
         "href" : "https://api.github.com/repos/bitcoin/bitcoin/pulls/25243"
      },
      "statuses" : {
         "href" : "https://api.github.com/repos/bitcoin/bitcoin/statuses/3e2a36bad1da28016064fd026a3afecf5e2a555f"
      }
   },
   "active_lock_reason" : null,
   "additions" : 604,
   "assignee" : null,
   "assignees" : [],
   "author_association" : "CONTRIBUTOR",
   "auto_merge" : null,
   "base" : {
      "label" : "bitcoin:master",
      "ref" : "master",
      "repo" : {
         "allow_forking" : true,
         "archive_url" : "https://api.github.com/repos/bitcoin/bitcoin/{archive_format}{/ref}",
         "archived" : false,
         "assignees_url" : "https://api.github.com/repos/bitcoin/bitcoin/assignees{/user}",
         "blobs_url" : "https://api.github.com/repos/bitcoin/bitcoin/git/blobs{/sha}",
         "branches_url" : "https://api.github.com/repos/bitcoin/bitcoin/branches{/branch}",
         "clone_url" : "https://github.com/bitcoin/bitcoin.git",
         "collaborators_url" : "https://api.github.com/repos/bitcoin/bitcoin/collaborators{/collaborator}",
         "comments_url" : "https://api.github.com/repos/bitcoin/bitcoin/comments{/number}",
         "commits_url" : "https://api.github.com/repos/bitcoin/bitcoin/commits{/sha}",
         "compare_url" : "https://api.github.com/repos/bitcoin/bitcoin/compare/{base}...{head}",
         "contents_url" : "https://api.github.com/repos/bitcoin/bitcoin/contents/{+path}",
         "contributors_url" : "https://api.github.com/repos/bitcoin/bitcoin/contributors",
         "created_at" : "2010-12-19T15:16:43Z",
         "default_branch" : "master",
         "deployments_url" : "https://api.github.com/repos/bitcoin/bitcoin/deployments",
         "description" : "Bitcoin Core integration/staging tree",
         "disabled" : false,
         "downloads_url" : "https://api.github.com/repos/bitcoin/bitcoin/downloads",
         "events_url" : "https://api.github.com/repos/bitcoin/bitcoin/events",
         "fork" : false,
         "forks" : 32469,
         "forks_count" : 32469,
         "forks_url" : "https://api.github.com/repos/bitcoin/bitcoin/forks",
         "full_name" : "bitcoin/bitcoin",
         "git_commits_url" : "https://api.github.com/repos/bitcoin/bitcoin/git/commits{/sha}",
         "git_refs_url" : "https://api.github.com/repos/bitcoin/bitcoin/git/refs{/sha}",
         "git_tags_url" : "https://api.github.com/repos/bitcoin/bitcoin/git/tags{/sha}",
         "git_url" : "git://github.com/bitcoin/bitcoin.git",
         "has_downloads" : false,
         "has_issues" : true,
         "has_pages" : false,
         "has_projects" : true,
         "has_wiki" : false,
         "homepage" : "https://bitcoincore.org/en/download",
         "hooks_url" : "https://api.github.com/repos/bitcoin/bitcoin/hooks",
         "html_url" : "https://github.com/bitcoin/bitcoin",
         "id" : 1181927,
         "is_template" : false,
         "issue_comment_url" : "https://api.github.com/repos/bitcoin/bitcoin/issues/comments{/number}",
         "issue_events_url" : "https://api.github.com/repos/bitcoin/bitcoin/issues/events{/number}",
         "issues_url" : "https://api.github.com/repos/bitcoin/bitcoin/issues{/number}",
         "keys_url" : "https://api.github.com/repos/bitcoin/bitcoin/keys{/key_id}",
         "labels_url" : "https://api.github.com/repos/bitcoin/bitcoin/labels{/name}",
         "language" : "C++",
         "languages_url" : "https://api.github.com/repos/bitcoin/bitcoin/languages",
         "license" : {
            "key" : "mit",
            "name" : "MIT License",
            "node_id" : "MDc6TGljZW5zZTEz",
            "spdx_id" : "MIT",
            "url" : "https://api.github.com/licenses/mit"
         },
         "merges_url" : "https://api.github.com/repos/bitcoin/bitcoin/merges",
         "milestones_url" : "https://api.github.com/repos/bitcoin/bitcoin/milestones{/number}",
         "mirror_url" : null,
         "name" : "bitcoin",
         "node_id" : "MDEwOlJlcG9zaXRvcnkxMTgxOTI3",
         "notifications_url" : "https://api.github.com/repos/bitcoin/bitcoin/notifications{?since,all,participating}",
         "open_issues" : 952,
         "open_issues_count" : 952,
         "owner" : {
            "avatar_url" : "https://avatars.githubusercontent.com/u/528860?v=4",
            "events_url" : "https://api.github.com/users/bitcoin/events{/privacy}",
            "followers_url" : "https://api.github.com/users/bitcoin/followers",
            "following_url" : "https://api.github.com/users/bitcoin/following{/other_user}",
            "gists_url" : "https://api.github.com/users/bitcoin/gists{/gist_id}",
            "gravatar_id" : "",
            "html_url" : "https://github.com/bitcoin",
            "id" : 528860,
            "login" : "bitcoin",
            "node_id" : "MDEyOk9yZ2FuaXphdGlvbjUyODg2MA==",
            "organizations_url" : "https://api.github.com/users/bitcoin/orgs",
            "received_events_url" : "https://api.github.com/users/bitcoin/received_events",
            "repos_url" : "https://api.github.com/users/bitcoin/repos",
            "site_admin" : false,
            "starred_url" : "https://api.github.com/users/bitcoin/starred{/owner}{/repo}",
            "subscriptions_url" : "https://api.github.com/users/bitcoin/subscriptions",
            "type" : "Organization",
            "url" : "https://api.github.com/users/bitcoin"
         },
         "private" : false,
         "pulls_url" : "https://api.github.com/repos/bitcoin/bitcoin/pulls{/number}",
         "pushed_at" : "2022-05-30T09:52:23Z",
         "releases_url" : "https://api.github.com/repos/bitcoin/bitcoin/releases{/id}",
         "size" : 209125,
         "ssh_url" : "git@github.com:bitcoin/bitcoin.git",
         "stargazers_count" : 64377,
         "stargazers_url" : "https://api.github.com/repos/bitcoin/bitcoin/stargazers",
         "statuses_url" : "https://api.github.com/repos/bitcoin/bitcoin/statuses/{sha}",
         "subscribers_url" : "https://api.github.com/repos/bitcoin/bitcoin/subscribers",
         "subscription_url" : "https://api.github.com/repos/bitcoin/bitcoin/subscription",
         "svn_url" : "https://github.com/bitcoin/bitcoin",
         "tags_url" : "https://api.github.com/repos/bitcoin/bitcoin/tags",
         "teams_url" : "https://api.github.com/repos/bitcoin/bitcoin/teams",
         "topics" : [
            "bitcoin",
            "c-plus-plus",
            "cryptocurrency",
            "cryptography",
            "p2p"
         ],
         "trees_url" : "https://api.github.com/repos/bitcoin/bitcoin/git/trees{/sha}",
         "updated_at" : "2022-05-30T08:46:44Z",
         "url" : "https://api.github.com/repos/bitcoin/bitcoin",
         "visibility" : "public",
         "watchers" : 64377,
         "watchers_count" : 64377
      },
      "sha" : "8779adbdda7658d109556d2e3397e59869a4532a",
      "user" : {
         "avatar_url" : "https://avatars.githubusercontent.com/u/528860?v=4",
         "events_url" : "https://api.github.com/users/bitcoin/events{/privacy}",
         "followers_url" : "https://api.github.com/users/bitcoin/followers",
         "following_url" : "https://api.github.com/users/bitcoin/following{/other_user}",
         "gists_url" : "https://api.github.com/users/bitcoin/gists{/gist_id}",
         "gravatar_id" : "",
         "html_url" : "https://github.com/bitcoin",
         "id" : 528860,
         "login" : "bitcoin",
         "node_id" : "MDEyOk9yZ2FuaXphdGlvbjUyODg2MA==",
         "organizations_url" : "https://api.github.com/users/bitcoin/orgs",
         "received_events_url" : "https://api.github.com/users/bitcoin/received_events",
         "repos_url" : "https://api.github.com/users/bitcoin/repos",
         "site_admin" : false,
         "starred_url" : "https://api.github.com/users/bitcoin/starred{/owner}{/repo}",
         "subscriptions_url" : "https://api.github.com/users/bitcoin/subscriptions",
         "type" : "Organization",
         "url" : "https://api.github.com/users/bitcoin"
      }
   },
   "body" : "Added a functional test which parses all the RPC help commands then automatically generates the bitcoin-cli bash-completion file and makes sure that the original file matches the newly generated one.\r\n\r\nIn order to get the RPC help commands in the correct format needed for the test, I added the \"format\" RPC command.\r\n\r\nTest using `python3 test/functional/tool_cli_bash_completion.py --overwrite`\r\n\r\n<!--\r\n*** Please remove the following help text before submitting: ***\r\n\r\nPull requests without a rationale and clear improvement may be closed\r\nimmediately.\r\n\r\nGUI-related pull requests should be opened against\r\nhttps://github.com/bitcoin-core/gui\r\nfirst. See CONTRIBUTING.md\r\n-->\r\n\r\n<!--\r\nPlease provide clear motivation for your patch and explain how it improves\r\nBitcoin Core user experience or Bitcoin Core developer experience\r\nsignificantly:\r\n\r\n* Any test improvements or new tests that improve coverage are always welcome.\r\n* All other changes should have accompanying unit tests (see `src/test/`) or\r\n  functional tests (see `test/`). Contributors should note which tests cover\r\n  modified code. If no tests exist for a region of modified code, new tests\r\n  should accompany the change.\r\n* Bug fixes are most welcome when they come with steps to reproduce or an\r\n  explanation of the potential issue as well as reasoning for the way the bug\r\n  was fixed.\r\n* Features are welcome, but might be rejected due to design or scope issues.\r\n  If a feature is based on a lot of dependencies, contributors should first\r\n  consider building the system outside of Bitcoin Core, if possible.\r\n* Refactoring changes are only accepted if they are required for a feature or\r\n  bug fix or otherwise improve developer experience significantly. For example,\r\n  most \"code style\" refactoring changes require a thorough explanation why they\r\n  are useful, what downsides they have and why they *significantly* improve\r\n  developer experience or avoid serious programming bugs. Note that code style\r\n  is often a subjective matter. Unless they are explicitly mentioned to be\r\n  preferred in the [developer notes](/doc/developer-notes.md), stylistic code\r\n  changes are usually rejected.\r\n-->\r\n\r\n<!--\r\nBitcoin Core has a thorough review process and even the most trivial change\r\nneeds to pass a lot of eyes and requires non-zero or even substantial time\r\neffort to review. There is a huge lack of active reviewers on the project, so\r\npatches often sit for a long time.\r\n-->\r\n",
   "changed_files" : 11,
   "closed_at" : null,
   "comments" : 1,
   "comments_url" : "https://api.github.com/repos/bitcoin/bitcoin/issues/25243/comments",
   "commits" : 4,
   "commits_url" : "https://api.github.com/repos/bitcoin/bitcoin/pulls/25243/commits",
   "created_at" : "2022-05-30T09:33:05Z",
   "deletions" : 63,
   "diff_url" : "https://github.com/bitcoin/bitcoin/pull/25243.diff",
   "draft" : false,
   "head" : {
      "label" : "suhailsaqan:bash-completion",
      "ref" : "bash-completion",
      "repo" : {
         "allow_forking" : true,
         "archive_url" : "https://api.github.com/repos/suhailsaqan/bitcoin/{archive_format}{/ref}",
         "archived" : false,
         "assignees_url" : "https://api.github.com/repos/suhailsaqan/bitcoin/assignees{/user}",
         "blobs_url" : "https://api.github.com/repos/suhailsaqan/bitcoin/git/blobs{/sha}",
         "branches_url" : "https://api.github.com/repos/suhailsaqan/bitcoin/branches{/branch}",
         "clone_url" : "https://github.com/suhailsaqan/bitcoin.git",
         "collaborators_url" : "https://api.github.com/repos/suhailsaqan/bitcoin/collaborators{/collaborator}",
         "comments_url" : "https://api.github.com/repos/suhailsaqan/bitcoin/comments{/number}",
         "commits_url" : "https://api.github.com/repos/suhailsaqan/bitcoin/commits{/sha}",
         "compare_url" : "https://api.github.com/repos/suhailsaqan/bitcoin/compare/{base}...{head}",
         "contents_url" : "https://api.github.com/repos/suhailsaqan/bitcoin/contents/{+path}",
         "contributors_url" : "https://api.github.com/repos/suhailsaqan/bitcoin/contributors",
         "created_at" : "2021-10-31T05:34:39Z",
         "default_branch" : "master",
         "deployments_url" : "https://api.github.com/repos/suhailsaqan/bitcoin/deployments",
         "description" : "Bitcoin Core integration/staging tree",
         "disabled" : false,
         "downloads_url" : "https://api.github.com/repos/suhailsaqan/bitcoin/downloads",
         "events_url" : "https://api.github.com/repos/suhailsaqan/bitcoin/events",
         "fork" : true,
         "forks" : 0,
         "forks_count" : 0,
         "forks_url" : "https://api.github.com/repos/suhailsaqan/bitcoin/forks",
         "full_name" : "suhailsaqan/bitcoin",
         "git_commits_url" : "https://api.github.com/repos/suhailsaqan/bitcoin/git/commits{/sha}",
         "git_refs_url" : "https://api.github.com/repos/suhailsaqan/bitcoin/git/refs{/sha}",
         "git_tags_url" : "https://api.github.com/repos/suhailsaqan/bitcoin/git/tags{/sha}",
         "git_url" : "git://github.com/suhailsaqan/bitcoin.git",
         "has_downloads" : false,
         "has_issues" : false,
         "has_pages" : false,
         "has_projects" : true,
         "has_wiki" : false,
         "homepage" : "https://bitcoincore.org/en/download",
         "hooks_url" : "https://api.github.com/repos/suhailsaqan/bitcoin/hooks",
         "html_url" : "https://github.com/suhailsaqan/bitcoin",
         "id" : 423062585,
         "is_template" : false,
         "issue_comment_url" : "https://api.github.com/repos/suhailsaqan/bitcoin/issues/comments{/number}",
         "issue_events_url" : "https://api.github.com/repos/suhailsaqan/bitcoin/issues/events{/number}",
         "issues_url" : "https://api.github.com/repos/suhailsaqan/bitcoin/issues{/number}",
         "keys_url" : "https://api.github.com/repos/suhailsaqan/bitcoin/keys{/key_id}",
         "labels_url" : "https://api.github.com/repos/suhailsaqan/bitcoin/labels{/name}",
         "language" : "C++",
         "languages_url" : "https://api.github.com/repos/suhailsaqan/bitcoin/languages",
         "license" : {
            "key" : "mit",
            "name" : "MIT License",
            "node_id" : "MDc6TGljZW5zZTEz",
            "spdx_id" : "MIT",
            "url" : "https://api.github.com/licenses/mit"
         },
         "merges_url" : "https://api.github.com/repos/suhailsaqan/bitcoin/merges",
         "milestones_url" : "https://api.github.com/repos/suhailsaqan/bitcoin/milestones{/number}",
         "mirror_url" : null,
         "name" : "bitcoin",
         "node_id" : "R_kgDOGTdsOQ",
         "notifications_url" : "https://api.github.com/repos/suhailsaqan/bitcoin/notifications{?since,all,participating}",
         "open_issues" : 0,
         "open_issues_count" : 0,
         "owner" : {
            "avatar_url" : "https://avatars.githubusercontent.com/u/43693074?v=4",
            "events_url" : "https://api.github.com/users/suhailsaqan/events{/privacy}",
            "followers_url" : "https://api.github.com/users/suhailsaqan/followers",
            "following_url" : "https://api.github.com/users/suhailsaqan/following{/other_user}",
            "gists_url" : "https://api.github.com/users/suhailsaqan/gists{/gist_id}",
            "gravatar_id" : "",
            "html_url" : "https://github.com/suhailsaqan",
            "id" : 43693074,
            "login" : "suhailsaqan",
            "node_id" : "MDQ6VXNlcjQzNjkzMDc0",
            "organizations_url" : "https://api.github.com/users/suhailsaqan/orgs",
            "received_events_url" : "https://api.github.com/users/suhailsaqan/received_events",
            "repos_url" : "https://api.github.com/users/suhailsaqan/repos",
            "site_admin" : false,
            "starred_url" : "https://api.github.com/users/suhailsaqan/starred{/owner}{/repo}",
            "subscriptions_url" : "https://api.github.com/users/suhailsaqan/subscriptions",
            "type" : "User",
            "url" : "https://api.github.com/users/suhailsaqan"
         },
         "private" : false,
         "pulls_url" : "https://api.github.com/repos/suhailsaqan/bitcoin/pulls{/number}",
         "pushed_at" : "2022-05-30T09:54:00Z",
         "releases_url" : "https://api.github.com/repos/suhailsaqan/bitcoin/releases{/id}",
         "size" : 208091,
         "ssh_url" : "git@github.com:suhailsaqan/bitcoin.git",
         "stargazers_count" : 0,
         "stargazers_url" : "https://api.github.com/repos/suhailsaqan/bitcoin/stargazers",
         "statuses_url" : "https://api.github.com/repos/suhailsaqan/bitcoin/statuses/{sha}",
         "subscribers_url" : "https://api.github.com/repos/suhailsaqan/bitcoin/subscribers",
         "subscription_url" : "https://api.github.com/repos/suhailsaqan/bitcoin/subscription",
         "svn_url" : "https://github.com/suhailsaqan/bitcoin",
         "tags_url" : "https://api.github.com/repos/suhailsaqan/bitcoin/tags",
         "teams_url" : "https://api.github.com/repos/suhailsaqan/bitcoin/teams",
         "topics" : [],
         "trees_url" : "https://api.github.com/repos/suhailsaqan/bitcoin/git/trees{/sha}",
         "updated_at" : "2022-04-16T20:16:53Z",
         "url" : "https://api.github.com/repos/suhailsaqan/bitcoin",
         "visibility" : "public",
         "watchers" : 0,
         "watchers_count" : 0
      },
      "sha" : "3e2a36bad1da28016064fd026a3afecf5e2a555f",
      "user" : {
         "avatar_url" : "https://avatars.githubusercontent.com/u/43693074?v=4",
         "events_url" : "https://api.github.com/users/suhailsaqan/events{/privacy}",
         "followers_url" : "https://api.github.com/users/suhailsaqan/followers",
         "following_url" : "https://api.github.com/users/suhailsaqan/following{/other_user}",
         "gists_url" : "https://api.github.com/users/suhailsaqan/gists{/gist_id}",
         "gravatar_id" : "",
         "html_url" : "https://github.com/suhailsaqan",
         "id" : 43693074,
         "login" : "suhailsaqan",
         "node_id" : "MDQ6VXNlcjQzNjkzMDc0",
         "organizations_url" : "https://api.github.com/users/suhailsaqan/orgs",
         "received_events_url" : "https://api.github.com/users/suhailsaqan/received_events",
         "repos_url" : "https://api.github.com/users/suhailsaqan/repos",
         "site_admin" : false,
         "starred_url" : "https://api.github.com/users/suhailsaqan/starred{/owner}{/repo}",
         "subscriptions_url" : "https://api.github.com/users/suhailsaqan/subscriptions",
         "type" : "User",
         "url" : "https://api.github.com/users/suhailsaqan"
      }
   },
   "html_url" : "https://github.com/bitcoin/bitcoin/pull/25243",
   "id" : 950747275,
   "issue_url" : "https://api.github.com/repos/bitcoin/bitcoin/issues/25243",
   "labels" : [],
   "locked" : false,
   "maintainer_can_modify" : true,
   "merge_commit_sha" : "335fd451711db0b06c9c077c81dad4b8b5855468",
   "mergeable" : true,
   "mergeable_state" : "blocked",
   "merged" : false,
   "merged_at" : null,
   "merged_by" : null,
   "milestone" : null,
   "node_id" : "PR_kwDOABII5844q0CL",
   "number" : 25243,
   "patch_url" : "https://github.com/bitcoin/bitcoin/pull/25243.patch",
   "rebaseable" : true,
   "requested_reviewers" : [],
   "requested_teams" : [],
   "review_comment_url" : "https://api.github.com/repos/bitcoin/bitcoin/pulls/comments{/number}",
   "review_comments" : 0,
   "review_comments_url" : "https://api.github.com/repos/bitcoin/bitcoin/pulls/25243/comments",
   "state" : "open",
   "statuses_url" : "https://api.github.com/repos/bitcoin/bitcoin/statuses/3e2a36bad1da28016064fd026a3afecf5e2a555f",
   "title" : "test: autogenerate bash completion",
   "updated_at" : "2022-05-30T09:47:28Z",
   "url" : "https://api.github.com/repos/bitcoin/bitcoin/pulls/25243",
   "user" : {
      "avatar_url" : "https://avatars.githubusercontent.com/u/43693074?v=4",
      "events_url" : "https://api.github.com/users/suhailsaqan/events{/privacy}",
      "followers_url" : "https://api.github.com/users/suhailsaqan/followers",
      "following_url" : "https://api.github.com/users/suhailsaqan/following{/other_user}",
      "gists_url" : "https://api.github.com/users/suhailsaqan/gists{/gist_id}",
      "gravatar_id" : "",
      "html_url" : "https://github.com/suhailsaqan",
      "id" : 43693074,
      "login" : "suhailsaqan",
      "node_id" : "MDQ6VXNlcjQzNjkzMDc0",
      "organizations_url" : "https://api.github.com/users/suhailsaqan/orgs",
      "received_events_url" : "https://api.github.com/users/suhailsaqan/received_events",
      "repos_url" : "https://api.github.com/users/suhailsaqan/repos",
      "site_admin" : false,
      "starred_url" : "https://api.github.com/users/suhailsaqan/starred{/owner}{/repo}",
      "subscriptions_url" : "https://api.github.com/users/suhailsaqan/subscriptions",
      "type" : "User",
      "url" : "https://api.github.com/users/suhailsaqan"
   }
}
