{
   "active_lock_reason" : null,
   "assignee" : null,
   "assignees" : [],
   "author_association" : "MEMBER",
   "body" : "This shouldn't matter too much, unless a really large string is pushed into a json struct, but I think it also clarifies the code.",
   "closed_at" : null,
   "closed_by" : null,
   "comments" : 0,
   "comments_url" : "https://api.github.com/repos/bitcoin/bitcoin/issues/25714/comments",
   "created_at" : "2022-07-26T16:26:50Z",
   "draft" : false,
   "events_url" : "https://api.github.com/repos/bitcoin/bitcoin/issues/25714/events",
   "html_url" : "https://github.com/bitcoin/bitcoin/pull/25714",
   "id" : 1318488494,
   "labels" : [
      {
         "color" : "E6F6D6",
         "default" : false,
         "description" : null,
         "id" : 135961,
         "name" : "Refactoring",
         "node_id" : "MDU6TGFiZWwxMzU5NjE=",
         "url" : "https://api.github.com/repos/bitcoin/bitcoin/labels/Refactoring"
      }
   ],
   "labels_url" : "https://api.github.com/repos/bitcoin/bitcoin/issues/25714/labels{/name}",
   "locked" : false,
   "milestone" : null,
   "node_id" : "PR_kwDOABII5848IBZI",
   "number" : 25714,
   "performed_via_github_app" : null,
   "pull_request" : {
      "diff_url" : "https://github.com/bitcoin/bitcoin/pull/25714.diff",
      "html_url" : "https://github.com/bitcoin/bitcoin/pull/25714",
      "merged_at" : null,
      "patch_url" : "https://github.com/bitcoin/bitcoin/pull/25714.patch",
      "url" : "https://api.github.com/repos/bitcoin/bitcoin/pulls/25714"
   },
   "reactions" : {
      "+1" : 0,
      "-1" : 0,
      "confused" : 0,
      "eyes" : 0,
      "heart" : 0,
      "hooray" : 0,
      "laugh" : 0,
      "rocket" : 0,
      "total_count" : 0,
      "url" : "https://api.github.com/repos/bitcoin/bitcoin/issues/25714/reactions"
   },
   "repository_url" : "https://api.github.com/repos/bitcoin/bitcoin",
   "state" : "open",
   "state_reason" : null,
   "timeline_url" : "https://api.github.com/repos/bitcoin/bitcoin/issues/25714/timeline",
   "title" : "univalue: Avoid std::string copies",
   "updated_at" : "2022-07-26T16:26:50Z",
   "url" : "https://api.github.com/repos/bitcoin/bitcoin/issues/25714",
   "user" : {
      "avatar_url" : "https://avatars.githubusercontent.com/u/6399679?v=4",
      "events_url" : "https://api.github.com/users/MarcoFalke/events{/privacy}",
      "followers_url" : "https://api.github.com/users/MarcoFalke/followers",
      "following_url" : "https://api.github.com/users/MarcoFalke/following{/other_user}",
      "gists_url" : "https://api.github.com/users/MarcoFalke/gists{/gist_id}",
      "gravatar_id" : "",
      "html_url" : "https://github.com/MarcoFalke",
      "id" : 6399679,
      "login" : "MarcoFalke",
      "node_id" : "MDQ6VXNlcjYzOTk2Nzk=",
      "organizations_url" : "https://api.github.com/users/MarcoFalke/orgs",
      "received_events_url" : "https://api.github.com/users/MarcoFalke/received_events",
      "repos_url" : "https://api.github.com/users/MarcoFalke/repos",
      "site_admin" : false,
      "starred_url" : "https://api.github.com/users/MarcoFalke/starred{/owner}{/repo}",
      "subscriptions_url" : "https://api.github.com/users/MarcoFalke/subscriptions",
      "type" : "User",
      "url" : "https://api.github.com/users/MarcoFalke"
   }
}
