[
   {
      "author_association" : "CONTRIBUTOR",
      "body" : "<!--e57a25ab6845829454e8d69fc972939a-->\n\nThe following sections might be updated with supplementary metadata relevant to reviewers and maintainers.\n\n<!--174a7506f384e20aa4161008e828411d-->\n### Conflicts\nReviewers, this pull request conflicts with the following ones:\n\n* [#25786](https://github.com/bitcoin/bitcoin/pull/25786) (refactor: Make adjusted time type safe by MarcoFalke)\n* [#25704](https://github.com/bitcoin/bitcoin/pull/25704) (refactor: Remove almost all validation option globals by MarcoFalke)\n* [#25665](https://github.com/bitcoin/bitcoin/pull/25665) (refactor: Add util::Result failure values, multiple error and warning messages by ryanofsky)\n* [#25623](https://github.com/bitcoin/bitcoin/pull/25623) ([kernel 3e/n] Decouple `CDBWrapper` and its kernel users from `ArgsManager` by dongcarl)\n* [#25572](https://github.com/bitcoin/bitcoin/pull/25572) (refactor: Introduce EvictionManager and use it for the inbound eviction logic by dergoegge)\n* [#25386](https://github.com/bitcoin/bitcoin/pull/25386) (refactor: Extract MIB_BYTES constant for init.cpp by Empact)\n* [#25193](https://github.com/bitcoin/bitcoin/pull/25193) (indexes: Read the locator's top block during init, allow interaction with reindex-chainstate by mzumsande)\n* [#24858](https://github.com/bitcoin/bitcoin/pull/24858) (incorrect blk file size calculation during reindex results in recoverable blk file corruption by mruddy)\n* [#24230](https://github.com/bitcoin/bitcoin/pull/24230) (indexes: Stop using node internal types and locking cs_main, improve sync logic by ryanofsky)\n* [#20827](https://github.com/bitcoin/bitcoin/pull/20827) (During IBD, prune as much as possible until we get close to where we will eventually keep blocks by luke-jr)\n\nIf you consider this pull request important, please also help to review the conflicting pull requests. Ideally, start with the one that should be merged first.",
      "created_at" : "2022-08-05T04:13:57Z",
      "html_url" : "https://github.com/bitcoin/bitcoin/pull/25781#issuecomment-1206022284",
      "id" : 1206022284,
      "issue_url" : "https://api.github.com/repos/bitcoin/bitcoin/issues/25781",
      "node_id" : "IC_kwDOABII585H4nCM",
      "performed_via_github_app" : null,
      "reactions" : {
         "+1" : 0,
         "-1" : 0,
         "confused" : 0,
         "eyes" : 0,
         "heart" : 0,
         "hooray" : 0,
         "laugh" : 0,
         "rocket" : 0,
         "total_count" : 0,
         "url" : "https://api.github.com/repos/bitcoin/bitcoin/issues/comments/1206022284/reactions"
      },
      "updated_at" : "2022-08-10T21:45:14Z",
      "url" : "https://api.github.com/repos/bitcoin/bitcoin/issues/comments/1206022284",
      "user" : {
         "avatar_url" : "https://avatars.githubusercontent.com/u/39886733?v=4",
         "events_url" : "https://api.github.com/users/DrahtBot/events{/privacy}",
         "followers_url" : "https://api.github.com/users/DrahtBot/followers",
         "following_url" : "https://api.github.com/users/DrahtBot/following{/other_user}",
         "gists_url" : "https://api.github.com/users/DrahtBot/gists{/gist_id}",
         "gravatar_id" : "",
         "html_url" : "https://github.com/DrahtBot",
         "id" : 39886733,
         "login" : "DrahtBot",
         "node_id" : "MDQ6VXNlcjM5ODg2NzMz",
         "organizations_url" : "https://api.github.com/users/DrahtBot/orgs",
         "received_events_url" : "https://api.github.com/users/DrahtBot/received_events",
         "repos_url" : "https://api.github.com/users/DrahtBot/repos",
         "site_admin" : false,
         "starred_url" : "https://api.github.com/users/DrahtBot/starred{/owner}{/repo}",
         "subscriptions_url" : "https://api.github.com/users/DrahtBot/subscriptions",
         "type" : "User",
         "url" : "https://api.github.com/users/DrahtBot"
      }
   },
   {
      "author_association" : "MEMBER",
      "body" : "rebased",
      "created_at" : "2022-08-12T07:41:24Z",
      "html_url" : "https://github.com/bitcoin/bitcoin/pull/25781#issuecomment-1212824645",
      "id" : 1212824645,
      "issue_url" : "https://api.github.com/repos/bitcoin/bitcoin/issues/25781",
      "node_id" : "IC_kwDOABII585ISjxF",
      "performed_via_github_app" : null,
      "reactions" : {
         "+1" : 0,
         "-1" : 0,
         "confused" : 0,
         "eyes" : 0,
         "heart" : 0,
         "hooray" : 0,
         "laugh" : 0,
         "rocket" : 0,
         "total_count" : 0,
         "url" : "https://api.github.com/repos/bitcoin/bitcoin/issues/comments/1212824645/reactions"
      },
      "updated_at" : "2022-08-12T07:41:24Z",
      "url" : "https://api.github.com/repos/bitcoin/bitcoin/issues/comments/1212824645",
      "user" : {
         "avatar_url" : "https://avatars.githubusercontent.com/u/6399679?v=4",
         "events_url" : "https://api.github.com/users/MarcoFalke/events{/privacy}",
         "followers_url" : "https://api.github.com/users/MarcoFalke/followers",
         "following_url" : "https://api.github.com/users/MarcoFalke/following{/other_user}",
         "gists_url" : "https://api.github.com/users/MarcoFalke/gists{/gist_id}",
         "gravatar_id" : "",
         "html_url" : "https://github.com/MarcoFalke",
         "id" : 6399679,
         "login" : "MarcoFalke",
         "node_id" : "MDQ6VXNlcjYzOTk2Nzk=",
         "organizations_url" : "https://api.github.com/users/MarcoFalke/orgs",
         "received_events_url" : "https://api.github.com/users/MarcoFalke/received_events",
         "repos_url" : "https://api.github.com/users/MarcoFalke/repos",
         "site_admin" : false,
         "starred_url" : "https://api.github.com/users/MarcoFalke/starred{/owner}{/repo}",
         "subscriptions_url" : "https://api.github.com/users/MarcoFalke/subscriptions",
         "type" : "User",
         "url" : "https://api.github.com/users/MarcoFalke"
      }
   }
]
