[
   {
      "author_association" : "NONE",
      "body" : "Confirming @jarolrod's results on `Mac OS 12.5`\r\n\r\nACK 5474f5c356c5a17fbf6c84110cf83a5753cd0367\r\n\r\nResults on master (c012875b9ded0a5183602f002738ca823d559518)\r\n\r\n```\r\n$ find . -name \"*log\" | wc -l\r\n     108\r\n```\r\n\r\nOn this PR (5474f5c356c5a17fbf6c84110cf83a5753cd0367)\r\n\r\n```\r\n$ find . -name \"*log\" | wc -l\r\n       2\r\n```\r\n\r\n\r\n```\r\n./autogen.sh && ./configure && make distcheck -j9\r\n...\r\nif test -d \"bitcoin-23.99.0\"; then find \"bitcoin-23.99.0\" -type d ! -perm -200 -exec chmod u+w {} ';' && rm -rf \"bitcoin-23.99.0\" || { sleep 5 && rm -rf \"bitcoin-23.99.0\"; }; else :; fi\r\n=================================================\r\nbitcoin-23.99.0 archives ready for distribution:\r\nbitcoin-23.99.0.tar.gz\r\n=================================================\r\n```\r\n\r\n",
      "created_at" : "2022-08-09T17:09:29Z",
      "html_url" : "https://github.com/bitcoin/bitcoin/pull/25798#issuecomment-1209645708",
      "id" : 1209645708,
      "issue_url" : "https://api.github.com/repos/bitcoin/bitcoin/issues/25798",
      "node_id" : "IC_kwDOABII585IGbqM",
      "performed_via_github_app" : null,
      "reactions" : {
         "+1" : 0,
         "-1" : 0,
         "confused" : 0,
         "eyes" : 0,
         "heart" : 0,
         "hooray" : 0,
         "laugh" : 0,
         "rocket" : 0,
         "total_count" : 0,
         "url" : "https://api.github.com/repos/bitcoin/bitcoin/issues/comments/1209645708/reactions"
      },
      "updated_at" : "2022-08-09T17:15:24Z",
      "url" : "https://api.github.com/repos/bitcoin/bitcoin/issues/comments/1209645708",
      "user" : {
         "avatar_url" : "https://avatars.githubusercontent.com/u/749118?v=4",
         "events_url" : "https://api.github.com/users/adam2k/events{/privacy}",
         "followers_url" : "https://api.github.com/users/adam2k/followers",
         "following_url" : "https://api.github.com/users/adam2k/following{/other_user}",
         "gists_url" : "https://api.github.com/users/adam2k/gists{/gist_id}",
         "gravatar_id" : "",
         "html_url" : "https://github.com/adam2k",
         "id" : 749118,
         "login" : "adam2k",
         "node_id" : "MDQ6VXNlcjc0OTExOA==",
         "organizations_url" : "https://api.github.com/users/adam2k/orgs",
         "received_events_url" : "https://api.github.com/users/adam2k/received_events",
         "repos_url" : "https://api.github.com/users/adam2k/repos",
         "site_admin" : false,
         "starred_url" : "https://api.github.com/users/adam2k/starred{/owner}{/repo}",
         "subscriptions_url" : "https://api.github.com/users/adam2k/subscriptions",
         "type" : "User",
         "url" : "https://api.github.com/users/adam2k"
      }
   },
   {
      "author_association" : "MEMBER",
      "body" : "GUIX hashes\r\n\r\nx86:\r\n```\r\n$ find guix-build-$(git rev-parse --short=12 HEAD)/output/ -type f -print0 | env LC_ALL=C sort -z | xargs -r0 sha256sum\r\n\r\nc33306c2ae55bc0e037a1050bd0813fd7654f21fefd0e7df089a541118b629bc  guix-build-5474f5c356c5/output/aarch64-linux-gnu/SHA256SUMS.part\r\nf3cf5b8366e27155f3a369ab0d017074912506c43b4010054a72e5c3ae8cab2c  guix-build-5474f5c356c5/output/aarch64-linux-gnu/bitcoin-5474f5c356c5-aarch64-linux-gnu-debug.tar.gz\r\n48f618300f63533c50c31395959737103bb0279972b989cc5417adbf338a5c9f  guix-build-5474f5c356c5/output/aarch64-linux-gnu/bitcoin-5474f5c356c5-aarch64-linux-gnu.tar.gz\r\n6b3e0ceefc84dfad48aec3a9ea8ae98a427775242370234709605855f593dc88  guix-build-5474f5c356c5/output/arm-linux-gnueabihf/SHA256SUMS.part\r\n36a38f4d0d2d0fee51256ee9c610cde014055cf18b5b852c8b3235ef218b461e  guix-build-5474f5c356c5/output/arm-linux-gnueabihf/bitcoin-5474f5c356c5-arm-linux-gnueabihf-debug.tar.gz\r\n3acb46a786323068fe34eaa8b2f7bff428d35367677e456b78fc00db09da8adf  guix-build-5474f5c356c5/output/arm-linux-gnueabihf/bitcoin-5474f5c356c5-arm-linux-gnueabihf.tar.gz\r\naaeb126cca3cbbb1d21be2cbb36b3e16a8c110199a5e61172ee55c9c913fb717  guix-build-5474f5c356c5/output/arm64-apple-darwin/SHA256SUMS.part\r\n0135d47c34dfbfbcd68181292fc810a1be4efaa0ff9fab05f9f33415167fc82c  guix-build-5474f5c356c5/output/arm64-apple-darwin/bitcoin-5474f5c356c5-arm64-apple-darwin-unsigned.dmg\r\n261ae9f70238ecbd8fedf9b3e02f34601abe42c4a23b25d0571d04d0881fdaba  guix-build-5474f5c356c5/output/arm64-apple-darwin/bitcoin-5474f5c356c5-arm64-apple-darwin-unsigned.tar.gz\r\nde716e0f425bae38cfda2690e86dbfa6831b6d37dd8a7638ca14334eecbddf99  guix-build-5474f5c356c5/output/arm64-apple-darwin/bitcoin-5474f5c356c5-arm64-apple-darwin.tar.gz\r\n2e2e1d5cd009ec5c69ce22124afe90ff8c15e9cb546df818b2305ff96efa9c81  guix-build-5474f5c356c5/output/dist-archive/bitcoin-5474f5c356c5.tar.gz\r\n85dd41584a2c7715b16508dff0f51bbb20b3891a1901a1781ecc37bc1cfd97c8  guix-build-5474f5c356c5/output/powerpc64-linux-gnu/SHA256SUMS.part\r\n49ae951e9acb34fede0ead4d53679ddc041bfb6d60646efaca2a99cf87972be9  guix-build-5474f5c356c5/output/powerpc64-linux-gnu/bitcoin-5474f5c356c5-powerpc64-linux-gnu-debug.tar.gz\r\n2efcb3fbb6702bff30bbf05d83b9849f390c67a1c363c883d71f365f4bee7ef6  guix-build-5474f5c356c5/output/powerpc64-linux-gnu/bitcoin-5474f5c356c5-powerpc64-linux-gnu.tar.gz\r\ncea9e8e2499932ef6e20bba7a6b3408e2cca6fcd1875c1890293dd745add6942  guix-build-5474f5c356c5/output/powerpc64le-linux-gnu/SHA256SUMS.part\r\n7616659242a1f15b7d6f9f54382dfb52d0bbdca701e1fb3d48fbe7bb590e6213  guix-build-5474f5c356c5/output/powerpc64le-linux-gnu/bitcoin-5474f5c356c5-powerpc64le-linux-gnu-debug.tar.gz\r\nd9d4eeaf6f9d1272000aa598c8461afc330a8e65f263d45b0eab222f8ddfec71  guix-build-5474f5c356c5/output/powerpc64le-linux-gnu/bitcoin-5474f5c356c5-powerpc64le-linux-gnu.tar.gz\r\nf83ee11c35001d34f9fba7d1e9e201a4cc6fa5e44bd51e13dabffcb35324348c  guix-build-5474f5c356c5/output/riscv64-linux-gnu/SHA256SUMS.part\r\nc441e56f23f224122ed064cdb57364fb129f5c9d50c5e8173952ce649b46bdb8  guix-build-5474f5c356c5/output/riscv64-linux-gnu/bitcoin-5474f5c356c5-riscv64-linux-gnu-debug.tar.gz\r\n319db8af21a4d3c7bbdf54c315ad70bacf7fba1f2559408188d90c9ba60ca63c  guix-build-5474f5c356c5/output/riscv64-linux-gnu/bitcoin-5474f5c356c5-riscv64-linux-gnu.tar.gz\r\n9ac536a04d7e500f87b1f7dfb60e1e84cde2c192d3dffb89c308b864e9b9d583  guix-build-5474f5c356c5/output/x86_64-apple-darwin/SHA256SUMS.part\r\n19e70f13fb4bf82375f7ca882a23e831f84729278e643cf5911182bdababa893  guix-build-5474f5c356c5/output/x86_64-apple-darwin/bitcoin-5474f5c356c5-x86_64-apple-darwin-unsigned.dmg\r\n673a20e9457af3d0a89ea6721f84c6136132d3fbe469b7371bf14ce688b567d0  guix-build-5474f5c356c5/output/x86_64-apple-darwin/bitcoin-5474f5c356c5-x86_64-apple-darwin-unsigned.tar.gz\r\n74162d53faffc4372ae4587cde395fe078b5c440c43c5a4ad8b8b890e9546255  guix-build-5474f5c356c5/output/x86_64-apple-darwin/bitcoin-5474f5c356c5-x86_64-apple-darwin.tar.gz\r\nd751d50427d7abcbe9ac1daf087dc3addb7e4e6b90bb4c3ef6c31f8e54cac25e  guix-build-5474f5c356c5/output/x86_64-linux-gnu/SHA256SUMS.part\r\n49951b53172d4fe193d7ffc15b04a4bc058a3209653982b65912f2b221305dd4  guix-build-5474f5c356c5/output/x86_64-linux-gnu/bitcoin-5474f5c356c5-x86_64-linux-gnu-debug.tar.gz\r\n93d4c4b07202a9171a72b6887e3931e53b3a8c22433b26521e2cb2a0c942f52a  guix-build-5474f5c356c5/output/x86_64-linux-gnu/bitcoin-5474f5c356c5-x86_64-linux-gnu.tar.gz\r\nb4b79e3578b6ffbb3075aacff969fb201b386e35a2d9d597047b61ff14bdfbfb  guix-build-5474f5c356c5/output/x86_64-w64-mingw32/SHA256SUMS.part\r\n8260f5c9a38cc577dff2143f00c465d117aa9835b3633365289d6807d7e46e7c  guix-build-5474f5c356c5/output/x86_64-w64-mingw32/bitcoin-5474f5c356c5-win64-debug.zip\r\nb20fbf02ddf617b86e5d5f88346ed97f9d169cd56904684ba3ca5f03ea85f008  guix-build-5474f5c356c5/output/x86_64-w64-mingw32/bitcoin-5474f5c356c5-win64-setup-unsigned.exe\r\n16e9d1b817a832bfb0be2b9065440245a5d04b3aae8e34ff0f43f20c5dd7047f  guix-build-5474f5c356c5/output/x86_64-w64-mingw32/bitcoin-5474f5c356c5-win64-unsigned.tar.gz\r\nda766e257d10cf8890a530babc6100039c69ae7ed8e4f969eb612b4a411dd88f  guix-build-5474f5c356c5/output/x86_64-w64-mingw32/bitcoin-5474f5c356c5-win64.zip\r\n```\r\n\r\narm64:\r\n```\r\n$ env HOSTS='arm-linux-gnueabihf arm64-apple-darwin powerpc64-linux-gnu powerpc64le-linux-gnu riscv64-linux-gnu x86_64-apple-darwin x86_64-linux-gnu x86_64-w64-mingw32' ./contrib/guix/guix-build\r\n$ find guix-build-$(git rev-parse --short=12 HEAD)/output/ -type f -print0 | env LC_ALL=C sort -z | xargs -r0 sha256sum\r\n\r\n6b3e0ceefc84dfad48aec3a9ea8ae98a427775242370234709605855f593dc88  guix-build-5474f5c356c5/output/arm-linux-gnueabihf/SHA256SUMS.part\r\n36a38f4d0d2d0fee51256ee9c610cde014055cf18b5b852c8b3235ef218b461e  guix-build-5474f5c356c5/output/arm-linux-gnueabihf/bitcoin-5474f5c356c5-arm-linux-gnueabihf-debug.tar.gz\r\n3acb46a786323068fe34eaa8b2f7bff428d35367677e456b78fc00db09da8adf  guix-build-5474f5c356c5/output/arm-linux-gnueabihf/bitcoin-5474f5c356c5-arm-linux-gnueabihf.tar.gz\r\nd920ae65703cece95b38e5d5aba6861080a37ad6416704592b8f8f1622fccc35  guix-build-5474f5c356c5/output/arm64-apple-darwin/SHA256SUMS.part\r\nd7b0840821e244f2cfdda6003ba37cffa2c72fa31d7221a6340424f023e78c55  guix-build-5474f5c356c5/output/arm64-apple-darwin/bitcoin-5474f5c356c5-arm64-apple-darwin-unsigned.dmg\r\n78fc9f272aaad37a84d9d1dc69e2bcbef2845960aea064e535e401622e2d00d9  guix-build-5474f5c356c5/output/arm64-apple-darwin/bitcoin-5474f5c356c5-arm64-apple-darwin-unsigned.tar.gz\r\n0a407da59583661f45f4747a581f037e9b16ef2779b42968f88b659cec703839  guix-build-5474f5c356c5/output/arm64-apple-darwin/bitcoin-5474f5c356c5-arm64-apple-darwin.tar.gz\r\n2e2e1d5cd009ec5c69ce22124afe90ff8c15e9cb546df818b2305ff96efa9c81  guix-build-5474f5c356c5/output/dist-archive/bitcoin-5474f5c356c5.tar.gz\r\n85dd41584a2c7715b16508dff0f51bbb20b3891a1901a1781ecc37bc1cfd97c8  guix-build-5474f5c356c5/output/powerpc64-linux-gnu/SHA256SUMS.part\r\n49ae951e9acb34fede0ead4d53679ddc041bfb6d60646efaca2a99cf87972be9  guix-build-5474f5c356c5/output/powerpc64-linux-gnu/bitcoin-5474f5c356c5-powerpc64-linux-gnu-debug.tar.gz\r\n2efcb3fbb6702bff30bbf05d83b9849f390c67a1c363c883d71f365f4bee7ef6  guix-build-5474f5c356c5/output/powerpc64-linux-gnu/bitcoin-5474f5c356c5-powerpc64-linux-gnu.tar.gz\r\ncea9e8e2499932ef6e20bba7a6b3408e2cca6fcd1875c1890293dd745add6942  guix-build-5474f5c356c5/output/powerpc64le-linux-gnu/SHA256SUMS.part\r\n7616659242a1f15b7d6f9f54382dfb52d0bbdca701e1fb3d48fbe7bb590e6213  guix-build-5474f5c356c5/output/powerpc64le-linux-gnu/bitcoin-5474f5c356c5-powerpc64le-linux-gnu-debug.tar.gz\r\nd9d4eeaf6f9d1272000aa598c8461afc330a8e65f263d45b0eab222f8ddfec71  guix-build-5474f5c356c5/output/powerpc64le-linux-gnu/bitcoin-5474f5c356c5-powerpc64le-linux-gnu.tar.gz\r\nf83ee11c35001d34f9fba7d1e9e201a4cc6fa5e44bd51e13dabffcb35324348c  guix-build-5474f5c356c5/output/riscv64-linux-gnu/SHA256SUMS.part\r\nc441e56f23f224122ed064cdb57364fb129f5c9d50c5e8173952ce649b46bdb8  guix-build-5474f5c356c5/output/riscv64-linux-gnu/bitcoin-5474f5c356c5-riscv64-linux-gnu-debug.tar.gz\r\n319db8af21a4d3c7bbdf54c315ad70bacf7fba1f2559408188d90c9ba60ca63c  guix-build-5474f5c356c5/output/riscv64-linux-gnu/bitcoin-5474f5c356c5-riscv64-linux-gnu.tar.gz\r\n9ac536a04d7e500f87b1f7dfb60e1e84cde2c192d3dffb89c308b864e9b9d583  guix-build-5474f5c356c5/output/x86_64-apple-darwin/SHA256SUMS.part\r\n19e70f13fb4bf82375f7ca882a23e831f84729278e643cf5911182bdababa893  guix-build-5474f5c356c5/output/x86_64-apple-darwin/bitcoin-5474f5c356c5-x86_64-apple-darwin-unsigned.dmg\r\n673a20e9457af3d0a89ea6721f84c6136132d3fbe469b7371bf14ce688b567d0  guix-build-5474f5c356c5/output/x86_64-apple-darwin/bitcoin-5474f5c356c5-x86_64-apple-darwin-unsigned.tar.gz\r\n74162d53faffc4372ae4587cde395fe078b5c440c43c5a4ad8b8b890e9546255  guix-build-5474f5c356c5/output/x86_64-apple-darwin/bitcoin-5474f5c356c5-x86_64-apple-darwin.tar.gz\r\nd751d50427d7abcbe9ac1daf087dc3addb7e4e6b90bb4c3ef6c31f8e54cac25e  guix-build-5474f5c356c5/output/x86_64-linux-gnu/SHA256SUMS.part\r\n49951b53172d4fe193d7ffc15b04a4bc058a3209653982b65912f2b221305dd4  guix-build-5474f5c356c5/output/x86_64-linux-gnu/bitcoin-5474f5c356c5-x86_64-linux-gnu-debug.tar.gz\r\n93d4c4b07202a9171a72b6887e3931e53b3a8c22433b26521e2cb2a0c942f52a  guix-build-5474f5c356c5/output/x86_64-linux-gnu/bitcoin-5474f5c356c5-x86_64-linux-gnu.tar.gz\r\nb4b79e3578b6ffbb3075aacff969fb201b386e35a2d9d597047b61ff14bdfbfb  guix-build-5474f5c356c5/output/x86_64-w64-mingw32/SHA256SUMS.part\r\n8260f5c9a38cc577dff2143f00c465d117aa9835b3633365289d6807d7e46e7c  guix-build-5474f5c356c5/output/x86_64-w64-mingw32/bitcoin-5474f5c356c5-win64-debug.zip\r\nb20fbf02ddf617b86e5d5f88346ed97f9d169cd56904684ba3ca5f03ea85f008  guix-build-5474f5c356c5/output/x86_64-w64-mingw32/bitcoin-5474f5c356c5-win64-setup-unsigned.exe\r\n16e9d1b817a832bfb0be2b9065440245a5d04b3aae8e34ff0f43f20c5dd7047f  guix-build-5474f5c356c5/output/x86_64-w64-mingw32/bitcoin-5474f5c356c5-win64-unsigned.tar.gz\r\nda766e257d10cf8890a530babc6100039c69ae7ed8e4f969eb612b4a411dd88f  guix-build-5474f5c356c5/output/x86_64-w64-mingw32/bitcoin-5474f5c356c5-win64.zip\r\n```",
      "created_at" : "2022-08-09T18:23:10Z",
      "html_url" : "https://github.com/bitcoin/bitcoin/pull/25798#issuecomment-1209722546",
      "id" : 1209722546,
      "issue_url" : "https://api.github.com/repos/bitcoin/bitcoin/issues/25798",
      "node_id" : "IC_kwDOABII585IGuay",
      "performed_via_github_app" : null,
      "reactions" : {
         "+1" : 0,
         "-1" : 0,
         "confused" : 0,
         "eyes" : 0,
         "heart" : 0,
         "hooray" : 0,
         "laugh" : 0,
         "rocket" : 0,
         "total_count" : 0,
         "url" : "https://api.github.com/repos/bitcoin/bitcoin/issues/comments/1209722546/reactions"
      },
      "updated_at" : "2022-08-09T20:07:29Z",
      "url" : "https://api.github.com/repos/bitcoin/bitcoin/issues/comments/1209722546",
      "user" : {
         "avatar_url" : "https://avatars.githubusercontent.com/u/23396902?v=4",
         "events_url" : "https://api.github.com/users/jarolrod/events{/privacy}",
         "followers_url" : "https://api.github.com/users/jarolrod/followers",
         "following_url" : "https://api.github.com/users/jarolrod/following{/other_user}",
         "gists_url" : "https://api.github.com/users/jarolrod/gists{/gist_id}",
         "gravatar_id" : "",
         "html_url" : "https://github.com/jarolrod",
         "id" : 23396902,
         "login" : "jarolrod",
         "node_id" : "MDQ6VXNlcjIzMzk2OTAy",
         "organizations_url" : "https://api.github.com/users/jarolrod/orgs",
         "received_events_url" : "https://api.github.com/users/jarolrod/received_events",
         "repos_url" : "https://api.github.com/users/jarolrod/repos",
         "site_admin" : false,
         "starred_url" : "https://api.github.com/users/jarolrod/starred{/owner}{/repo}",
         "subscriptions_url" : "https://api.github.com/users/jarolrod/subscriptions",
         "type" : "User",
         "url" : "https://api.github.com/users/jarolrod"
      }
   },
   {
      "author_association" : "MEMBER",
      "body" : "ACK 5474f5c356c5a17fbf6c84110cf83a5753cd0367",
      "created_at" : "2022-08-11T15:56:58Z",
      "html_url" : "https://github.com/bitcoin/bitcoin/pull/25798#issuecomment-1212180834",
      "id" : 1212180834,
      "issue_url" : "https://api.github.com/repos/bitcoin/bitcoin/issues/25798",
      "node_id" : "IC_kwDOABII585IQGli",
      "performed_via_github_app" : null,
      "reactions" : {
         "+1" : 0,
         "-1" : 0,
         "confused" : 0,
         "eyes" : 0,
         "heart" : 0,
         "hooray" : 0,
         "laugh" : 0,
         "rocket" : 0,
         "total_count" : 0,
         "url" : "https://api.github.com/repos/bitcoin/bitcoin/issues/comments/1212180834/reactions"
      },
      "updated_at" : "2022-08-11T15:56:58Z",
      "url" : "https://api.github.com/repos/bitcoin/bitcoin/issues/comments/1212180834",
      "user" : {
         "avatar_url" : "https://avatars.githubusercontent.com/u/3782274?v=4",
         "events_url" : "https://api.github.com/users/achow101/events{/privacy}",
         "followers_url" : "https://api.github.com/users/achow101/followers",
         "following_url" : "https://api.github.com/users/achow101/following{/other_user}",
         "gists_url" : "https://api.github.com/users/achow101/gists{/gist_id}",
         "gravatar_id" : "",
         "html_url" : "https://github.com/achow101",
         "id" : 3782274,
         "login" : "achow101",
         "node_id" : "MDQ6VXNlcjM3ODIyNzQ=",
         "organizations_url" : "https://api.github.com/users/achow101/orgs",
         "received_events_url" : "https://api.github.com/users/achow101/received_events",
         "repos_url" : "https://api.github.com/users/achow101/repos",
         "site_admin" : false,
         "starred_url" : "https://api.github.com/users/achow101/starred{/owner}{/repo}",
         "subscriptions_url" : "https://api.github.com/users/achow101/subscriptions",
         "type" : "User",
         "url" : "https://api.github.com/users/achow101"
      }
   },
   {
      "author_association" : "CONTRIBUTOR",
      "body" : "<!--9cd9c72976c961c55c7acef8f6ba82cd-->\n### Guix builds\n\n| File | commit a6fc293c0a1f27ba1e573bfa16fd76d5f58988b2<br>(master) | commit 72579a0f0686ee5eb52584d48e61cf84c1f2a303<br>(master and this pull) |\n|--|--|--|\n| SHA256SUMS.part | [`ee1df5c52df292d7...`](https://drahtbot.space/guix/bitcoin/bitcoin/a6fc293c0a1f27ba1e573bfa16fd76d5f58988b2/SHA256SUMS.part) | [`729c19f6d98a2a69...`](https://drahtbot.space/guix/bitcoin/bitcoin/72579a0f0686ee5eb52584d48e61cf84c1f2a303/SHA256SUMS.part) |\n| *-aarch64-linux-gnu-debug.tar.gz | [`3c5094ea45e3eabc...`](https://drahtbot.space/guix/bitcoin/bitcoin/a6fc293c0a1f27ba1e573bfa16fd76d5f58988b2/bitcoin-a6fc293c0a1f-aarch64-linux-gnu-debug.tar.gz) | [`3d30362a7fa1ac24...`](https://drahtbot.space/guix/bitcoin/bitcoin/72579a0f0686ee5eb52584d48e61cf84c1f2a303/bitcoin-72579a0f0686-aarch64-linux-gnu-debug.tar.gz) |\n| *-aarch64-linux-gnu.tar.gz | [`fe471b2323a76617...`](https://drahtbot.space/guix/bitcoin/bitcoin/a6fc293c0a1f27ba1e573bfa16fd76d5f58988b2/bitcoin-a6fc293c0a1f-aarch64-linux-gnu.tar.gz) | [`cd7236c15c4631f1...`](https://drahtbot.space/guix/bitcoin/bitcoin/72579a0f0686ee5eb52584d48e61cf84c1f2a303/bitcoin-72579a0f0686-aarch64-linux-gnu.tar.gz) |\n| *-arm-linux-gnueabihf-debug.tar.gz | [`84b3ffc992dd23c3...`](https://drahtbot.space/guix/bitcoin/bitcoin/a6fc293c0a1f27ba1e573bfa16fd76d5f58988b2/bitcoin-a6fc293c0a1f-arm-linux-gnueabihf-debug.tar.gz) | [`9cb3afef491ec62a...`](https://drahtbot.space/guix/bitcoin/bitcoin/72579a0f0686ee5eb52584d48e61cf84c1f2a303/bitcoin-72579a0f0686-arm-linux-gnueabihf-debug.tar.gz) |\n| *-arm-linux-gnueabihf.tar.gz | [`4fdaeb62ff2bb35c...`](https://drahtbot.space/guix/bitcoin/bitcoin/a6fc293c0a1f27ba1e573bfa16fd76d5f58988b2/bitcoin-a6fc293c0a1f-arm-linux-gnueabihf.tar.gz) | [`99770d163806c6a3...`](https://drahtbot.space/guix/bitcoin/bitcoin/72579a0f0686ee5eb52584d48e61cf84c1f2a303/bitcoin-72579a0f0686-arm-linux-gnueabihf.tar.gz) |\n| *-arm64-apple-darwin-unsigned.dmg | [`b517524ad24d8a88...`](https://drahtbot.space/guix/bitcoin/bitcoin/a6fc293c0a1f27ba1e573bfa16fd76d5f58988b2/bitcoin-a6fc293c0a1f-arm64-apple-darwin-unsigned.dmg) | [`dede2f72e1c2686f...`](https://drahtbot.space/guix/bitcoin/bitcoin/72579a0f0686ee5eb52584d48e61cf84c1f2a303/bitcoin-72579a0f0686-arm64-apple-darwin-unsigned.dmg) |\n| *-arm64-apple-darwin-unsigned.tar.gz | [`a67f1287ce599762...`](https://drahtbot.space/guix/bitcoin/bitcoin/a6fc293c0a1f27ba1e573bfa16fd76d5f58988b2/bitcoin-a6fc293c0a1f-arm64-apple-darwin-unsigned.tar.gz) | [`ce6937517670cff4...`](https://drahtbot.space/guix/bitcoin/bitcoin/72579a0f0686ee5eb52584d48e61cf84c1f2a303/bitcoin-72579a0f0686-arm64-apple-darwin-unsigned.tar.gz) |\n| *-arm64-apple-darwin.tar.gz | [`7b3a70c0a8522185...`](https://drahtbot.space/guix/bitcoin/bitcoin/a6fc293c0a1f27ba1e573bfa16fd76d5f58988b2/bitcoin-a6fc293c0a1f-arm64-apple-darwin.tar.gz) | [`ea4216d6231c19f3...`](https://drahtbot.space/guix/bitcoin/bitcoin/72579a0f0686ee5eb52584d48e61cf84c1f2a303/bitcoin-72579a0f0686-arm64-apple-darwin.tar.gz) |\n| *-powerpc64-linux-gnu-debug.tar.gz | [`5a42d588ca968430...`](https://drahtbot.space/guix/bitcoin/bitcoin/a6fc293c0a1f27ba1e573bfa16fd76d5f58988b2/bitcoin-a6fc293c0a1f-powerpc64-linux-gnu-debug.tar.gz) | [`f98cab40d2494e4e...`](https://drahtbot.space/guix/bitcoin/bitcoin/72579a0f0686ee5eb52584d48e61cf84c1f2a303/bitcoin-72579a0f0686-powerpc64-linux-gnu-debug.tar.gz) |\n| *-powerpc64-linux-gnu.tar.gz | [`f5825733bf0b62c4...`](https://drahtbot.space/guix/bitcoin/bitcoin/a6fc293c0a1f27ba1e573bfa16fd76d5f58988b2/bitcoin-a6fc293c0a1f-powerpc64-linux-gnu.tar.gz) | [`0adc408b345f19d5...`](https://drahtbot.space/guix/bitcoin/bitcoin/72579a0f0686ee5eb52584d48e61cf84c1f2a303/bitcoin-72579a0f0686-powerpc64-linux-gnu.tar.gz) |\n| *-powerpc64le-linux-gnu-debug.tar.gz | [`bc524d6680fba2ce...`](https://drahtbot.space/guix/bitcoin/bitcoin/a6fc293c0a1f27ba1e573bfa16fd76d5f58988b2/bitcoin-a6fc293c0a1f-powerpc64le-linux-gnu-debug.tar.gz) | [`bf475bebe918f045...`](https://drahtbot.space/guix/bitcoin/bitcoin/72579a0f0686ee5eb52584d48e61cf84c1f2a303/bitcoin-72579a0f0686-powerpc64le-linux-gnu-debug.tar.gz) |\n| *-powerpc64le-linux-gnu.tar.gz | [`7d17b7eb24fa91db...`](https://drahtbot.space/guix/bitcoin/bitcoin/a6fc293c0a1f27ba1e573bfa16fd76d5f58988b2/bitcoin-a6fc293c0a1f-powerpc64le-linux-gnu.tar.gz) | [`2df44544dc123a89...`](https://drahtbot.space/guix/bitcoin/bitcoin/72579a0f0686ee5eb52584d48e61cf84c1f2a303/bitcoin-72579a0f0686-powerpc64le-linux-gnu.tar.gz) |\n| *-riscv64-linux-gnu-debug.tar.gz | [`9b51a9467993519e...`](https://drahtbot.space/guix/bitcoin/bitcoin/a6fc293c0a1f27ba1e573bfa16fd76d5f58988b2/bitcoin-a6fc293c0a1f-riscv64-linux-gnu-debug.tar.gz) | [`70099f0711194652...`](https://drahtbot.space/guix/bitcoin/bitcoin/72579a0f0686ee5eb52584d48e61cf84c1f2a303/bitcoin-72579a0f0686-riscv64-linux-gnu-debug.tar.gz) |\n| *-riscv64-linux-gnu.tar.gz | [`c55c086d6e655575...`](https://drahtbot.space/guix/bitcoin/bitcoin/a6fc293c0a1f27ba1e573bfa16fd76d5f58988b2/bitcoin-a6fc293c0a1f-riscv64-linux-gnu.tar.gz) | [`7cfdbf2d70904eab...`](https://drahtbot.space/guix/bitcoin/bitcoin/72579a0f0686ee5eb52584d48e61cf84c1f2a303/bitcoin-72579a0f0686-riscv64-linux-gnu.tar.gz) |\n| *-win64-debug.zip | [`0e5189fd72b5ab03...`](https://drahtbot.space/guix/bitcoin/bitcoin/a6fc293c0a1f27ba1e573bfa16fd76d5f58988b2/bitcoin-a6fc293c0a1f-win64-debug.zip) | [`8662f817532cef0d...`](https://drahtbot.space/guix/bitcoin/bitcoin/72579a0f0686ee5eb52584d48e61cf84c1f2a303/bitcoin-72579a0f0686-win64-debug.zip) |\n| *-win64-setup-unsigned.exe | [`73363f0240b2c096...`](https://drahtbot.space/guix/bitcoin/bitcoin/a6fc293c0a1f27ba1e573bfa16fd76d5f58988b2/bitcoin-a6fc293c0a1f-win64-setup-unsigned.exe) | [`099abc4c0270b025...`](https://drahtbot.space/guix/bitcoin/bitcoin/72579a0f0686ee5eb52584d48e61cf84c1f2a303/bitcoin-72579a0f0686-win64-setup-unsigned.exe) |\n| *-win64-unsigned.tar.gz | [`e5ce44c59beac3ca...`](https://drahtbot.space/guix/bitcoin/bitcoin/a6fc293c0a1f27ba1e573bfa16fd76d5f58988b2/bitcoin-a6fc293c0a1f-win64-unsigned.tar.gz) | [`f680a2ac64db5106...`](https://drahtbot.space/guix/bitcoin/bitcoin/72579a0f0686ee5eb52584d48e61cf84c1f2a303/bitcoin-72579a0f0686-win64-unsigned.tar.gz) |\n| *-win64.zip | [`db20f0a2feba2959...`](https://drahtbot.space/guix/bitcoin/bitcoin/a6fc293c0a1f27ba1e573bfa16fd76d5f58988b2/bitcoin-a6fc293c0a1f-win64.zip) | [`a2d2ea8b84a2f12e...`](https://drahtbot.space/guix/bitcoin/bitcoin/72579a0f0686ee5eb52584d48e61cf84c1f2a303/bitcoin-72579a0f0686-win64.zip) |\n| *-x86_64-apple-darwin-unsigned.dmg | [`68ed63eb807a1a98...`](https://drahtbot.space/guix/bitcoin/bitcoin/a6fc293c0a1f27ba1e573bfa16fd76d5f58988b2/bitcoin-a6fc293c0a1f-x86_64-apple-darwin-unsigned.dmg) | [`b73ecb72a8b08959...`](https://drahtbot.space/guix/bitcoin/bitcoin/72579a0f0686ee5eb52584d48e61cf84c1f2a303/bitcoin-72579a0f0686-x86_64-apple-darwin-unsigned.dmg) |\n| *-x86_64-apple-darwin-unsigned.tar.gz | [`99f3e7fe5af9882b...`](https://drahtbot.space/guix/bitcoin/bitcoin/a6fc293c0a1f27ba1e573bfa16fd76d5f58988b2/bitcoin-a6fc293c0a1f-x86_64-apple-darwin-unsigned.tar.gz) | [`45babe560b6e8b4f...`](https://drahtbot.space/guix/bitcoin/bitcoin/72579a0f0686ee5eb52584d48e61cf84c1f2a303/bitcoin-72579a0f0686-x86_64-apple-darwin-unsigned.tar.gz) |\n| *-x86_64-apple-darwin.tar.gz | [`ca7d0af2edf956d3...`](https://drahtbot.space/guix/bitcoin/bitcoin/a6fc293c0a1f27ba1e573bfa16fd76d5f58988b2/bitcoin-a6fc293c0a1f-x86_64-apple-darwin.tar.gz) | [`f6a1e62ca4e34888...`](https://drahtbot.space/guix/bitcoin/bitcoin/72579a0f0686ee5eb52584d48e61cf84c1f2a303/bitcoin-72579a0f0686-x86_64-apple-darwin.tar.gz) |\n| *-x86_64-linux-gnu-debug.tar.gz | [`d578c96496828562...`](https://drahtbot.space/guix/bitcoin/bitcoin/a6fc293c0a1f27ba1e573bfa16fd76d5f58988b2/bitcoin-a6fc293c0a1f-x86_64-linux-gnu-debug.tar.gz) | [`340d960de59358a8...`](https://drahtbot.space/guix/bitcoin/bitcoin/72579a0f0686ee5eb52584d48e61cf84c1f2a303/bitcoin-72579a0f0686-x86_64-linux-gnu-debug.tar.gz) |\n| *-x86_64-linux-gnu.tar.gz | [`651a427d8ad6a6e8...`](https://drahtbot.space/guix/bitcoin/bitcoin/a6fc293c0a1f27ba1e573bfa16fd76d5f58988b2/bitcoin-a6fc293c0a1f-x86_64-linux-gnu.tar.gz) | [`7efce5d162fcb126...`](https://drahtbot.space/guix/bitcoin/bitcoin/72579a0f0686ee5eb52584d48e61cf84c1f2a303/bitcoin-72579a0f0686-x86_64-linux-gnu.tar.gz) |\n| *.tar.gz | [`61d6fb619c35fdc8...`](https://drahtbot.space/guix/bitcoin/bitcoin/a6fc293c0a1f27ba1e573bfa16fd76d5f58988b2/bitcoin-a6fc293c0a1f.tar.gz) | [`f4daf4693bb04414...`](https://drahtbot.space/guix/bitcoin/bitcoin/72579a0f0686ee5eb52584d48e61cf84c1f2a303/bitcoin-72579a0f0686.tar.gz) |\n| guix_build.log | [`c8c9ea8e5b44a4b9...`](https://drahtbot.space/guix/bitcoin/bitcoin/a6fc293c0a1f27ba1e573bfa16fd76d5f58988b2/guix_build.log) | [`8e8c0889f74254a5...`](https://drahtbot.space/guix/bitcoin/bitcoin/72579a0f0686ee5eb52584d48e61cf84c1f2a303/guix_build.log) |\n| guix_build.log.diff |  | [`91b73589e6746667...`](https://drahtbot.space/guix/bitcoin/bitcoin/72579a0f0686ee5eb52584d48e61cf84c1f2a303/guix_build.log.diff) |\n\n",
      "created_at" : "2022-08-11T18:06:21Z",
      "html_url" : "https://github.com/bitcoin/bitcoin/pull/25798#issuecomment-1212313864",
      "id" : 1212313864,
      "issue_url" : "https://api.github.com/repos/bitcoin/bitcoin/issues/25798",
      "node_id" : "IC_kwDOABII585IQnEI",
      "performed_via_github_app" : null,
      "reactions" : {
         "+1" : 0,
         "-1" : 0,
         "confused" : 0,
         "eyes" : 0,
         "heart" : 0,
         "hooray" : 0,
         "laugh" : 0,
         "rocket" : 0,
         "total_count" : 0,
         "url" : "https://api.github.com/repos/bitcoin/bitcoin/issues/comments/1212313864/reactions"
      },
      "updated_at" : "2022-08-11T18:06:21Z",
      "url" : "https://api.github.com/repos/bitcoin/bitcoin/issues/comments/1212313864",
      "user" : {
         "avatar_url" : "https://avatars.githubusercontent.com/u/39886733?v=4",
         "events_url" : "https://api.github.com/users/DrahtBot/events{/privacy}",
         "followers_url" : "https://api.github.com/users/DrahtBot/followers",
         "following_url" : "https://api.github.com/users/DrahtBot/following{/other_user}",
         "gists_url" : "https://api.github.com/users/DrahtBot/gists{/gist_id}",
         "gravatar_id" : "",
         "html_url" : "https://github.com/DrahtBot",
         "id" : 39886733,
         "login" : "DrahtBot",
         "node_id" : "MDQ6VXNlcjM5ODg2NzMz",
         "organizations_url" : "https://api.github.com/users/DrahtBot/orgs",
         "received_events_url" : "https://api.github.com/users/DrahtBot/received_events",
         "repos_url" : "https://api.github.com/users/DrahtBot/repos",
         "site_admin" : false,
         "starred_url" : "https://api.github.com/users/DrahtBot/starred{/owner}{/repo}",
         "subscriptions_url" : "https://api.github.com/users/DrahtBot/subscriptions",
         "type" : "User",
         "url" : "https://api.github.com/users/DrahtBot"
      }
   }
]
