{
   "active_lock_reason" : null,
   "assignee" : null,
   "assignees" : [],
   "author_association" : "CONTRIBUTOR",
   "body" : "These changes address and fix issue #21379.\r\n\r\nAs the title suggests, the blocks/blk?????.dat files are mutated and become increasingly malformed, or corrupt, as a result of running the re-indexing process.\r\nThe mutations occur after the re-indexing process has finished, as new blocks are appended, but are a result of a re-indexing process miscalculation that lingers in the block manager's `m_blockfile_info` `nSize` data until node restart.\r\nI avoided using the term \"corruption\" in the title because I did NOT want to imply a level of malformedness beyond which the blk file reading code could not recover.\r\nThese additions to the blk files are non-fatal, but also not desirable.\r\nThat is, this is a form of data corruption that the reading code is lenient enough to process (it skips the extra bytes), but it adds some scary looking log messages as it encounters them.\r\n\r\nThe summary of the problem is that the re-index process double counts the size of the serialization header (magic message start bytes [4 bytes] + length [4 bytes] = 8 bytes) while calculating the blk data file size (both values already account for the serialization header's size, hence why it is over accounted).\r\n\r\nThis bug manifests itself in a few different ways, after re-indexing, when a new block from a peer is processed:\r\n1. If the new block will not fit into the last blk file processed while re-indexing, while remaining under the 128MiB limit, then the blk file is flushed to disk and truncated to a size that is 8 greater than it should be. The truncation adds zero bytes (see `FlatFileSeq::Flush` and `TruncateFile`).\r\n1. If the last blk file processed while re-indexing has logical space for the new block under the 128 MiB limit:\r\n    1. If the blk file was not already large enough to hold the new block, then the zeros are, in effect, added by `fseek` when the file is opened for writing. Eight zero bytes are added to the end of the last blk file just before the new block is written. This happens because the write offset is 8 too great due to the miscalculation. The result is 8 zero bytes between the end of the last block and the beginning of the next block's magic + length + block.\r\n    1. If the blk file was already large enough to hold the new block, then the current existing file contents remain in the 8 byte gap between the end of the last block and the beginning of the next block's magic + length + block. Commonly, when this occcurs, it is due to the blk file containing blocks that are not connected to the block tree during reindex and are thus left behind by the reindex process and later overwritten when new blocks are added. The orphaned blocks can be valid blocks, but due to the nature of concurrent block download, the parent may not have been retrieved and written by the time the node was previously shutdown.",
   "closed_at" : null,
   "closed_by" : null,
   "comments" : 2,
   "comments_url" : "https://api.github.com/repos/bitcoin/bitcoin/issues/24858/comments",
   "created_at" : "2022-04-14T23:40:39Z",
   "draft" : false,
   "events_url" : "https://api.github.com/repos/bitcoin/bitcoin/issues/24858/events",
   "html_url" : "https://github.com/bitcoin/bitcoin/pull/24858",
   "id" : 1205108501,
   "labels" : [
      {
         "color" : "5319e7",
         "default" : false,
         "description" : null,
         "id" : 61889416,
         "name" : "Build system",
         "node_id" : "MDU6TGFiZWw2MTg4OTQxNg==",
         "url" : "https://api.github.com/repos/bitcoin/bitcoin/labels/Build%20system"
      },
      {
         "color" : "6060aa",
         "default" : false,
         "description" : null,
         "id" : 118379652,
         "name" : "Validation",
         "node_id" : "MDU6TGFiZWwxMTgzNzk2NTI=",
         "url" : "https://api.github.com/repos/bitcoin/bitcoin/labels/Validation"
      },
      {
         "color" : "000000",
         "default" : false,
         "description" : null,
         "id" : 219890555,
         "name" : "Block storage",
         "node_id" : "MDU6TGFiZWwyMTk4OTA1NTU=",
         "url" : "https://api.github.com/repos/bitcoin/bitcoin/labels/Block%20storage"
      }
   ],
   "labels_url" : "https://api.github.com/repos/bitcoin/bitcoin/issues/24858/labels{/name}",
   "locked" : false,
   "milestone" : null,
   "node_id" : "PR_kwDOABII5842RHNy",
   "number" : 24858,
   "performed_via_github_app" : null,
   "pull_request" : {
      "diff_url" : "https://github.com/bitcoin/bitcoin/pull/24858.diff",
      "html_url" : "https://github.com/bitcoin/bitcoin/pull/24858",
      "merged_at" : null,
      "patch_url" : "https://github.com/bitcoin/bitcoin/pull/24858.patch",
      "url" : "https://api.github.com/repos/bitcoin/bitcoin/pulls/24858"
   },
   "reactions" : {
      "+1" : 0,
      "-1" : 0,
      "confused" : 0,
      "eyes" : 0,
      "heart" : 0,
      "hooray" : 0,
      "laugh" : 0,
      "rocket" : 0,
      "total_count" : 0,
      "url" : "https://api.github.com/repos/bitcoin/bitcoin/issues/24858/reactions"
   },
   "repository_url" : "https://api.github.com/repos/bitcoin/bitcoin",
   "state" : "open",
   "timeline_url" : "https://api.github.com/repos/bitcoin/bitcoin/issues/24858/timeline",
   "title" : "reindex, log, test: incorrect blk file size calculation during reindex results in undesirable blk file malformedness",
   "updated_at" : "2022-04-15T04:57:05Z",
   "url" : "https://api.github.com/repos/bitcoin/bitcoin/issues/24858",
   "user" : {
      "avatar_url" : "https://avatars.githubusercontent.com/u/6440430?v=4",
      "events_url" : "https://api.github.com/users/mruddy/events{/privacy}",
      "followers_url" : "https://api.github.com/users/mruddy/followers",
      "following_url" : "https://api.github.com/users/mruddy/following{/other_user}",
      "gists_url" : "https://api.github.com/users/mruddy/gists{/gist_id}",
      "gravatar_id" : "",
      "html_url" : "https://github.com/mruddy",
      "id" : 6440430,
      "login" : "mruddy",
      "node_id" : "MDQ6VXNlcjY0NDA0MzA=",
      "organizations_url" : "https://api.github.com/users/mruddy/orgs",
      "received_events_url" : "https://api.github.com/users/mruddy/received_events",
      "repos_url" : "https://api.github.com/users/mruddy/repos",
      "site_admin" : false,
      "starred_url" : "https://api.github.com/users/mruddy/starred{/owner}{/repo}",
      "subscriptions_url" : "https://api.github.com/users/mruddy/subscriptions",
      "type" : "User",
      "url" : "https://api.github.com/users/mruddy"
   }
}
